<?xml version="1.0" encoding="UTF-8" standalone="no"?>
<!-- Created with Inkscape (http://www.inkscape.org/) -->

<svg
   xmlns:dc="http://purl.org/dc/elements/1.1/"
   xmlns:cc="http://creativecommons.org/ns#"
   xmlns:rdf="http://www.w3.org/1999/02/22-rdf-syntax-ns#"
   xmlns:svg="http://www.w3.org/2000/svg"
   xmlns="http://www.w3.org/2000/svg"
   xmlns:sodipodi="http://sodipodi.sourceforge.net/DTD/sodipodi-0.dtd"
   xmlns:inkscape="http://www.inkscape.org/namespaces/inkscape"
   width="210mm"
   height="297mm"
   viewBox="0 0 210 297"
   version="1.1"
   id="svg260"
   inkscape:version="0.92.5 (2060ec1f9f, 2020-04-08)"
   sodipodi:docname="xhr.svg">
  <defs
     id="defs254" />
  <sodipodi:namedview
     id="base"
     pagecolor="#ffffff"
     bordercolor="#666666"
     borderopacity="1.0"
     inkscape:pageopacity="0.0"
     inkscape:pageshadow="2"
     inkscape:zoom="1.4"
     inkscape:cx="381.23343"
     inkscape:cy="882.03212"
     inkscape:document-units="mm"
     inkscape:current-layer="layer1"
     showgrid="false"
     inkscape:window-width="1920"
     inkscape:window-height="1020"
     inkscape:window-x="0"
     inkscape:window-y="0"
     inkscape:window-maximized="1" />
  <metadata
     id="metadata257">
    <rdf:RDF>
      <cc:Work
         rdf:about="">
        <dc:format>image/svg+xml</dc:format>
        <dc:type
           rdf:resource="http://purl.org/dc/dcmitype/StillImage" />
        <dc:title></dc:title>
      </cc:Work>
    </rdf:RDF>
  </metadata>
  <g
     inkscape:label="Ebene 1"
     inkscape:groupmode="layer"
     id="layer1">
    <path
       style="fill:#280b0b;stroke-width:0.26458332"
       id="path274"
       d="m 6.3506804,6.8940293 c -0.025389,1.5016805 -0.042475,3.0035611 -0.056263,4.5053987 -0.045524,3.613974 -0.044994,7.228243 -0.049479,10.842444 -0.042647,4.447723 0.031116,8.896022 -0.054758,13.343176 -0.1404054,3.168139 -0.1072406,6.345211 -0.2966027,9.511352 -0.081147,1.356786 -0.3283521,3.906155 -0.4548304,5.270717 -0.081863,0.808847 -0.1571212,1.61839 -0.2455891,2.426539 -0.4257006,3.888764 -0.1006935,0.535757 -0.513175,4.39034 -0.2245889,2.098754 -0.3724116,4.19772 -0.4980572,6.304245 -0.16755,3.355271 -0.1922394,6.715405 -0.1583254,10.07401 0.055277,1.043824 0.040457,2.074855 -0.1376187,3.104439 -0.1252247,0.610748 -0.160468,1.231648 -0.1819087,1.852998 -0.033022,1.345804 -0.033882,2.690003 0.02695,4.034883 0.1374087,1.98048 0.3308419,3.956325 0.4521478,5.938102 0.2644963,2.430536 0.581687,4.852762 0.7848915,7.289567 0.1347181,1.779643 0.2155724,3.562937 0.2978562,5.34564 0.063948,1.54267 0.088965,3.08674 0.1140177,4.63046 0.011742,0.88155 0.015878,1.76316 0.022318,2.64475 3.175e-4,0.60737 8.731e-4,1.21472 8.467e-4,1.82208 -0.00704,0.84349 -0.00854,1.68699 -0.013033,2.5305 -0.00119,0.85498 0.011811,1.70997 0.00587,2.56492 -9.789e-4,0.53754 -6.879e-4,1.07506 0.00246,1.61259 0,0 -2.4813151,1.2643 -2.4813151,1.2643 v 0 c 0.00312,-0.53837 0.00344,-1.07672 0.00243,-1.61509 -0.006,-0.85694 0.00711,-1.71393 0.00585,-2.57089 -0.00449,-0.83917 -0.00603,-1.67832 -0.012737,-2.51747 3.704e-4,-0.60814 0.00175,-1.21625 0.00333,-1.82439 0.00796,-0.88669 0.012954,-1.77342 0.013287,-2.66015 2.646e-4,-1.54568 -0.013383,-3.09147 -0.081159,-4.63592 C 2.7695429,100.58728 2.6804048,98.80162 2.5937233,97.01577 2.410596,94.577134 2.0916945,92.154768 1.8004832,89.727245 1.6512664,87.748829 1.4673496,85.773145 1.3311394,83.793893 1.2456486,82.455368 1.1954585,81.116431 1.2269378,79.774925 c 0.00629,-0.632143 0.00827,-1.266018 0.1500601,-1.886146 0.069489,-0.364771 0.1563819,-0.730816 0.1922404,-1.100979 0.064545,-0.666295 0.022109,-1.337887 0.056663,-2.005348 0.066782,-3.384336 0.1327154,-6.76919 0.2806526,-10.151153 0.1082585,-1.984433 0.104219,-2.247341 0.2831095,-4.209348 C 2.3883603,58.242715 2.689119,56.079633 2.948743,53.907724 3.045616,53.097321 3.1264189,52.285076 3.2152567,51.473756 3.367626,49.894791 3.5858787,47.798325 3.6735328,46.217681 3.848625,43.060286 3.7743065,39.891985 3.924751,36.733456 4.022433,32.291837 3.963258,27.848306 3.960418,23.405893 3.955948,19.808499 3.956648,16.211034 3.910939,12.613871 3.897199,11.131144 3.880167,9.6483716 3.854676,8.165807 c 0,0 2.496004,-1.2717777 2.4960044,-1.2717777 z"
       inkscape:connector-curvature="0" />
    <path
       style="fill:#280b0b;stroke-width:0.26458332"
       id="path276"
       d="m 4.8243333,6.1769897 c 1.0666016,0.2978682 2.1377259,0.5534213 3.2348416,0.7096495 1.0497809,0.1412952 2.1009921,0.2456963 3.1590101,0.2965053 1.389084,0.050777 2.779467,0.051744 4.169305,0.054447 1.518805,0.00135 3.037606,-3.33e-5 4.556401,-0.00554 1.034244,0.00508 2.067795,-0.059997 3.094944,0.079821 0.158815,0.021802 0.317629,0.043604 0.476444,0.065406 0,0 -2.2622,1.5986358 -2.2622,1.5986358 v 0 c -0.15904,-0.020167 -0.318081,-0.040335 -0.477122,-0.060502 -1.013996,-0.1025898 -2.032881,-0.058415 -3.050747,-0.07121 -1.515467,-0.00388 -3.030931,-0.00222 -4.546401,-0.00243 -1.400351,-0.00159 -2.801411,0.00547 -4.2009796,-0.048402 C 7.9149219,8.7353377 6.8573641,8.631258 5.8041455,8.4740828 4.695866,8.2982942 3.6139257,8.0180065 2.5217875,7.7651948 c 0,0 2.3025458,-1.5882051 2.3025458,-1.5882051 z"
       inkscape:connector-curvature="0" />
    <path
       style="fill:#280b0b;stroke-width:0.26458332"
       id="path278"
       d="m 132.21675,8.5949223 c -0.0359,1.5143637 -0.0367,3.0293077 -0.0484,4.5439997 -0.0814,2.925206 0.0979,5.843576 0.34142,8.756678 0.30861,3.092891 0.39343,6.201755 0.67163,9.296698 0.28607,2.490949 0.63814,4.972367 0.84575,7.471759 0.17195,2.345531 0.28862,4.693351 0.35187,7.044176 0.0278,2.52248 0.0546,5.045165 0.0488,7.567822 -0.002,2.386991 0.003,4.773967 0.005,7.160956 0.0141,2.412089 -0.0554,4.824925 0.0527,7.235113 0.20918,2.951601 0.33731,5.906256 0.42895,8.863528 0.0378,2.26115 0.0837,4.522182 0.10926,6.783517 0.0129,1.324097 0.006,2.648254 0.004,3.972386 0.004,1.342088 -0.005,2.684166 -0.002,4.026251 -0.008,1.436458 -0.001,2.872918 2.6e-4,4.309378 0.005,1.136671 0.0116,2.273371 0.007,3.410059 -0.004,1.126467 0.004,2.252947 -5.3e-4,3.379407 0.003,0.97435 0.004,1.94871 0.008,2.92305 0.006,0.67794 0.007,1.35588 0.008,2.03383 -0.001,0.6835 2.4e-4,1.36698 -0.006,2.05046 -5.3e-4,0.84056 -0.002,1.68112 -5.3e-4,2.52169 -0.002,0.83769 5e-5,1.67538 0.001,2.51307 -0.002,0.77401 -1.9e-4,1.54804 0.003,2.32204 0.002,0.54985 0.005,1.09971 0.007,1.64957 0.002,0.39974 0.002,0.7995 0.002,1.19925 2e-5,0.0629 5e-5,0.12585 6e-5,0.18877 4e-5,0.126 -0.0436,0.49257 0.009,0.37789 0,0 -2.42999,1.43994 -2.42999,1.43994 v 0 c -0.14371,-0.25714 -0.066,-0.4466 -0.0817,-0.73123 2.4e-4,-0.40058 8e-4,-0.80116 0.002,-1.20173 0.002,-0.55221 0.005,-1.10441 0.007,-1.65661 0.003,-0.77511 0.005,-1.55023 0.003,-2.32535 0.001,-0.83805 0.003,-1.67611 0.001,-2.51416 0.001,-0.84035 -8e-5,-1.68069 -5.3e-4,-2.52104 -0.006,-0.68149 -0.005,-1.36299 -0.006,-2.0445 10e-4,-0.68059 0.002,-1.36116 0.008,-2.04174 0.003,-0.97695 0.004,-1.95391 0.008,-2.93086 -0.004,-1.1263 0.004,-2.25261 -5.3e-4,-3.37892 -0.004,-1.139167 0.002,-2.278345 0.007,-3.417501 0.001,-1.436579 0.008,-2.873155 2.7e-4,-4.309731 0.003,-1.341763 -0.006,-2.683521 6e-5,-4.025286 2.6e-4,-1.326111 -0.002,-2.652231 0.009,-3.97831 0.0173,-2.272818 0.0341,-4.546147 -0.0259,-6.818553 -0.068,-2.953499 -0.20744,-5.904278 -0.44171,-8.849617 -0.0256,-0.437946 -0.0637,-0.875344 -0.0769,-1.313841 -0.0122,-0.40414 10e-4,-0.808649 8e-4,-1.212974 -0.001,-1.569779 -0.006,-3.139557 -0.005,-4.709338 0.004,-2.389269 0.0126,-4.778528 0.009,-7.167808 -0.0101,-2.51887 0.0131,-5.038254 -0.0559,-7.556555 -0.06,-2.347781 -0.17588,-4.692645 -0.33576,-7.035811 -0.2017,-2.501641 -0.55547,-4.982951 -0.83559,-7.476151 -0.24801,-3.105023 -0.3196,-6.222542 -0.61824,-9.324344 -0.0131,-0.150717 -0.28813,-3.300157 -0.3,-3.475867 -0.11827,-1.749964 -0.13941,-3.503854 -0.1368,-5.257011 -0.0116,-1.498249 -0.0122,-2.996761 -0.0484,-4.4946726 0,0 2.496,-1.2717771 2.496,-1.2717771 z"
       inkscape:connector-curvature="0" />
    <path
       style="fill:#280b0b;stroke-width:0.26458332"
       id="path280"
       d="m 131.23105,8.0357461 c 1.32315,0.1877237 2.66217,0.2704195 3.99807,0.2656202 1.64432,-0.033307 3.28886,-0.140177 4.91746,-0.3691422 1.36578,-0.216504 2.7246,-0.4758179 4.08139,-0.7423165 0,0 -2.16085,1.6335468 -2.16085,1.6335468 v 0 c -1.35688,0.255193 -2.7145,0.509138 -4.07882,0.721669 -1.64949,0.214811 -3.31156,0.363798 -4.97637,0.365509 -1.36178,-0.01781 -2.7235,-0.109062 -4.076,-0.269645 0,0 2.29512,-1.6052413 2.29512,-1.6052413 z"
       inkscape:connector-curvature="0" />
    <text
       xml:space="preserve"
       style="font-style:normal;font-weight:normal;font-size:2.82222223px;line-height:1.25;font-family:sans-serif;letter-spacing:0px;word-spacing:0px;fill:#a02c2c;fill-opacity:1;stroke:none;stroke-width:0.26458332;"
       x="83.721718"
       y="18.99851"
       id="text284"><tspan
         sodipodi:role="line"
         id="tspan282"
         x="83.721718"
         y="18.99851"
         style="font-size:4.23333311px;fill:#a02c2c;stroke-width:0.26458332;">GET /</tspan></text>
    <text
       xml:space="preserve"
       style="font-style:normal;font-weight:normal;font-size:4.23333311px;line-height:1.25;font-family:sans-serif;letter-spacing:0px;word-spacing:0px;fill:#000000;fill-opacity:1;stroke:none;stroke-width:0.26458332"
       x="9.6383924"
       y="40.16518"
       id="text288"><tspan
         sodipodi:role="line"
         id="tspan286"
         x="9.6383924"
         y="40.16518"
         style="font-size:4.23333311px;stroke-width:0.26458332">&lt;input type=&quot;text&quot; ...&gt;</tspan><tspan
         sodipodi:role="line"
         x="9.6383924"
         y="45.456848"
         style="font-size:4.23333311px;stroke-width:0.26458332"
         id="tspan292">[JavaScript: onkeypress:</tspan><tspan
         sodipodi:role="line"
         x="9.6383924"
         y="50.748512"
         style="font-size:4.23333311px;stroke-width:0.26458332"
         id="tspan304">                   event: XHR]</tspan></text>
    <text
       xml:space="preserve"
       style="font-style:normal;font-weight:normal;font-size:4.23333311px;line-height:1.25;font-family:sans-serif;letter-spacing:0px;word-spacing:0px;fill:#000000;fill-opacity:1;stroke:none;stroke-width:0.26458332"
       x="141.74109"
       y="18.431547"
       id="text298"><tspan
         sodipodi:role="line"
         id="tspan296"
         x="141.74109"
         y="18.431547"
         style="font-size:4.23333311px;stroke-width:0.26458332">index.html</tspan></text>
    <text
       xml:space="preserve"
       style="font-style:normal;font-weight:normal;font-size:4.23333311px;line-height:1.25;font-family:sans-serif;letter-spacing:0px;word-spacing:0px;fill:#000000;fill-opacity:1;stroke:none;stroke-width:0.26458332"
       x="144.00893"
       y="39.220234"
       id="text302"><tspan
         sodipodi:role="line"
         id="tspan300"
         x="144.00893"
         y="39.220234"
         style="font-size:4.23333311px;stroke-width:0.26458332">search.php?key=why</tspan></text>
    <text
       xml:space="preserve"
       style="font-style:normal;font-weight:normal;font-size:4.23333311px;line-height:1.25;font-family:sans-serif;letter-spacing:0px;word-spacing:0px;fill:#a02c2c;fill-opacity:1;stroke:none;stroke-width:0.26458332;"
       x="72.193451"
       y="38.464287"
       id="text308"><tspan
         sodipodi:role="line"
         id="tspan306"
         x="72.193451"
         y="38.464287"
         style="stroke-width:0.26458332;fill:#a02c2c;">GET /search.php?key=why</tspan></text>
    <text
       xml:space="preserve"
       style="font-style:normal;font-weight:normal;font-size:4.23333311px;line-height:1.25;font-family:sans-serif;letter-spacing:0px;word-spacing:0px;fill:#000000;fill-opacity:1;stroke:none;stroke-width:0.26458332"
       x="172.16815"
       y="52.260414"
       id="text312"><tspan
         sodipodi:role="line"
         id="tspan310"
         x="172.16815"
         y="52.260414"
         style="stroke-width:0.26458332">PHP:</tspan><tspan
         sodipodi:role="line"
         x="172.16815"
         y="57.552082"
         style="stroke-width:0.26458332"
         id="tspan314">execution</tspan><tspan
         sodipodi:role="line"
         x="172.16815"
         y="62.843746"
         style="stroke-width:0.26458332"
         id="tspan316">DB-Suche &quot;why&quot;</tspan><tspan
         sodipodi:role="line"
         x="172.16815"
         y="68.135414"
         style="stroke-width:0.26458332"
         id="tspan318">Output:</tspan><tspan
         sodipodi:role="line"
         x="172.16815"
         y="73.427078"
         style="stroke-width:0.26458332"
         id="tspan320">JSON-Dataset</tspan></text>
    <text
       xml:space="preserve"
       style="font-style:normal;font-weight:normal;font-size:4.23333311px;line-height:1.25;font-family:sans-serif;letter-spacing:0px;word-spacing:0px;fill:#000000;fill-opacity:1;stroke:none;stroke-width:0.26458332"
       x="81.831841"
       y="26.369047"
       id="text324"><tspan
         sodipodi:role="line"
         id="tspan322"
         x="81.831841"
         y="26.369047"
         style="stroke-width:0.26458332">RESPONSE text/html</tspan></text>
    <text
       xml:space="preserve"
       style="font-style:normal;font-weight:normal;font-size:4.23333311px;line-height:1.25;font-family:sans-serif;letter-spacing:0px;word-spacing:0px;fill:#000000;fill-opacity:1;stroke:none;stroke-width:0.26458332"
       x="82.020836"
       y="67.001488"
       id="text328"><tspan
         sodipodi:role="line"
         id="tspan326"
         x="82.020836"
         y="67.001488"
         style="stroke-width:0.26458332">RESPONSE text/json</tspan></text>
    <text
       xml:space="preserve"
       style="font-style:normal;font-weight:normal;font-size:4.23333311px;line-height:1.25;font-family:sans-serif;letter-spacing:0px;word-spacing:0px;fill:#000000;fill-opacity:1;stroke:none;stroke-width:0.26458332"
       x="14.174105"
       y="71.348213"
       id="text332"><tspan
         sodipodi:role="line"
         id="tspan330"
         x="14.174105"
         y="71.348213"
         style="stroke-width:0.26458332">JavaScript stellt</tspan><tspan
         sodipodi:role="line"
         x="14.174105"
         y="76.639877"
         style="stroke-width:0.26458332"
         id="tspan340">Response-Daten dar</tspan></text>
    <text
       xml:space="preserve"
       style="font-style:normal;font-weight:normal;font-size:4.23333311px;line-height:1.25;font-family:sans-serif;letter-spacing:0px;word-spacing:0px;fill:#ff00ff;fill-opacity:1;stroke:none;stroke-width:0.26458332"
       x="25.702381"
       y="9.3601189"
       id="text346"><tspan
         sodipodi:role="line"
         id="tspan344"
         x="25.702381"
         y="9.3601189"
         style="fill:#ff00ff;stroke-width:0.26458332">CLIENT/BROWSER</tspan></text>
    <text
       xml:space="preserve"
       style="font-style:normal;font-weight:normal;font-size:4.23333311px;line-height:1.25;font-family:sans-serif;letter-spacing:0px;word-spacing:0px;fill:#ff00ff;fill-opacity:1;stroke:none;stroke-width:0.26458332"
       x="146.46577"
       y="9.7380953"
       id="text350"><tspan
         sodipodi:role="line"
         id="tspan348"
         x="146.46577"
         y="9.7380953"
         style="fill:#ff00ff;stroke-width:0.26458332">SERVER/WEB/PHP/DB</tspan></text>
    <path
       style="fill:#000000;stroke-width:0.26458332"
       id="path352"
       d="m 66.368479,7.2825527 c 0.684964,0.1255429 1.266294,0.1727713 1.808533,0.6452031 0.39801,0.6406587 0.464984,1.4037548 0.522081,2.1386962 0.03407,0.639477 0.02249,1.280136 0.02143,1.920202 -0.0013,0.481038 0.0011,0.962084 -0.0016,1.443115 -0.003,0.513966 -0.004,1.027912 -0.0024,1.541884 -0.0072,0.713295 -0.0093,1.426617 -0.0067,2.139947 0.0034,0.618201 0.0059,1.236444 0.003,1.854653 -0.0041,0.740112 -0.0046,1.480209 -0.0035,2.220328 0.0016,0.646035 0.0053,1.292007 0.0031,1.938041 -0.0011,0.682847 2.04e-4,1.365692 -0.0032,2.048536 0.0013,0.67352 0.0011,1.347021 0.005,2.020537 -0.0016,0.579456 -5.29e-4,1.158925 0.0016,1.738381 -0.003,0.555069 -7.94e-4,1.11016 5.6e-5,1.665237 -0.0021,0.542483 5.29e-4,1.08498 -2.65e-4,1.627468 0.0032,0.655696 -0.0086,1.311222 -0.0072,1.966926 0.0043,0.644086 0.0044,1.288169 0.005,1.93226 0.0024,0.525835 0.0024,1.051671 0.0042,1.577509 -2.64e-4,0.479002 -2.32e-4,0.958001 -2.64e-4,1.437 0.0011,0.468347 -1.99e-4,0.936686 7.94e-4,1.405033 -0.0046,0.54592 -0.0021,1.091869 -0.0033,1.637805 -0.01016,0.661511 -0.0048,1.320694 0.04193,1.980634 0.07493,0.757401 0.105055,1.517774 0.128767,2.278173 0.01767,0.553768 0.01961,1.107845 0.0223,1.661835 0.0226,0.598059 -0.03332,1.191882 -0.08816,1.786514 -0.0576,0.628031 -0.06239,1.2578 -0.165952,1.880598 -0.137133,0.545872 -0.202964,1.104135 -0.293002,1.658297 -0.09684,0.512752 -0.192963,1.026059 -0.272555,1.541835 -0.08499,0.560001 -0.105894,1.12617 -0.123629,1.691368 -0.0097,0.539924 -0.0078,1.079965 -0.0051,1.619943 -0.0056,0.489836 0.01701,0.979985 -0.01511,1.469025 -0.06371,0.465799 -0.117734,0.931793 -0.146201,1.401146 -0.02143,0.486632 -0.02837,0.973918 -0.0315,1.460979 -0.0013,0.540612 0.0057,1.081201 0.0051,1.621808 0.0024,0.514842 5.29e-4,1.029666 -0.0035,1.544495 0.04405,0.62879 0.08173,1.261406 0.169989,1.885942 0.162706,0.528145 0.269851,1.064262 0.336685,1.612254 0.06256,0.56718 0.139398,1.13283 0.211921,1.698961 0.08551,0.711116 0.269134,1.404985 0.316174,2.120564 0.0069,0.582176 -0.03751,1.163196 -0.06125,1.744552 -0.04758,0.667022 -0.01024,1.331179 0.04855,1.995791 0.05518,0.592955 0.09002,1.187125 0.106809,1.7823 0.01262,0.616095 0.0031,1.232355 0.0046,1.84854 2.65e-4,0.564566 0.0049,1.129136 0.004,1.693701 0.0028,0.580001 -0.0045,1.15996 -0.0059,1.73994 -0.0021,0.71142 -0.0016,1.422831 0.0016,2.134256 0.04293,0.53395 -0.0549,1.081432 -0.0013,1.613982 0.01222,0.121642 0.04842,0.239668 0.07264,0.3595 0.27623,0.74386 0.474826,1.500312 0.58738,2.285164 0.08985,0.693571 0.09801,1.394148 0.100444,2.092455 0.05265,0.777655 0.114683,1.553474 0.143714,2.332495 0.01497,0.946018 0.02904,1.892033 0.04035,2.838101 0.0011,0.621699 0.0063,1.243364 0.0045,1.865066 -0.0013,0.713552 -0.0074,1.427042 -0.0074,2.140602 0.02747,0.81145 -0.0052,1.61628 -0.127172,2.41876 -0.164023,0.8632 -0.298635,1.73123 -0.435033,2.59908 -0.107093,0.67251 -0.152387,1.35198 -0.229955,2.02807 -0.159689,0.91565 -0.245734,1.83949 -0.301522,2.76646 -0.03865,0.84809 -0.04158,1.69715 -0.03753,2.54593 0.0019,0.526 0.0046,1.05199 0.0059,1.57799 -0.0036,0.53347 7.94e-4,1.06695 -1.19e-4,1.60043 7.94e-4,0.49601 2.65e-4,0.99201 0.0016,1.48802 -0.08033,1.70894 -2.569504,2.02877 -3.966941,2.12086 -0.827016,0.0436 -1.655601,0.0401 -2.483477,0.0367 -0.929581,-0.006 -1.859163,-0.0111 -2.788758,-0.0137 -1.357646,0.0229 -2.712794,-0.04 -4.068644,-0.0982 -1.06921,0.009 -2.117703,-0.20092 -3.171653,-0.34693 -0.919974,-0.0939 -1.84441,-0.11218 -2.766536,-0.18176 -1.117023,-0.0845 -2.237261,-0.10557 -3.356896,-0.12326 -1.234762,-0.0148 -2.469684,-0.0142 -3.704505,-0.008 -0.7659,0.006 -1.531821,0.008 -2.297742,0.008 -0.746689,2.7e-4 -1.493385,1.2e-4 -2.240074,-0.002 -0.887306,0.001 -1.774613,-1.4e-4 -2.661906,-0.006 -1.205632,-0.005 -2.411288,-10e-4 -3.616929,-0.002 -1.040809,0.001 -2.081614,0.003 -3.122421,0.005 -0.729316,0.003 -1.45863,0.004 -2.187942,0.007 -0.568049,-7.9e-4 -1.136104,-2.6e-4 -1.704153,0.001 -0.606534,0.009 -1.214931,-0.0313 -1.819173,0.0285 -0.642268,0.0346 -1.26514,0.15114 -1.888479,0.30129 -0.822145,0.1478 -1.658949,0.1886 -2.48889,0.27829 -0.805014,0.0246 -1.581557,0.22863 -2.366902,0.38542 -0.648129,0.16644 -1.31065,0.25772 -1.971007,0.35905 -0.665143,0.0884 -1.333212,0.12106 -1.997128,0.21751 -0.365455,0.0503 -0.186054,0.0273 -0.538156,0.0696 0,0 2.244919,-1.67343 2.244919,-1.67343 v 0 c 0.346734,-0.0437 0.169641,-0.0208 0.531257,-0.0689 0.661342,-0.0839 1.32868,-0.10852 1.987179,-0.2171 0.659263,-0.10538 1.317268,-0.21638 1.96724,-0.37072 0.784978,-0.15653 1.568033,-0.31889 2.370367,-0.35621 0.828532,-0.0859 1.665887,-0.12802 2.479937,-0.31459 0.631999,-0.14252 1.269963,-0.22735 1.916913,-0.26775 0.611849,-0.0281 1.22459,-0.009 1.836946,-0.0167 0.567159,0.001 1.134325,0.002 1.701486,0.001 0.722476,0.003 1.444955,0.005 2.167434,0.007 1.036574,0.002 2.073146,0.003 3.10972,0.005 1.20704,-5.3e-4 2.414092,0.004 3.621124,-0.002 0.892588,-0.006 1.785192,-0.007 2.677795,-0.006 0.74835,-0.002 1.496706,-0.002 2.245056,-0.002 0.75987,-0.001 1.519745,-5.3e-4 2.2796,0.005 1.233268,0.007 2.466554,0.006 3.699806,0.0159 1.126006,0.0147 2.251898,0.0502 3.375382,0.12985 0.930339,0.0657 1.865223,0.0695 2.790849,0.18943 1.035119,0.16144 2.068335,0.35111 3.120657,0.34888 1.359551,0.0634 2.718813,0.10035 4.080015,0.0752 0.93549,-2.6e-4 1.87098,-0.002 2.80647,0.002 0.820317,0.002 1.641729,0.009 2.460554,-0.0491 0.301206,-0.0294 0.593436,-0.0468 0.888862,-0.11767 0.116753,-0.028 0.441322,-0.17997 0.342331,-0.11202 -0.688504,0.47258 -1.414124,0.88868 -2.121188,1.33301 0.0327,-0.0391 0.07808,-0.0704 0.09809,-0.11728 0.02477,-0.058 0.02109,-0.12438 0.03165,-0.18657 0.0013,-0.49657 7.94e-4,-0.99312 0.0016,-1.48968 -0.0011,-0.53302 0.0031,-1.06605 -0.0019,-1.59907 -2.35e-4,-0.52796 -2.64e-4,-1.05591 0.0028,-1.58387 0.0095,-0.85677 0.02059,-1.7137 0.05556,-2.56988 0.03862,-0.92858 0.11997,-1.85542 0.275521,-2.7724 0.07482,-0.68095 0.116055,-1.36515 0.228569,-2.04154 0.139454,-0.86977 0.272272,-1.74052 0.447376,-2.60409 0.125021,-0.7872 0.153207,-1.57802 0.134482,-2.37465 6.1e-5,-0.71128 -0.0061,-1.42251 -0.0063,-2.13378 -7.94e-4,-0.62295 0.006,-1.245855 0.005,-1.868806 0.0058,-0.944684 0.0092,-1.889863 -0.02648,-2.834047 -0.03116,-0.779931 -0.09079,-1.557554 -0.159014,-2.335046 -0.005,-0.687953 -0.004,-1.377579 -0.0797,-2.062366 -0.100508,-0.778521 -0.29028,-1.529233 -0.573577,-2.262759 -0.03607,-0.137713 -0.08788,-0.272243 -0.108212,-0.413142 -0.01651,-0.114448 -0.0013,-0.231264 -0.0016,-0.346897 -5.29e-4,-0.421889 -0.0019,-0.843794 1.09e-4,-1.265674 0.0031,-0.711978 0.0037,-1.423943 0.0016,-2.135916 -0.0013,-0.578069 -0.0088,-1.15612 -0.0056,-1.734211 -5.29e-4,-0.566251 0.0049,-1.132501 0.006,-1.698749 0.0019,-0.612635 -0.0034,-1.225212 -0.01103,-1.837793 -0.01098,-0.591746 -0.03521,-1.183307 -0.08681,-1.773055 -0.05605,-0.672815 -0.120705,-1.345168 -0.07661,-2.021078 0.02342,-0.575858 0.0697,-1.150546 0.0803,-1.726851 -0.01857,-0.710216 -0.211277,-1.395733 -0.302942,-2.097979 -0.08716,-0.565134 -0.158102,-1.134563 -0.221906,-1.702335 -0.05728,-0.546568 -0.160325,-1.080489 -0.333092,-1.603433 -0.09816,-0.636524 -0.11103,-1.284695 -0.184724,-1.924542 -0.004,-0.513419 -0.0059,-1.026832 -0.0043,-1.540266 -0.0013,-0.542288 0.0043,-1.084565 0.0034,-1.626855 -0.0016,-0.489823 -0.01281,-0.979916 0.01355,-1.469376 0.02548,-0.472427 0.06359,-0.944232 0.143669,-1.410994 0.05888,-0.478811 0.01455,-0.964049 0.02719,-1.445638 0.0013,-0.542669 1.17e-4,-1.08535 0.0067,-1.627987 0.007,-0.575998 0.03631,-1.152633 0.111546,-1.724099 0.07227,-0.518269 0.158393,-1.034608 0.258916,-1.547879 0.119293,-0.550047 0.144042,-1.119788 0.303284,-1.663017 0.129172,-0.61236 0.117059,-1.237298 0.181763,-1.858497 0.0511,-0.585065 0.111504,-1.168503 0.08513,-1.756846 0.0024,-0.554313 0.0027,-1.108647 -0.0048,-1.662928 -0.01474,-0.756944 -0.04588,-1.513461 -0.117137,-2.267468 -0.05761,-0.663972 -0.08156,-1.326359 -0.06569,-1.993083 -0.0011,-0.544803 0.0013,-1.08962 -0.0033,-1.634405 0.0011,-0.468638 -8.5e-5,-0.937268 7.93e-4,-1.405903 -5.5e-5,-0.478904 1.01e-4,-0.957805 -2.64e-4,-1.436709 0.0019,-0.527251 0.0019,-1.054502 0.0042,-1.581753 7.94e-4,-0.645795 7.94e-4,-1.291585 0.005,-1.937377 0.0013,-0.653238 -0.01048,-1.306296 -0.0072,-1.959525 -7.93e-4,-0.542378 0.0019,-1.08476 -2.64e-4,-1.62713 7.94e-4,-0.555096 0.0031,-1.110205 5.5e-5,-1.665295 0.0021,-0.580014 0.0032,-1.160045 0.0016,-1.740062 0.0039,-0.675206 0.0038,-1.350404 0.005,-2.025619 -0.0034,-0.681768 -0.0021,-1.363536 -0.0032,-2.045307 -0.0021,-0.647081 0.0016,-1.294099 0.0031,-1.941181 0.0011,-0.738912 5.29e-4,-1.477801 -0.0035,-2.216707 -0.0029,-0.619239 -2.65e-4,-1.238514 0.003,-1.857746 0.0026,-0.71105 5.29e-4,-1.422091 -0.0068,-2.133104 0.0016,-0.513589 5.29e-4,-1.027153 -0.0011,-1.540739 -0.0011,-0.483029 0.0058,-0.966019 0.01101,-1.449012 0.0061,-0.634483 0.01177,-1.269355 -0.0099,-1.903602 -0.03582,-0.656857 -0.0664,-1.3598139 -0.417007,-1.9354059 -0.503597,-0.3820284 -1.136875,-0.4215178 -1.741691,-0.5321671 0,0 2.306238,-1.5997234 2.306238,-1.5997234 z"
       inkscape:connector-curvature="0" />
    <path
       style="fill:#000000;stroke-width:0.26458332"
       id="path354"
       d="m 194.10694,8.1570625 c 1.14877,0.030677 2.2982,-0.0039 3.44639,0.043017 0.90793,0.048615 1.81529,0.1069883 2.72417,0.1347219 0.70395,-0.039854 1.38289,0.139514 2.06917,0.2656094 0.45892,0.077193 0.90257,0.2128189 1.36508,0.2732884 0.47214,0.00919 0.93456,0.078001 1.40109,0.1441185 0.44494,0.063188 0.89461,0.074564 1.34323,0.08254 0.53345,0.00793 1.06702,0.00656 1.60052,0.00505 0.60179,-0.016748 0.80319,0.093111 0.98923,0.6688516 0.13878,0.5830267 0.0736,1.1799867 0.0162,1.7683607 -0.0269,0.685242 -0.15023,1.35225 -0.27619,2.024218 -0.14707,0.842486 -0.20275,1.697748 -0.27465,2.549085 -0.0481,0.993202 -0.003,1.987679 0.0192,2.981 -0.0156,0.800839 0.0747,1.596234 0.1375,2.393097 0.0713,0.745139 0.056,1.494112 0.0953,2.240766 0.0405,0.78342 0.16555,1.558157 0.26263,2.33567 0.0663,0.707207 0.0683,1.411618 0.19693,2.111264 0.1475,0.64812 0.22065,1.308097 0.25902,1.970582 0.10974,1.074666 0.13057,2.155402 0.16275,3.234399 0.0274,0.934368 0.0457,1.869075 0.0515,2.803837 -0.001,0.837689 -0.007,1.675381 -0.004,2.513073 0.005,0.647753 0.007,1.295525 0.006,1.943299 -0.008,0.774684 -0.007,1.549506 -0.004,2.324232 -0.001,0.612167 -0.01,1.22297 0.0522,1.832398 0.0749,0.569365 0.10856,1.142077 0.12744,1.71558 0.0203,0.610854 0.0124,1.22211 0.0135,1.833181 -0.0108,0.544357 0.0793,1.083583 0.13505,1.623616 0.037,0.603808 0.20911,1.189556 0.31783,1.783294 0.0844,0.513927 0.10611,1.034243 0.11679,1.553938 0.007,0.477779 0.005,0.955662 0.002,1.433475 -0.01,0.610693 -0.004,1.221452 -0.004,1.832179 7.9e-4,0.566166 0.002,1.132356 -0.001,1.698516 -0.001,0.613471 -0.001,1.226924 0.002,1.840389 0.002,0.544388 -10e-4,1.088753 -1.8e-4,1.633138 0.003,0.536266 -6e-5,1.072523 -5.3e-4,1.608783 0.001,0.518636 0.001,1.03727 0.003,1.555904 2.7e-4,0.557927 -0.005,1.115808 -0.004,1.673733 -0.008,0.686784 2.1e-4,1.37361 -0.002,2.060405 0.003,0.67732 -0.002,1.354625 -0.002,2.031934 0.004,0.922131 -0.009,1.844194 -0.0163,2.766272 2.6e-4,1.576948 -0.0155,3.153777 -0.0166,4.730718 -0.0107,1.770298 1.1e-4,3.540636 0.0114,5.310899 0.006,0.954786 0.0201,1.909527 0.0207,2.86434 0.004,0.925626 -0.008,1.851154 -0.0139,2.77673 -0.0101,1.300835 0.005,2.601674 -0.004,3.902496 -0.006,1.323361 7.9e-4,2.646735 0.006,3.970083 -0.0106,1.029423 0.0817,2.056405 0.14151,3.083437 0.0147,0.79731 0.13351,1.58713 0.19341,2.3813 0.0671,0.99474 0.0401,1.99264 0.0333,2.98883 -0.002,1.36647 -2.2e-4,2.73287 0.0145,4.09927 0.005,0.77998 0.0101,1.56001 0.009,2.34001 0.004,0.78315 -0.004,1.56626 -0.008,2.3494 -0.0246,0.76779 0.0326,1.53796 -0.0464,2.30363 -0.0307,0.29713 -0.13082,0.91237 -0.17688,1.20699 -0.15293,1.13318 -0.37926,2.25314 -0.66442,3.35982 -0.23844,0.70682 -0.41307,1.42996 -0.59385,2.15272 -0.14349,0.43155 -0.25702,0.86908 -0.35811,1.31194 -0.0774,0.265 -0.18731,0.54904 -0.442,0.69426 -2.56255,1.4611 -1.63326,1.26987 -2.80943,1.48288 -0.67301,0.0533 -1.34912,0.0388 -2.02357,0.0365 -0.98119,-0.004 -1.96237,-0.009 -2.94356,-0.0109 -1.35096,-0.007 -2.70196,-0.0102 -4.05294,-0.007 -1.25423,-0.0289 -2.50343,-0.13985 -3.74997,-0.27513 -0.64959,-0.0968 -1.31,-0.10374 -1.9611,-0.18249 -0.50056,-0.0605 -0.99873,-0.17573 -1.49473,-0.26546 -1.16608,-0.23791 -2.34981,-0.36263 -3.5287,-0.51573 -1.11283,-0.0843 -2.20698,-0.2921 -3.30787,-0.46264 -1.01803,-0.14344 -2.04751,-0.16289 -3.07375,-0.17906 -1.11049,-0.0143 -2.22114,-0.0103 -3.33167,-0.003 -0.7548,0.006 -1.50961,0.006 -2.26442,0.007 -0.85535,-0.003 -1.7107,-0.005 -2.56605,-0.003 -0.82521,0.002 -1.65041,0.001 -2.47562,0.001 -0.80804,-0.002 -1.61609,-2.7e-4 -2.42414,0.003 -0.71194,0.002 -1.4239,-0.002 -2.13585,-7.9e-4 -0.90421,-0.003 -1.80841,-0.004 -2.71262,-0.005 -1.05026,-1.6e-4 -2.10053,-0.003 -3.1508,-0.002 -0.90697,0.003 -1.81394,0.002 -2.7209,0.006 -0.62866,0.003 -1.25733,0.002 -1.88599,0.004 -0.51966,-0.0197 -1.03022,0.005 -1.5448,0.0675 -0.54624,0.0322 -1.08036,0.1233 -1.61849,0.2156 -0.44026,0.0598 -0.87822,0.0858 -1.31539,0.1648 -0.47928,0.0762 -0.96356,0.10054 -1.44788,0.11413 -0.5476,0.0189 -1.09644,-0.0196 -1.64182,0.037 -0.38429,0.0883 -0.18977,0.0447 -0.5836,0.13057 0,0 2.22571,-1.68797 2.22571,-1.68797 v 0 c 0.40357,-0.0802 0.20149,-0.0462 0.6062,-0.10212 0.55111,-0.0268 1.10306,-0.009 1.65444,-0.0327 0.47839,-0.0212 0.95629,-0.0596 1.42813,-0.14458 0.43633,-0.0669 0.87863,-0.0822 1.31303,-0.16427 0.53901,-0.0913 1.08081,-0.1454 1.62445,-0.20147 0.51934,-0.0578 1.04017,-0.0414 1.5621,-0.0401 0.62531,0.002 1.25062,2.6e-4 1.87593,0.004 0.90124,0.004 1.8025,0.003 2.70375,0.006 1.05191,10e-4 2.10383,-0.002 3.15574,-0.002 0.90866,-5.3e-4 1.81732,-0.002 2.72598,-0.005 0.71274,0.001 1.42547,-0.003 2.1382,-7.9e-4 0.80568,0.003 1.61137,0.005 2.41706,0.003 0.82421,-4e-5 1.64841,-8e-4 2.47262,10e-4 0.85853,0.001 1.71707,-5.2e-4 2.5756,-0.004 0.75053,5.3e-4 1.50106,-0.001 2.25158,0.002 1.10896,0.004 2.21795,0.003 3.32688,0.0133 1.03637,0.0203 2.07612,0.046 3.10223,0.20679 1.09259,0.18139 2.18287,0.36841 3.2873,0.46677 1.18812,0.15246 2.37933,0.28765 3.55635,0.51483 1.13124,0.21483 2.26685,0.35916 3.41553,0.44898 1.24244,0.1198 2.48769,0.22171 3.73602,0.25071 1.35659,0.003 2.71318,2e-4 4.06976,-0.004 0.98491,8e-4 1.96982,0.002 2.95472,0.002 0.66793,-0.003 1.34816,0.0212 2.00572,-0.11116 1.00927,-0.34799 0.0982,-0.0474 -2.03956,1.23358 -0.16218,0.0972 0.31437,-0.0813 0.45033,-0.31567 0.0323,-0.0558 0.0525,-0.11774 0.0787,-0.17661 0.12647,-0.43743 0.18132,-0.89629 0.36981,-1.31688 0.18951,-0.7283 0.35291,-1.46314 0.62071,-2.16854 0.3002,-1.09765 0.5337,-2.21065 0.68696,-3.33908 0.0296,-0.18659 0.15965,-0.99341 0.18265,-1.18588 0.0904,-0.75685 0.039,-1.51815 0.044,-2.27819 -0.003,-0.78062 -0.0119,-1.5612 -0.007,-2.34184 -0.001,-0.78334 0.005,-1.56672 0.0105,-2.35003 0.0161,-1.37086 0.0195,-2.74175 0.0137,-4.1127 -0.012,-0.9825 -0.0199,-1.9655 -0.0723,-2.94688 -0.0565,-0.79814 -0.15909,-1.5929 -0.1839,-2.39296 -0.0464,-1.0346 -0.14244,-2.067837 -0.1324,-3.104106 0.005,-1.325303 0.0117,-2.650633 0.006,-3.975947 -0.008,-1.299488 0.006,-2.598997 -0.004,-3.898498 -0.006,-0.920866 -0.0177,-1.841682 -0.0139,-2.762599 7.9e-4,-0.961853 0.0147,-1.923632 0.0207,-2.885456 0.0112,-1.774134 0.0221,-3.548345 0.0114,-5.322511 -0.001,-1.571316 -0.0168,-3.142515 -0.0166,-4.713836 -0.007,-0.916543 -0.0203,-1.833067 -0.0163,-2.749661 -1.9e-4,-0.676613 -0.005,-1.353219 -0.002,-2.029841 -0.002,-0.686183 0.006,-1.372396 -0.002,-2.058566 0.001,-0.556599 -0.004,-1.113153 -0.004,-1.669751 0.002,-0.51965 0.002,-1.039297 0.003,-1.558947 -5.2e-4,-0.536053 -0.003,-1.072102 -5.2e-4,-1.608158 0.001,-0.544322 -0.002,-1.088626 -1.9e-4,-1.63295 0.003,-0.614175 0.004,-1.228336 0.002,-1.842519 -0.003,-0.56575 -0.002,-1.13153 -0.001,-1.697286 2.5e-4,-0.610097 0.007,-1.220208 -7.9e-4,-1.830292 -7.9e-4,-0.476192 0.002,-0.952389 -5.3e-4,-1.428581 -0.007,-0.506944 -0.0192,-1.015225 -0.0923,-1.517788 -0.0987,-0.60272 -0.27375,-1.192821 -0.33282,-1.799468 -0.0488,-0.55059 -0.14548,-1.099169 -0.13673,-1.652786 7.9e-4,-0.607922 -0.004,-1.21585 -0.0136,-1.823693 -0.0159,-0.566579 -0.0457,-1.133044 -0.11846,-1.695575 -0.0724,-0.620826 -0.0672,-1.239946 -0.0555,-1.864849 0.003,-0.773232 0.003,-1.546558 -0.004,-2.319748 -1.3e-4,-0.650163 0.001,-1.300329 0.007,-1.950466 0.004,-0.836395 1e-4,-1.672814 -0.002,-2.509205 0.001,-0.9384 0.006,-1.876848 -0.0141,-2.815119 -0.0269,-1.071173 -0.0624,-2.143654 -0.19836,-3.207655 -0.0333,-0.651644 -0.0937,-1.302014 -0.23792,-1.939866 -0.029,-0.148625 -0.11464,-0.569971 -0.12916,-0.719672 -0.0453,-0.466744 -0.004,-0.943105 -0.0776,-1.408626 -0.0859,-0.78482 -0.21995,-1.563702 -0.26174,-2.352984 -0.0545,-0.743946 -0.0378,-1.491133 -0.0976,-2.23519 -0.0606,-0.803052 -0.15759,-1.60361 -0.13774,-2.41061 -0.0186,-1.003945 -0.049,-2.008415 -0.0166,-3.012427 0.0589,-0.856628 0.0944,-1.717345 0.24023,-2.565006 0.12151,-0.665426 0.25864,-1.320854 0.27782,-1.999584 0.0582,-0.553484 0.13457,-1.111367 0.0217,-1.663921 -0.0172,-0.06339 -0.0442,-0.216176 -0.10332,-0.274647 -0.16186,-0.159967 -0.49654,-0.06759 -0.68837,-0.09515 -0.5363,-8.21e-4 -1.07263,3.96e-4 -1.60889,-0.008 -0.45507,-0.01492 -0.91059,-0.03729 -1.36073,-0.110367 -0.46793,-0.06781 -0.93695,-0.0958 -1.40684,-0.143717 -0.45675,-0.08081 -0.90132,-0.214412 -1.35926,-0.289507 -0.67468,-0.133428 -1.3471,-0.2648538 -2.0396,-0.2347799 -0.89919,-0.039221 -1.79614,-0.1128649 -2.69517,-0.1555171 -1.16135,-0.037806 -2.32371,-0.018484 -3.48539,-0.0022 0,0 2.27125,-1.6501599 2.27125,-1.6501599 z"
       inkscape:connector-curvature="0" />
    <text
       xml:space="preserve"
       style="font-style:normal;font-weight:normal;font-size:4.23333311px;line-height:1.25;font-family:sans-serif;letter-spacing:0px;word-spacing:0px;fill:#000000;fill-opacity:1;stroke:none;stroke-width:0.26458332"
       x="12.473214"
       y="18.620535"
       id="text358"><tspan
         sodipodi:role="line"
         id="tspan356"
         x="12.473214"
         y="18.620535"
         style="stroke-width:0.26458332">URL-Eingabe</tspan></text>
    <path
       style="fill:#ff0000;stroke-width:0.26458332"
       id="path374"
       d="m 41.61297,17.765519 c 1.077159,-0.65877 2.158336,-1.312319 3.331099,-1.784863 0.878221,-0.331034 1.777008,-0.582531 2.687183,-0.805631 0.638116,-0.140783 1.282998,-0.252064 1.927055,-0.36345 0.625557,-0.12079 1.235943,-0.291669 1.848056,-0.467116 0.789652,-0.302522 1.598266,-0.530167 2.432643,-0.665392 0.602091,-0.09205 1.210802,-0.110929 1.81868,-0.1179 0.522793,-0.002 1.045591,0.0022 1.568381,0.0042 0.674769,0.0021 1.349542,0.003 2.024314,0.0023 0.767082,7.67e-4 1.534165,0.0016 2.301245,0.0014 1.113705,0.0033 2.227416,0.0033 3.341127,0.0025 0.863827,-7.14e-4 1.727652,-0.0026 2.59148,-0.0035 0.590687,-0.0018 1.181375,-8.73e-4 1.772062,-2.91e-4 0.646862,6.5e-5 1.293725,-2.1e-4 1.940587,1.9e-5 0.652962,-0.01104 1.3018,-0.0063 1.951654,0.05814 0.749273,0.08246 1.503145,0.104266 2.256181,0.120664 0.669915,0.02439 1.304843,0.25679 1.902759,0.545027 0.552479,0.306535 1.097206,0.623644 1.656951,0.916625 0.507412,0.195112 0.932489,0.541609 1.421299,0.769531 0.263128,0.155447 0.844375,0.32188 0.955066,0.63435 -0.352176,0.182599 -0.686853,0.403887 -1.056529,0.547798 -0.05107,0.01988 -0.09751,-0.0505 -0.143205,-0.08076 -0.239692,-0.158742 -0.438264,-0.376928 -0.657506,-0.561257 -0.39624,-0.264373 -0.654933,-0.619574 -0.893418,-1.02055 -0.285046,-0.465453 -0.456568,-0.971857 -0.566468,-1.502974 -0.07879,-0.49055 -0.179483,-0.976324 -0.231762,-1.470777 -0.05207,-0.318686 -0.02447,-0.160235 -0.08274,-0.475365 0,0 0.989298,-0.527145 0.989298,-0.527145 v 0 c 0.05937,0.319127 0.03042,0.157991 0.08673,0.483426 0.04984,0.491629 0.148839,0.974133 0.22592,1.46171 0.10232,0.520551 0.267983,1.014724 0.549174,1.468849 0.235329,0.389039 0.487336,0.732084 0.874705,0.98892 0.168177,0.1435 0.32584,0.302253 0.501311,0.436864 0.04681,0.03591 0.09457,0.07105 0.14563,0.100617 0.04284,0.02481 0.172164,0.02923 0.134985,0.06191 -0.267997,0.23558 -0.591368,0.399457 -0.887053,0.599185 0.04033,0.01938 0.08396,0.04398 -0.04385,-0.06018 -0.248613,-0.2026 -0.549471,-0.328784 -0.835311,-0.467363 -0.483399,-0.239453 -0.916553,-0.571663 -1.420227,-0.774839 -0.558451,-0.293064 -1.100532,-0.613564 -1.65611,-0.912002 -0.59042,-0.277021 -1.212392,-0.496252 -1.871522,-0.509543 -0.75557,-0.01857 -1.511816,-0.043 -2.263661,-0.125239 -0.647578,-0.05998 -1.295408,-0.0553 -1.945412,-0.04948 -0.64688,2.28e-4 -1.29376,-4.6e-5 -1.94064,1.9e-5 -0.590412,5.82e-4 -1.180822,0.0015 -1.771232,-2.91e-4 -0.860613,-9e-4 -1.721223,-0.0028 -2.581833,-0.0035 -1.116026,-7.4e-4 -2.232054,-7.4e-4 -3.348077,0.0025 -0.768279,-1.94e-4 -1.53656,7.15e-4 -2.304836,0.0012 -0.675148,-0.0011 -1.350295,-5.82e-4 -2.025441,-0.0019 -0.52315,-8.73e-4 -1.046305,-0.004 -1.569452,-0.0013 -0.602568,0.0083 -1.205921,0.03165 -1.802093,0.126977 -0.831237,0.144477 -1.633403,0.385368 -2.425253,0.675528 -0.615056,0.176208 -1.230551,0.345421 -1.860315,0.461533 -0.640574,0.11272 -1.283335,0.21798 -1.916946,0.365166 -0.907012,0.221099 -1.800307,0.481772 -2.673291,0.815885 -0.437126,0.182746 -0.465236,0.18473 -0.880724,0.39595 -0.146354,0.0744 -0.565206,0.331166 -0.434766,0.231464 0.169315,-0.129414 0.367697,-0.215561 0.552593,-0.321524 0.219413,-0.125743 -0.794721,0.461486 -0.652016,0.387884 0,0 -1.046472,0.405912 -1.046472,0.405912 z"
       inkscape:connector-curvature="0" />
    <path
       style="fill:#ff0000;stroke-width:0.26458332"
       id="path386"
       d="m 75.290076,16.076498 c 0.615857,-0.346584 1.27863,-0.569209 1.967767,-0.711257 0.506994,-0.09208 1.023742,-0.100524 1.537488,-0.104987 0.216509,-0.01018 0.427503,0.0017 0.641917,0.02912 0,0 -0.914644,0.649763 -0.914644,0.649763 v 0 c -0.211534,-0.01806 -0.421762,-0.02598 -0.634225,-0.01849 -0.508598,0.0063 -1.019974,0.0193 -1.520333,0.120186 -0.684567,0.152033 -1.340895,0.388392 -1.950616,0.739938 0,0 0.872646,-0.704274 0.872646,-0.704274 z"
       inkscape:connector-curvature="0" />
    <path
       style="fill:#ff0000;stroke-width:0.26458332"
       id="path388"
       d="m 98.924082,17.668554 c 1.022247,-0.283197 2.014848,-0.671248 3.026468,-0.993213 1.37485,-0.426685 2.7694,-0.76571 4.18691,-1.013864 1.00752,-0.193932 2.02605,-0.309204 3.04976,-0.365665 0.9576,-0.03734 1.9162,-0.02904 2.87431,-0.02816 1.03569,0.0018 2.07137,0.0033 3.10705,0.002 1.0133,6.62e-4 2.02659,0.0028 3.03988,0.003 1.06379,4.24e-4 2.12629,-0.03434 3.18527,0.08015 1.19826,0.150889 2.39567,0.313798 3.58628,0.517267 1.15629,0.180382 2.27882,0.523353 3.42097,0.773785 1.06734,0.20318 2.14157,0.347346 3.20464,0.57088 0.84996,0.210587 1.69251,0.449334 2.54282,0.658997 0.66482,0.176269 1.30605,0.396076 1.98823,0.503705 0.63035,0.07523 1.25434,0.187594 1.88677,0.247194 0.343,0.04092 0.68069,0.134526 1.02554,0.161768 0.0438,0.0035 0.16998,-0.02542 0.13191,-0.0034 -0.32743,0.189529 -0.67495,0.342029 -1.01243,0.513043 -0.87652,-0.847104 -1.93921,-1.479942 -2.91723,-2.203968 -0.73928,-0.556802 -1.36668,-1.240286 -2.02509,-1.886579 -0.0661,-0.07239 -0.13219,-0.144779 -0.19829,-0.217168 0,0 0.95621,-0.579797 0.95621,-0.579797 v 0 c 0.0644,0.07105 0.1289,0.142106 0.19335,0.213159 0.64998,0.644886 1.26634,1.329177 1.99708,1.88575 0.98995,0.735968 2.07018,1.366253 2.96595,2.217682 -0.29094,0.239252 -0.56454,0.501329 -0.87284,0.717757 -0.065,0.04563 -1.00652,-0.171709 -1.15615,-0.169336 -0.63193,-0.06572 -1.25654,-0.17819 -1.88692,-0.255733 -0.68171,-0.115206 -1.32541,-0.338993 -1.99273,-0.51177 -0.84671,-0.213688 -1.68628,-0.45432 -2.5351,-0.65928 -1.06209,-0.222797 -2.13661,-0.363574 -3.20125,-0.574654 -1.13982,-0.253933 -2.26234,-0.591349 -3.41778,-0.769448 -1.19019,-0.202077 -2.38667,-0.366411 -3.58535,-0.50914 -1.05615,-0.105581 -2.11589,-0.06726 -3.17606,-0.07266 -1.01543,1.65e-4 -2.03086,0.0024 -3.04628,0.0015 -1.03409,-0.0032 -2.06817,-0.0047 -3.10226,-0.0054 -0.95856,1.65e-4 -1.91769,-0.0044 -2.87557,0.03691 -1.01799,0.05944 -2.03054,0.177596 -3.03277,0.369113 -1.41652,0.248748 -2.80857,0.594994 -4.18052,1.027879 -1.01739,0.32784 -2.016721,0.71857 -3.048413,0.997262 0,0 0.893635,-0.679609 0.893635,-0.679609 z"
       inkscape:connector-curvature="0" />
    <path
       style="fill:#ff0000;stroke-width:0.26458332"
       id="path390"
       d="m 136.74407,19.572516 c -0.89936,0.306336 -1.80235,0.608018 -2.6887,0.95073 -0.16982,0.0673 -0.33963,0.134593 -0.50945,0.20189 0,0 0.86839,-0.682306 0.86839,-0.682306 v 0 c 0.17033,-0.0672 0.34066,-0.134392 0.511,-0.201588 0.89516,-0.339446 1.80137,-0.654973 2.7124,-0.948335 0,0 -0.89364,0.679609 -0.89364,0.679609 z"
       inkscape:connector-curvature="0" />
    <path
       style="fill:#ff0000;stroke-width:0.26458332"
       id="path394"
       d="m 143.95655,20.951593 c -1.00952,0.519446 -1.81805,1.036027 -3.44806,1.882839 -1.0353,0.548345 -2.1162,0.99601 -3.23936,1.326755 -0.97548,0.398674 -1.99867,0.644029 -3.00713,0.939302 -0.92768,0.283267 -1.8462,0.58911 -2.80534,0.745897 -0.65435,0.09857 -1.31718,0.09881 -1.97723,0.101906 -0.66286,0.0028 -1.32301,0.01513 -1.98183,-0.06339 -0.21451,-0.0703 -0.4619,-0.07636 -0.66711,-0.177725 -0.0434,-0.02143 -0.15086,-0.13296 -0.0585,-0.193984 0.34839,-0.230097 0.73234,-0.40119 1.09851,-0.601785 0.62197,-0.184375 1.24015,-0.391139 1.8665,-0.567236 0.59245,-0.166393 1.12574,-0.481086 1.69208,-0.715446 0,0 -0.8776,0.692628 -0.8776,0.692628 v 0 c -0.56221,0.240392 -1.10073,0.543532 -1.69511,0.700747 -0.62846,0.181307 -1.25002,0.383725 -1.87228,0.584507 0.52799,-0.31547 1.16959,-0.369701 0.73697,-0.560653 -0.0683,-0.03014 0.13632,0.06232 0.2082,0.08241 0.20354,0.05687 0.27099,0.06657 0.48095,0.109336 0.65545,0.07304 1.31319,0.05527 1.97192,0.05388 0.65598,-0.0049 1.31456,-0.01038 1.96402,-0.114567 0.95065,-0.166784 1.86364,-0.47141 2.78672,-0.747746 1.01252,-0.292708 2.03117,-0.561099 3.01437,-0.945937 1.11389,-0.338335 2.18716,-0.785975 3.21514,-1.334162 0.43008,-0.22368 0.84762,-0.472787 1.28834,-0.674678 0.10712,-0.04907 -0.40421,0.242297 -0.30231,0.183143 0.82194,-0.477165 1.63062,-0.987626 2.48508,-1.407542 0,0 -0.87698,0.701504 -0.87698,0.701504 z"
       inkscape:connector-curvature="0" />
    <path
       style="fill:#ff0000;stroke-width:0.26458332"
       id="path396"
       d="m 128.24015,25.230986 c 0.66833,0.376721 1.37293,0.678761 2.04783,1.043547 0.50919,0.315248 1.05043,0.583128 1.62872,0.742304 0.37751,0.110524 0.19005,0.05816 0.56231,0.157382 0,0 -0.9219,0.63333 -0.9219,0.63333 v 0 c -0.37281,-0.102063 -0.18511,-0.04909 -0.56306,-0.159086 -0.58055,-0.174135 -1.12461,-0.444899 -1.63929,-0.764048 -0.6766,-0.364225 -1.37938,-0.673351 -2.05408,-1.041126 0,0 0.93947,-0.612303 0.93947,-0.612303 z"
       inkscape:connector-curvature="0" />
    <path
       style="fill:#ff0000;stroke-width:0.26458332"
       id="path398"
       d="m 79.662233,24.809198 c -0.927015,-0.0063 -1.854073,-0.0053 -2.781104,-0.0043 -0.864462,0.0015 -1.728922,8.73e-4 -2.593385,8.2e-5 -1.236416,-0.0024 -2.472835,-0.0036 -3.709257,-0.0031 -1.338064,-5.03e-4 -2.676128,-7.67e-4 -4.014192,6.35e-4 -1.071253,0.01414 -2.144017,-0.02797 -3.214248,0.02707 -1.041329,0.06506 -2.070452,0.262229 -3.100811,0.421733 -1.108753,0.123523 -2.206138,0.320439 -3.29846,0.545547 -0.830551,0.155379 -1.661483,0.305716 -2.481694,0.509841 -0.71357,0.183804 -1.341622,0.575903 -2.026978,0.833689 -0.759738,0.334566 -1.555742,0.571532 -2.354927,0.790244 -1.020397,0.263893 -1.980424,0.713566 -2.946635,1.126168 -0.931463,0.418015 -1.892456,0.763034 -2.808727,1.213844 -0.242752,0.115486 -0.417938,0.194458 -0.652028,0.322104 -0.09331,0.05088 -0.367985,0.212852 -0.275826,0.15992 0.212143,-0.121849 0.847913,-0.488535 0.635781,-0.366665 -1.441971,0.828407 -0.848527,0.510931 -1.641618,0.927727 -0.282776,0.199752 -1.539407,0.70509 0.0067,-0.03159 0.08986,-0.04282 -0.164541,0.112168 -0.244321,0.171691 -0.03271,0.02442 -0.419262,0.33414 -0.447434,0.356682 -0.457669,0.388244 -0.93835,0.754936 -1.357247,1.185746 -0.16088,0.185333 -0.327422,0.365265 -0.489931,0.549108 -0.05693,0.06441 -0.126143,0.137946 -0.126148,0.137936 -0.02643,-0.03364 -0.02104,-0.08294 -0.03157,-0.124413 0.298998,-0.16968 0.636434,-0.263813 0.942226,-0.428061 0.528153,-0.264787 1.03124,-0.566216 1.582505,-0.781685 0.609893,-0.213082 1.166145,-0.548309 1.765451,-0.783101 0.476273,-0.18996 0.988523,-0.19033 1.487847,-0.259836 0,0 -0.897446,0.669911 -0.897446,0.669911 v 0 c -0.496586,0.05993 -1.001159,0.08425 -1.469197,0.281877 -0.592317,0.250698 -1.158068,0.562345 -1.764559,0.781859 -0.545735,0.226624 -1.049911,0.530995 -1.579451,0.791867 -0.316481,0.152892 -0.646271,0.289904 -0.980096,0.396713 -0.03477,-0.04036 -0.08462,-0.07158 -0.104315,-0.121078 -0.0066,-0.01648 0.03113,-0.01762 0.04445,-0.02935 0.03376,-0.02975 0.06609,-0.06126 0.09627,-0.09463 0.165778,-0.183367 0.330386,-0.368033 0.491506,-0.555747 0.406207,-0.446257 0.898075,-0.804616 1.351812,-1.200745 0.224758,-0.178885 0.443235,-0.391007 0.688829,-0.541277 0.622279,-0.380746 1.246947,-0.749382 1.90163,-1.069297 0.113374,-0.06082 0.448707,-0.25146 0.340119,-0.18246 -0.19712,0.125257 -0.808556,0.467934 -0.60611,0.351483 0.725284,-0.417197 1.436798,-0.863208 2.200857,-1.208037 0.916511,-0.441256 1.87506,-0.783884 2.802321,-1.201843 0.971227,-0.415597 1.9378,-0.862264 2.965593,-1.122082 0.798438,-0.222348 1.590593,-0.468381 2.351024,-0.801341 0.67905,-0.270809 1.314918,-0.650224 2.032309,-0.819754 0.820804,-0.199679 1.651844,-0.347184 2.481615,-0.504134 1.092999,-0.219569 2.19085,-0.40967 3.298391,-0.538969 1.033737,-0.160067 2.06593,-0.359881 3.111822,-0.415306 1.069409,-0.04687 2.14076,-0.0043 3.210923,-0.01814 1.337477,0.0014 2.674953,0.0011 4.01243,6.35e-4 1.239274,4.77e-4 2.478548,-6.88e-4 3.717819,-0.0031 0.864386,-7.94e-4 1.728774,-0.0015 2.59316,8.2e-5 0.930936,0.0011 1.861897,0.002 2.792815,-0.0043 0,0 -0.9085,0.660064 -0.9085,0.660064 z"
       inkscape:connector-curvature="0" />
    <path
       style="fill:#ff0000;stroke-width:0.26458332"
       id="path400"
       d="m 38.928206,33.989121 c 0.471694,-0.528849 0.883005,-1.109573 1.284161,-1.692873 0.262437,-0.397182 0.42269,-0.849286 0.552995,-1.304232 0.101999,-0.384223 0.323921,-0.709761 0.519377,-1.049507 0.217651,-0.363148 0.360577,-0.756205 0.454475,-1.166894 0,0 1.008843,-0.487405 1.008843,-0.487405 v 0 c -0.08492,0.42073 -0.22234,0.8241 -0.439299,1.197057 -0.186134,0.337709 -0.416954,0.65024 -0.529463,1.024149 -0.124645,0.466196 -0.287967,0.929378 -0.543964,1.340575 -0.396905,0.58597 -0.811303,1.165053 -1.273215,1.701541 0,0 -1.03391,0.437589 -1.03391,0.437589 z"
       inkscape:connector-curvature="0" />
    <path
       style="fill:#ff0000;stroke-width:0.26458332"
       id="path402"
       d="m 35.99848,51.363419 c 0.661773,0.0038 1.323565,0.0026 1.985346,0.0016 0.555252,0.0059 1.105453,-0.08972 1.657236,-0.142271 0.47715,-0.03795 0.955874,-0.04403 1.434249,-0.04773 0.493006,-0.0026 0.98602,-0.0011 1.479028,-4.2e-5 0.524256,1.77e-4 1.04851,5.29e-4 1.572763,1.67e-4 0.492535,1.85e-4 0.985067,4.7e-5 1.477603,1.8e-5 0.541099,2.65e-4 1.082198,7.94e-4 1.623298,5.29e-4 0.28267,-5.29e-4 0.56534,2.49e-4 0.84801,2.65e-4 0,0 -0.904541,0.657188 -0.904541,0.657188 v 0 c -0.282935,3.7e-5 -0.56587,7.94e-4 -0.848805,2.64e-4 -0.541562,-2.09e-4 -1.083127,1.3e-4 -1.624689,5.3e-4 -0.492506,-3e-5 -0.985012,-1.54e-4 -1.477521,-1.09e-4 -0.523769,-5.29e-4 -1.047538,-5.29e-4 -1.571308,-0.0013 -0.493384,2.41e-4 -0.986771,-5.29e-4 -1.480148,0.0021 -0.476514,0.0049 -0.953523,0.01304 -1.428451,0.05565 -0.552555,0.05444 -1.104421,0.143452 -1.661022,0.131638 -0.663181,-0.0011 -1.326375,-0.0021 -1.989548,0.0016 0,0 0.9085,-0.660064 0.9085,-0.660064 z"
       inkscape:connector-curvature="0" />
    <path
       style="fill:#ff0000;stroke-width:0.26458332"
       id="path404"
       d="m 42.684033,52.009161 c 0.154532,0.715545 0.598223,1.304663 1.09071,1.826953 0.712751,0.699514 1.718591,0.737114 2.659838,0.823817 1.756698,0.112443 3.517887,0.118616 5.277482,0.121071 1.167302,7.94e-4 2.334588,-0.0064 3.501885,-0.0089 1.131676,0.06906 2.145731,-0.440696 3.166038,-0.853459 1.136068,-0.461071 2.296639,-0.861269 3.452591,-1.270357 0.566917,-0.206714 1.155967,-0.360243 1.71052,-0.600694 0.11412,-0.04948 0.439571,-0.231571 0.335301,-0.163753 -0.214862,0.139742 -0.445524,0.253547 -0.668284,0.38032 0.594156,-0.374132 1.025459,-0.92532 1.394391,-1.511652 0.283983,-0.509987 0.679585,-0.942062 1.012574,-1.418431 0.355975,-0.538629 0.728175,-1.06679 1.114634,-1.583974 0.40519,-0.503637 0.814805,-1.00318 1.194281,-1.526759 0.409144,-0.491652 0.664345,-1.066324 0.921451,-1.643679 0.253278,-0.521203 0.542396,-1.019403 0.784114,-1.546635 0.219324,-0.474901 0.52949,-0.896504 0.891858,-1.270961 0.355613,-0.305144 0.700635,-0.606406 0.978836,-0.985117 0.255151,-0.354738 0.456846,-0.739471 0.774213,-1.044324 0.414759,-0.281334 0.603245,-0.419627 1.27608,-0.621657 0.185389,-0.05567 0.372007,0.721066 0.391965,0.824913 0.07973,0.666834 0.07596,1.340471 0.07716,2.011095 -0.0019,0.599442 -0.0035,1.198888 -0.0052,1.798336 -5.3e-4,0.351882 -0.0076,0.179292 0.01992,0.517834 0,0 -0.99363,0.517245 -0.99363,0.517245 v 0 c -0.03251,-0.347784 -0.02442,-0.172003 -0.02336,-0.527386 0.0016,-0.599649 0.0061,-1.19929 0.0073,-1.798942 6.4e-5,-0.664099 0.0075,-1.330994 -0.06985,-1.991638 -0.03435,-0.188132 -0.03909,-0.286901 -0.115125,-0.457012 -0.02455,-0.05495 -0.05136,-0.11053 -0.0905,-0.156271 -0.02906,-0.03396 -0.14334,-0.0483 -0.109463,-0.07747 0.377484,-0.324918 1.191662,-0.715298 0.674746,-0.462814 -0.341019,0.280932 -0.535379,0.663895 -0.78445,1.021892 -0.273484,0.388141 -0.597265,0.710748 -0.973058,1.002835 -0.372634,0.354949 -0.682146,0.771874 -0.909172,1.23481 -0.243607,0.526682 -0.517946,1.031179 -0.784789,1.545852 -0.263628,0.580329 -0.499588,1.172178 -0.91767,1.66634 -0.3737,0.527069 -0.777952,1.030047 -1.189693,1.527646 -0.389846,0.51348 -0.761561,1.041292 -1.116939,1.57914 -0.321151,0.484515 -0.72725,0.906756 -1.014836,1.413954 -0.362103,0.598617 -0.78981,1.163238 -1.373904,1.562843 -0.414957,0.237853 -0.825559,0.483471 -1.244868,0.713563 -0.637508,0.349824 -1.375227,0.482963 -2.046004,0.750163 -1.152771,0.407765 -2.310564,0.805574 -3.442369,1.268603 -1.031513,0.418182 -2.057257,0.906907 -3.200257,0.826465 -1.16372,0.0019 -2.327442,0.0032 -3.491162,2.65e-4 -1.760987,-0.0099 -3.523252,-0.01942 -5.28144,-0.130067 -0.973897,-0.08904 -1.99834,-0.141657 -2.724362,-0.87762 -0.49917,-0.541742 -0.950894,-1.146315 -1.126421,-1.875052 0,0 0.988952,-0.531444 0.988952,-0.531444 z"
       inkscape:connector-curvature="0" />
    <path
       style="fill:#ff0000;stroke-width:0.26458332"
       id="path406"
       d="m 72.491771,40.010326 c -0.687276,0.322632 -1.398865,0.589878 -2.096876,0.888036 -0.730094,0.391346 0.309595,-0.195458 0.472072,-0.279304 0.07596,-0.0392 -0.141067,0.09656 -0.211396,0.145137 -0.19126,0.132093 -0.379789,0.267142 -0.573696,0.395346 -0.444064,0.285408 -0.874583,0.592209 -1.32397,0.869145 -0.613394,0.341472 -1.22134,0.69356 -1.844529,1.016807 0,0 0.874069,-0.702106 0.874069,-0.702106 v 0 c 0.350073,-0.186579 1.479148,-0.798663 -0.07355,0.08826 0.454086,-0.267044 0.879425,-0.580499 1.322488,-0.865016 0.738746,-0.462052 1.408361,-1.042583 2.235007,-1.359704 0.705477,-0.288534 1.40784,-0.58225 2.106713,-0.885187 0,0 -0.886328,0.688586 -0.886328,0.688586 z"
       inkscape:connector-curvature="0" />
    <path
       style="fill:#ff0000;stroke-width:0.26458332"
       id="path412"
       d="m 128.9955,37.941662 c 0.91931,-0.561297 1.78255,-1.205449 2.69709,-1.77433 0.46385,-0.266462 0.92793,-0.532529 1.39156,-0.799383 0.17259,-0.09934 -0.69138,0.395536 -0.51843,0.296833 0.77721,-0.443558 1.52912,-0.884308 2.32571,-1.281914 0.55485,-0.262104 1.14271,-0.418063 1.73687,-0.55767 0.65976,-0.197395 1.34064,-0.305914 2.02515,-0.367514 0.74494,-0.03381 1.49422,-0.07715 2.23891,-0.02394 0.7211,0.08368 1.38178,0.375603 2.0032,0.736185 0.51993,0.30557 0.96402,0.705358 1.39051,1.126839 0.40601,0.486267 0.6072,0.419907 -0.81149,0.750327 -0.0395,0.0092 -0.35101,-0.78753 -0.3709,-0.835348 -0.25662,-0.518036 -0.36292,-1.089716 -0.55256,-1.631291 -0.0652,-0.186246 -0.20841,-0.514755 -0.28702,-0.699403 -0.30514,-0.625361 -0.78372,-1.147677 -1.23742,-1.669216 -0.28904,-0.352719 -0.14549,-0.177025 -0.43067,-0.527071 0,0 0.95727,-0.573257 0.95727,-0.573257 v 0 c 0.28399,0.349062 0.14103,0.174395 0.42891,0.523991 0.46049,0.531183 0.9436,1.064168 1.25359,1.700358 0.0669,0.158631 0.23654,0.554776 0.29101,0.710571 0.1881,0.53795 0.28702,1.108053 0.54704,1.620792 0.0898,0.20646 0.16271,0.420299 0.25951,0.623565 0.0295,0.06197 0.15149,0.124698 0.1063,0.176366 -0.82328,0.941292 -0.69674,0.895241 -1.10759,0.415083 -0.42025,-0.414414 -0.85847,-0.80668 -1.37215,-1.104466 -0.6128,-0.349279 -1.26401,-0.628626 -1.97437,-0.694015 -0.74197,-0.04218 -1.48734,-0.0072 -2.2285,0.03835 -0.68259,0.06886 -1.3587,0.186783 -2.01775,0.381188 -0.58992,0.141124 -1.17131,0.309489 -1.71908,0.576384 -0.13634,0.06802 -0.50329,0.249812 -0.63113,0.319027 -0.11718,0.06345 -0.46046,0.268383 -0.34738,0.197869 0.1831,-0.114181 0.74498,-0.435896 0.55756,-0.328936 -0.95934,0.547503 -2.04415,1.191141 -0.87677,0.500827 -0.91435,0.561391 -1.77362,1.202333 -2.68493,1.768042 0,0 -1.04205,0.405169 -1.04205,0.405169 z"
       inkscape:connector-curvature="0" />
    <path
       style="fill:#ff0000;stroke-width:0.26458332"
       id="path414"
       d="m 142.00619,35.203185 c -0.75246,-0.02101 -1.49245,0.07663 -2.2212,0.252653 -0.4133,0.137184 -0.83128,0.288444 -1.22477,0.477483 -0.10059,0.04832 -0.38943,0.218094 -0.29326,0.161497 0.2152,-0.126638 0.43358,-0.247767 0.65037,-0.37165 0,0 -1.04067,0.40005 -1.04067,0.40005 v 0 c 0.90038,-0.51988 1.77956,-1.075899 2.79405,-1.342877 0.73644,-0.170569 1.48596,-0.246565 2.24299,-0.236503 0,0 -0.90751,0.659347 -0.90751,0.659347 z"
       inkscape:connector-curvature="0" />
    <path
       style="fill:#ff0000;stroke-width:0.26458332"
       id="path416"
       d="m 158.49379,41.270536 c 0.0382,0.92579 -0.12333,1.838973 -0.23109,2.75477 -0.082,0.821055 -0.20085,1.63812 -0.3325,2.452537 -0.12264,0.727892 -0.32019,1.437777 -0.55344,2.137055 -0.22444,0.714246 -0.4523,0.986396 0.24464,1.458722 0.73831,0.343609 1.59556,0.324504 2.39524,0.349049 1.07297,0.01836 2.14621,0.01064 3.21928,0.0067 0.94524,-0.0024 1.89048,-0.0063 2.83573,-0.0074 0.68752,-0.0024 1.37504,-0.0011 2.06256,-0.0013 0.34545,1.08e-4 0.69091,1.14e-4 1.03636,-1.62e-4 0,0 -0.90277,0.655895 -0.90277,0.655895 v 0 c -0.34527,-2.65e-4 -0.69054,-2.65e-4 -1.03582,-2.28e-4 -0.68666,-1.67e-4 -1.37332,0.0011 -2.05998,-5.29e-4 -0.94329,5.29e-4 -1.88659,-5.29e-4 -2.82988,0.0034 -1.07494,0.0028 -2.15003,0.0114 -3.22487,-0.0076 -0.81721,-0.02908 -1.69668,-0.01334 -2.43903,-0.397468 -0.74372,-0.542732 -0.56349,-0.791728 -0.31126,-1.585682 0.23974,-0.6927 0.43559,-1.398696 0.56347,-2.121225 0.13205,-0.813994 0.25559,-1.629985 0.33961,-2.450521 0.10493,-0.909936 0.27927,-1.817037 0.22426,-2.736874 0,0 0.99949,-0.509264 0.99949,-0.509264 z"
       inkscape:connector-curvature="0" />
    <path
       style="fill:#ff0000;stroke-width:0.26458332"
       id="path418"
       d="m 165.45892,48.178293 c 0.71641,0.107805 1.43843,0.190162 2.15324,0.309502 0.56726,0.101881 1.13624,0.240435 1.66485,0.473813 0.57737,0.47942 0.14381,1.124511 -0.18675,1.613218 -0.38709,0.601493 -0.86401,1.123288 -1.37897,1.615146 -0.44001,0.466352 -0.95521,0.832908 -1.50054,1.16323 0,0 -1.044,0.402966 -1.044,0.402966 v 0 c 0.54621,-0.327062 1.07713,-0.670394 1.5133,-1.142111 0.51542,-0.487421 1.00517,-0.993691 1.38981,-1.595017 0.21897,-0.307692 0.72079,-0.883846 0.43446,-1.296083 -0.0405,-0.05825 -0.10698,-0.09315 -0.16046,-0.139729 -0.52518,-0.220445 -1.08342,-0.358219 -1.64368,-0.455141 -0.71643,-0.11447 -1.43754,-0.20818 -2.15695,-0.299861 0,0 0.91569,-0.649933 0.91569,-0.649933 z"
       inkscape:connector-curvature="0" />
    <path
       style="fill:#ff0000;stroke-width:0.26458332"
       id="path422"
       d="m 168.77367,72.028687 c -1.35807,-0.0748 -2.70188,-0.289378 -4.04145,-0.514731 -1.3366,-0.225121 -2.65121,-0.519875 -3.94896,-0.910003 -1.34727,-0.364045 -2.69028,-0.744019 -4.03884,-1.103103 -1.47776,-0.342855 -2.92504,-0.79969 -4.39787,-1.162405 -1.38417,-0.426543 -2.79473,-0.768387 -4.22602,-0.990769 -1.08701,-0.154295 -2.18592,-0.231788 -3.26558,-0.433367 -0.98663,-0.201459 -1.98662,-0.317314 -2.98293,-0.45644 -0.79809,-0.149797 -1.61261,-0.163793 -2.41518,-0.270166 -0.58576,-0.101902 -1.1761,-0.145137 -1.7694,-0.165172 -0.80998,-0.01921 -1.62029,-0.01894 -2.43045,-0.0186 -0.71372,2.65e-4 -1.42744,0.0011 -2.14115,0.0024 -0.60179,2.65e-4 -1.20358,2.65e-4 -1.80538,0.0011 -0.49541,1.24e-4 -0.99081,7.94e-4 -1.48622,5.29e-4 -0.49042,-1.06e-4 -0.98084,2.04e-4 -1.47127,-1.85e-4 -0.40662,-0.03315 -0.84188,0.07656 -1.23306,-0.06562 -0.0802,-0.07549 -0.0764,-0.189238 0.0252,-0.248629 0.7084,-0.414311 0.96225,-0.56555 1.5898,-0.780812 0.67954,-0.199639 1.34936,-0.423672 2.03414,-0.606952 0.46524,-0.128325 0.90937,-0.319772 1.34608,-0.522504 0,0 -0.87289,0.69306 -0.87289,0.69306 v 0 c -0.44076,0.196977 -0.88726,0.384641 -1.35565,0.50691 -0.68453,0.187129 -1.35609,0.412149 -2.03512,0.617336 -0.0838,0.02913 -0.16796,0.05744 -0.25151,0.08739 -0.8532,0.305776 1.14997,-0.552024 0.45283,-0.380632 0.39013,0.1035 0.80865,0.0099 1.20648,0.042 0.49059,-2.65e-4 0.98118,-7.4e-5 1.47177,-1.72e-4 0.49494,-2.65e-4 0.98989,5.29e-4 1.48483,5.29e-4 0.60117,5.29e-4 1.20235,5.29e-4 1.80352,2.38e-4 0.71273,5.29e-4 1.42546,-2.49e-4 2.13819,-2.12e-4 0.81095,0.0011 1.62199,0.0016 2.43274,0.02151 0.59686,0.02005 1.18926,0.0703 1.77854,0.171394 0.80111,0.0979 1.61014,0.132721 2.40587,0.278194 0.99869,0.136768 2.00021,0.256942 2.98883,0.458306 1.07706,0.194876 2.17159,0.278249 3.25425,0.437883 1.43217,0.229052 2.84141,0.580808 4.22954,0.999942 1.47085,0.368364 2.91945,0.81851 4.39553,1.166119 1.35177,0.357177 2.69961,0.729888 4.04754,1.101381 1.29428,0.386914 2.6067,0.673153 3.93839,0.900589 1.34357,0.223753 2.69084,0.441148 4.05441,0.493475 0,0 -0.90954,0.650208 -0.90954,0.650208 z"
       inkscape:connector-curvature="0" />
    <path
       style="fill:#ff0000;stroke-width:0.26458332"
       id="path424"
       d="m 128.20157,65.895214 c 0.68533,0.546597 1.46082,0.9506 2.23877,1.34488 0.60366,0.324823 1.21526,0.63854 1.8784,0.819808 0.28727,0.0655 0.56028,0.174903 0.83297,0.28366 0,0 -0.92815,0.622776 -0.92815,0.622776 v 0 c -0.27153,-0.104412 -0.54371,-0.207586 -0.82768,-0.274288 -0.66287,-0.196186 -1.27633,-0.515146 -1.88328,-0.842444 -0.78556,-0.40092 -1.5634,-0.8188 -2.26376,-1.360453 0,0 0.95273,-0.593939 0.95273,-0.593939 z"
       inkscape:connector-curvature="0" />
    <path
       style="fill:#ff0000;stroke-width:0.26458332"
       id="path426"
       d="m 78.285056,65.626688 c -1.715254,-0.01331 -3.430588,-0.009 -5.145868,-0.0035 -0.832168,-0.03502 -1.658165,0.04497 -2.484908,0.123947 -0.671023,0.109582 -1.339356,0.236323 -2.006796,0.366866 -1.026962,0.272049 -2.049976,0.558929 -3.080314,0.81816 -0.926915,0.235355 -1.822812,0.576376 -2.721417,0.900189 -0.711456,0.246213 -1.376627,0.603332 -2.070515,0.891249 -0.507971,0.19363 -1.027364,0.358503 -1.531855,0.560874 -0.771861,0.405689 0.691515,-0.413723 0.517728,-0.311819 -3.846311,2.255377 0.610389,-0.443746 -0.689215,0.430866 -0.08659,0.05827 -0.172043,0.118224 -0.258062,0.177337 -0.722482,0.534371 -1.53684,0.918268 -2.322637,1.344867 -0.417732,0.258429 -0.747942,0.254754 -0.387111,-0.30284 0.435181,-0.561147 0.951116,-1.046406 1.479163,-1.517539 0.657466,-0.576231 1.282914,-1.185532 1.877719,-1.825868 0.09383,-0.102973 0.187656,-0.205944 0.281485,-0.308917 0,0 1.024773,-0.430064 1.024773,-0.430064 v 0 c -0.09429,0.103489 -0.188576,0.206978 -0.282863,0.310467 -0.592505,0.641784 -1.211694,1.256689 -1.868233,1.833488 -0.524934,0.467278 -1.045893,0.938596 -1.483249,1.492388 -0.04651,0.05836 -0.09263,0.117028 -0.139512,0.175085 -0.01921,0.02379 -0.03628,0.04975 -0.05877,0.07048 -0.0038,0.0035 -0.01998,-7.94e-4 -0.01513,-0.0024 0.154019,-0.05314 0.306093,-0.106116 0.445531,-0.196085 0.35396,-0.179409 1.173507,-0.647837 -0.285826,0.222671 -0.07453,0.04446 0.151243,-0.08549 0.223422,-0.133686 0.0754,-0.05034 0.145873,-0.107712 0.218808,-0.161568 0.0843,-0.05387 0.168608,-0.107733 0.252915,-0.1616 0.550889,-0.385299 1.107852,-0.686681 1.690013,-1.049088 0.244932,-0.152477 -1.000416,0.575312 -0.749121,0.433572 1.362795,-0.768662 0.746496,-0.477972 1.409256,-0.781481 0.506801,-0.19273 1.021281,-0.365038 1.526974,-0.560977 0.689054,-0.297085 1.360281,-0.638062 2.070679,-0.883873 0.896078,-0.32557 1.794928,-0.652788 2.72042,-0.885449 1.034015,-0.262067 2.059186,-0.557014 3.093029,-0.819904 0.670941,-0.127376 1.340149,-0.267351 2.016712,-0.360786 0.823511,-0.07572 1.64668,-0.1407 2.474852,-0.103727 1.718522,0.0055 3.437096,0.0097 5.155594,-0.0035 0,0 -0.897662,0.65219 -0.897662,0.65219 z"
       inkscape:connector-curvature="0" />
    <path
       style="fill:#ff0000;stroke-width:0.26458332"
       id="path428"
       d="m 56.616962,70.802457 c 0.815893,-0.03633 1.621941,-0.168839 2.432825,-0.257003 0.682821,-0.03969 1.358776,-0.142333 2.039062,-0.209362 0.426773,-0.03216 0.216074,-0.01802 0.632079,-0.04273 0,0 -0.899936,0.662287 -0.899936,0.662287 v 0 c -0.41366,0.02606 -0.204083,0.01098 -0.628705,0.04559 -0.678976,0.06886 -1.354696,0.166023 -2.036212,0.208634 -0.81307,0.09066 -1.62283,0.210193 -2.439961,0.260914 0,0 0.900848,-0.668324 0.900848,-0.668324 z"
       inkscape:connector-curvature="0" />
    <path
       style="fill:#0000ff;stroke-width:0.26458332"
       id="path430"
       d="m 174.3677,89.508265 c 0.10569,1.872383 0.279,3.73992 0.40465,5.611048 0.11842,1.672802 0.14103,3.349847 0.14432,5.026127 0.003,1.47393 0.0301,2.94868 -0.097,4.4189 -0.0545,0.63026 -0.15369,1.35471 -0.2347,1.98526 -0.166,1.01509 -0.0816,0.53222 -0.25032,1.4491 0,0 -0.98762,0.48009 -0.98762,0.48009 v 0 c 0.1797,-0.91808 0.0898,-0.43484 0.26674,-1.45024 0.0806,-0.59824 0.19313,-1.38913 0.24726,-1.98383 0.13345,-1.46625 0.0981,-2.93757 0.0924,-4.40777 -0.0173,-1.674172 -0.0349,-3.349138 -0.14111,-5.020609 -0.11793,-1.868996 -0.2786,-3.734443 -0.44198,-5.599917 0,0 0.99731,-0.508159 0.99731,-0.508159 z"
       inkscape:connector-curvature="0" />
    <path
       style="fill:#0000ff;stroke-width:0.26458332"
       id="path432"
       d="m 174.02336,89.891721 c 1.29427,-0.08847 2.59205,-0.111975 3.88882,-0.135057 0.23302,-0.0031 0.46603,-0.0063 0.69905,-0.0092 0.20927,-0.0026 0.41881,-0.01744 0.62784,-0.007 0.78695,0.03941 1.54332,0.264906 2.28587,0.509458 1.03718,0.383154 1.4574,0.828114 1.95648,1.784514 0.40428,1.131514 0.45473,2.350452 0.50255,3.54036 0.0466,1.01073 -0.11606,1.991591 -0.3758,2.962569 -0.3249,0.944182 -0.84967,1.792755 -1.4451,2.587175 -0.67141,0.86331 -1.43778,1.64483 -2.2031,2.42369 -0.66008,0.7005 -1.35193,1.36169 -2.15511,1.89478 -1.05926,0.64329 -2.07759,1.19648 -3.28979,1.44122 -0.55527,0.0731 -0.28091,0.0336 -0.82313,0.11797 0,0 0.88956,-0.66723 0.88956,-0.66723 v 0 c 0.54155,-0.082 0.26839,-0.041 0.81948,-0.12302 0.54738,-0.12095 1.05115,-0.29071 1.55835,-0.53163 0.13186,-0.0626 0.50149,-0.29222 0.3915,-0.19624 -0.17246,0.15049 -0.38852,0.24211 -0.58279,0.36316 0.81498,-0.51769 1.5134,-1.17238 2.17251,-1.87581 0.7653,-0.77614 1.53131,-1.55509 2.20905,-2.41062 0.59603,-0.78135 1.11842,-1.61687 1.4554,-2.545441 0.26621,-0.96167 0.44178,-1.932384 0.39985,-2.936795 -0.0458,-1.173634 -0.0862,-2.377083 -0.48753,-3.492987 -0.48627,-0.932058 -0.89389,-1.348375 -1.90597,-1.715016 -1.03179,-0.334574 -1.79428,-0.489064 -2.88622,-0.477594 -0.23258,0.0024 -0.46515,0.0059 -0.69773,0.0089 -1.30208,0.02373 -2.60572,0.04593 -3.90404,0.155183 0,0 0.9,-0.665392 0.9,-0.665392 z"
       inkscape:connector-curvature="0" />
    <path
       style="fill:#0000ff;stroke-width:0.26458332"
       id="path434"
       d="m 188.89855,90.290943 c -0.0993,1.565923 -0.36331,3.114463 -0.60436,4.663082 -0.27698,1.762075 -0.65426,3.508727 -1.06981,5.243065 -0.28109,1.3679 -0.75422,2.68484 -1.11909,4.03149 -0.0424,0.17209 -0.0849,0.34418 -0.12733,0.51626 0,0 -0.99663,0.4776 -0.99663,0.4776 v 0 c 0.0434,-0.17346 0.0869,-0.34692 0.1303,-0.52038 0.36798,-1.34695 0.84217,-2.66458 1.12777,-4.03225 0.42457,-1.731874 0.80562,-3.478447 1.08408,-5.239879 0.23854,-1.539576 0.50231,-3.08044 0.57502,-4.639066 0,0 1.00005,-0.499922 1.00005,-0.499922 z"
       inkscape:connector-curvature="0" />
    <path
       style="fill:#0000ff;stroke-width:0.26458332"
       id="path436"
       d="m 190.21276,88.97205 c 1.09211,0.03179 2.18223,-0.0265 3.27252,-0.0808 1.05767,-0.01482 2.12488,-0.178189 3.17316,0.0081 0.8036,0.180572 1.2911,0.578461 1.76093,1.229995 0.41891,0.800319 0.47894,1.696738 0.42661,2.581539 -0.0527,0.985002 -0.50281,1.845069 -1.05522,2.637039 -0.81612,1.044424 -1.86471,1.537247 -3.01072,2.169734 -0.81072,0.33247 -1.64833,0.60734 -2.50011,0.813567 -0.63559,0.147913 -1.28923,0.170807 -1.93879,0.183597 -0.67227,0.0065 -1.34457,0.0013 -2.01685,0.0016 -0.0519,2.64e-4 -0.10371,5.29e-4 -0.15557,7.93e-4 -0.012,1.7e-4 -0.0461,0.0073 -0.0361,5.3e-4 0.33426,-0.22692 0.65798,-0.472882 1.0138,-0.664234 0.0349,-0.01876 0.83207,0.0034 0.89645,0.0035 0.7551,-0.01437 1.51285,0.02876 2.25538,0.167783 0.79277,0.174488 1.5898,0.33179 2.33338,0.663218 0.63273,0.32857 1.24385,0.719092 1.75459,1.219356 0.41753,0.473373 0.43844,1.113543 0.46734,1.713153 0.0658,0.73209 -0.0362,1.44552 -0.20737,2.15488 -0.20552,0.82532 -0.66603,1.53724 -1.17304,2.20646 -0.93923,1.10373 -2.25225,1.84846 -3.5636,2.4263 -0.85616,0.39102 -1.76922,0.56755 -2.69937,0.65221 -0.63355,0.0452 -1.26893,0.0476 -1.90373,0.0452 -0.40475,-0.003 -0.80949,-0.006 -1.21424,-0.007 0,0 0.90668,-0.65824 0.90668,-0.65824 v 0 c 0.40492,0.002 0.80984,0.003 1.21475,0.007 0.63011,0.003 1.26099,0.002 1.88954,-0.0486 0.9223,-0.0918 1.82505,-0.28407 2.67145,-0.67667 0.16621,-0.0767 0.36541,-0.35564 0.49863,-0.23009 0.12847,0.12109 -0.56804,0.40684 -0.45488,0.27132 0.12159,-0.14562 0.32626,-0.19437 0.48158,-0.30331 0.42405,-0.29743 0.8302,-0.63744 1.15655,-1.04094 0.50536,-0.65427 0.97188,-1.35137 1.18456,-2.16134 0.17408,-0.69973 0.28935,-1.4019 0.2223,-2.12636 -0.028,-0.56991 -0.0333,-1.18658 -0.43006,-1.63831 -0.50224,-0.48979 -1.10334,-0.872633 -1.7276,-1.188508 -0.74145,-0.314884 -1.53178,-0.474761 -2.31768,-0.642194 -0.74218,-0.122995 -1.49464,-0.166849 -2.24689,-0.149892 -0.29377,5.29e-4 -0.39661,2.64e-4 -0.68421,0.0027 -0.0744,5.29e-4 -0.27292,0.05786 -0.22322,0.0024 0.6377,-0.710501 0.5113,-0.667403 0.99662,-0.658751 0.6709,0.0052 1.34193,0.0071 2.0128,-0.0024 0.64463,-0.01675 1.29249,-0.04646 1.92156,-0.201362 0.84559,-0.214442 1.68202,-0.48111 2.4819,-0.830598 -0.18349,0.114893 -0.37634,0.216027 -0.55047,0.344675 -0.108,0.0798 0.23789,-0.125304 0.35117,-0.197421 0.50268,-0.320038 0.93573,-0.738357 1.32836,-1.18295 0.55424,-0.771556 1.01888,-1.611209 1.07942,-2.581044 0.0618,-0.858433 0.008,-1.732421 -0.39579,-2.510849 -0.45548,-0.629203 -0.93168,-0.997458 -1.71,-1.159443 -1.04286,-0.160089 -2.10065,-0.0141 -3.15007,0.0044 -1.0979,0.05376 -2.19525,0.107109 -3.29492,0.09037 0,0 0.9085,-0.660064 0.9085,-0.660064 z"
       inkscape:connector-curvature="0" />
    <path
       style="fill:#0000ff;stroke-width:0.26458332"
       id="path438"
       d="m 163.67511,83.157474 c 0.0483,0.154655 0.0945,0.310013 0.14504,0.463963 0.18751,0.57113 0.30767,0.852527 0.45667,1.457653 0.27907,1.133414 0.40283,2.286389 0.52834,3.443991 0.22782,3.188849 0.25481,6.387627 0.27642,9.583182 0.0228,2.398507 0.0116,4.797067 0.008,7.195617 -0.0352,1.79416 0.0505,3.59083 -0.01,5.38436 -0.0141,0.63552 -0.13774,1.2673 -0.1171,1.90329 0.11793,0.59627 0.8513,0.75547 1.35367,0.89103 1.79869,0.28248 3.61893,0.40418 5.43519,0.51135 1.99237,0.10425 3.98788,0.11904 5.9825,0.12822 1.56279,0.005 3.12558,-2.3e-4 4.68837,-0.003 1.06797,-0.003 2.13594,-0.004 3.2039,-0.005 0.94006,-5.3e-4 1.88011,-0.002 2.82016,2.6e-4 1.3483,0.004 2.69661,0.003 4.04491,0.002 1.13056,-7.9e-4 2.26112,-0.002 3.39167,-0.002 0.98999,-2.5e-4 1.97998,-5.3e-4 2.96996,-0.002 0.85264,-0.0251 1.67388,0.24895 2.50665,0.39574 0.79317,0.12427 1.59592,0.15228 2.39716,0.16799 0.6368,-0.0233 1.26722,0.0659 1.89982,0.1219 0.57179,0.0378 1.1342,0.15114 1.70448,0.20705 0.32717,0.0246 0.16575,0.005 0.48433,0.0585 0,0 -0.91714,0.64485 -0.91714,0.64485 v 0 c -0.31386,-0.0452 -0.15395,-0.0268 -0.47983,-0.0545 -0.56854,-0.0608 -1.13043,-0.1731 -1.70166,-0.20737 -0.63016,-0.0578 -1.25892,-0.13622 -1.89329,-0.11734 -0.80396,-0.0206 -1.60931,-0.0527 -2.40432,-0.18407 -0.8275,-0.15115 -1.64562,-0.41407 -2.49508,-0.37976 -0.98814,-0.002 -1.97629,-0.002 -2.96444,-0.002 -1.12921,7.9e-4 -2.25842,-8e-4 -3.38763,-0.002 -1.35006,-0.002 -2.70012,-0.002 -4.05018,0.002 -0.94053,0.002 -1.88106,7.9e-4 -2.8216,7.9e-4 -1.06553,1.7e-4 -2.13107,-2.6e-4 -3.19661,-5.3e-4 -1.55901,2e-5 -3.11803,-3e-5 -4.67703,-0.006 -1.994,-0.0121 -3.98888,-0.0311 -5.98053,-0.13696 -1.82906,-0.11276 -3.66497,-0.22631 -5.47642,-0.51054 -0.55864,-0.15903 -1.29629,-0.35401 -1.43403,-1.00667 -0.0318,-0.64154 0.1047,-1.27896 0.12847,-1.91935 0.087,-1.79666 0.01,-3.59882 0.044,-5.39673 0.002,-2.40086 0.005,-4.80171 0.008,-7.202565 -0.0179,-3.190142 -0.0293,-6.38502 -0.28397,-9.566989 -0.12791,-1.149236 -0.25389,-2.292405 -0.53993,-3.415932 -0.15663,-0.615265 -0.27031,-0.869103 -0.47237,-1.445763 -0.0515,-0.146883 -0.0999,-0.294822 -0.14981,-0.442232 0,0 0.97592,-0.555678 0.97592,-0.555678 z"
       inkscape:connector-curvature="0" />
    <path
       style="fill:#0000ff;stroke-width:0.26458332"
       id="path440"
       d="m 164.53573,83.329927 c 3.0804,0.615506 6.16617,1.216348 9.26411,1.738694 2.86172,0.48714 5.76311,0.685778 8.62935,1.134644 1.80597,0.346906 3.63137,0.541449 5.46592,0.641834 1.47465,0.06724 2.9512,0.06319 4.427,0.06326 1.39236,-0.0035 2.78473,-0.0048 4.1771,-0.005 1.30793,5.29e-4 2.61585,-0.0033 3.92378,-0.0051 0.78421,-0.0019 1.56842,-0.0024 2.35262,-0.0029 0.61131,2.07e-4 1.22262,-0.0011 1.83393,-7.93e-4 0.44148,-0.0027 0.88303,0.0032 1.32448,-0.0027 0,0 -0.91268,0.663104 -0.91268,0.663104 v 0 c -0.43894,-0.0061 -0.87799,8.2e-5 -1.31696,-0.0027 -0.61046,3.5e-5 -1.22092,-0.0011 -1.83138,-0.0011 -0.78153,-5.29e-4 -1.56305,-0.0013 -2.34458,-0.0029 -1.30447,-0.0016 -2.60895,-0.0047 -3.91342,-0.0024 -1.39325,0.0024 -2.7865,0.0065 -4.17975,0.0068 -1.47524,-7.94e-4 -2.95149,0.0011 -4.42531,-0.07206 -1.8325,-0.106926 -3.65519,-0.309684 -5.45864,-0.660096 -2.85501,-0.445958 -5.74164,-0.670713 -8.59064,-1.163357 -3.11883,-0.526084 -6.22077,-1.145955 -9.33892,-1.67699 0,0 0.91399,-0.650234 0.91399,-0.650234 z"
       inkscape:connector-curvature="0" />
    <path
       style="fill:#0000ff;stroke-width:0.26458332"
       id="path450"
       d="m 202.10793,67.534316 c 0.0999,-0.03878 0.20078,-0.07493 0.29959,-0.116332 0.24802,-0.103921 0.96122,-0.482439 0.71739,-0.369033 -0.19382,0.09014 -0.3576,0.250481 -0.56448,0.30426 -0.14193,0.03689 0.24273,-0.164767 0.36107,-0.251386 0.11935,-0.08736 0.23454,-0.180263 0.35181,-0.270394 0.54692,-0.439988 1.069,-0.909865 1.53144,-1.438306 0.36638,-0.407107 0.74751,-0.587743 1.37847,-0.704099 0.13677,-0.02522 0.3148,0.899107 0.32618,0.958197 0.11669,0.689109 0.12067,1.389239 0.18901,2.08304 0,0 -0.98874,0.516054 -0.98874,0.516054 v 0 c -0.0678,-0.691213 -0.063,-1.389218 -0.18038,-2.075831 -0.0539,-0.276381 -0.0657,-0.441251 -0.17804,-0.688866 -0.0271,-0.05969 -0.15154,-0.121026 -0.10444,-0.166598 0.24788,-0.239815 0.58112,-0.371946 0.86442,-0.568658 0.0369,-0.02561 -0.0877,0.02684 -0.12342,0.05415 -0.0579,0.04435 -0.10165,0.104693 -0.15248,0.157041 -0.4607,0.537747 -0.98145,1.015725 -1.53133,1.461886 -0.93647,0.737108 -1.96355,1.38502 -3.0824,1.803464 0,0 0.88633,-0.688586 0.88633,-0.688586 z"
       inkscape:connector-curvature="0" />
    <path
       style="fill:#0000ff;stroke-width:0.26458332"
       id="path454"
       d="m 205.28426,67.139864 c -0.37604,0.848858 -0.72554,1.710537 -1.08299,2.56794 -0.43208,1.002676 -0.86951,2.003092 -1.30332,3.00518 -0.44147,0.833003 -0.87859,1.666444 -1.27304,2.522892 -0.40385,0.979231 -0.80645,1.957379 -1.25654,2.916788 -0.32064,0.706929 -0.6632,1.403167 -0.99256,2.105916 -0.23468,0.519658 -0.4618,1.042641 -0.6846,1.567556 -0.17604,0.472498 -0.37205,0.937281 -0.52306,1.418656 -0.17182,0.459634 -0.21371,0.953241 -0.4454,1.388073 0,0 -1.02522,0.456115 -1.02522,0.456115 v 0 c 0.26365,-0.415803 0.2851,-0.908989 0.45725,-1.365295 0.14601,-0.486645 0.3452,-0.953323 0.52025,-1.429776 0.22032,-0.527963 0.45172,-1.050901 0.68512,-1.573006 0.33397,-0.703498 0.67443,-1.403501 1.0018,-2.110317 0.45671,-0.955096 0.85792,-1.931638 1.25257,-2.913396 0.39121,-0.859602 0.82649,-1.695804 1.28052,-2.523948 0.43596,-0.999706 0.86526,-2.00248 1.30096,-3.002168 0.35511,-0.856158 0.71408,-1.710738 1.06507,-2.568287 0,0 1.02319,-0.462923 1.02319,-0.462923 z"
       inkscape:connector-curvature="0" />
    <path
       style="fill:#0000ff;stroke-width:0.26458332"
       id="path456"
       d="m 196.29141,83.225893 c -0.008,0.828426 -0.006,1.656903 -0.004,2.48535 0.0296,0.830149 0.26006,0.748954 0.95597,0.503566 0.11844,-0.05221 0.23876,-0.100359 0.35532,-0.156623 0.11945,-0.05765 0.23574,-0.121658 0.35231,-0.184928 0.11891,-0.06454 0.4714,-0.265861 0.35407,-0.198477 -1.36938,0.786434 -0.0108,-0.01222 0.22175,-0.150394 0.65626,-0.373441 1.30419,-0.759897 1.97475,-1.106628 0,0 -0.86973,0.698201 -0.86973,0.698201 v 0 c -0.27302,0.14387 -1.37359,0.757248 -0.0701,0.0098 -1.04849,0.621067 -2.07142,1.305041 -3.2001,1.772158 -0.75303,0.214654 -1.04164,0.165632 -1.06606,-0.681265 0.002,-0.827151 0.004,-1.654331 -0.004,-2.481458 0,0 0.99948,-0.509265 0.99948,-0.509265 z"
       inkscape:connector-curvature="0" />
    <path
       style="fill:#0000ff;stroke-width:0.26458332"
       id="path460"
       d="m 185.70862,45.027416 c -0.0104,1.036603 -0.0105,2.07328 -0.009,3.109923 0.003,0.642389 0.002,1.284798 0.007,1.927172 0,0 -0.99822,0.508616 -0.99822,0.508616 v 0 c 0.005,-0.644887 0.005,-1.289807 0.007,-1.934707 0.002,-1.03373 0.002,-2.067499 -0.009,-3.101187 0,0 1.00057,-0.509817 1.00057,-0.509817 z"
       inkscape:connector-curvature="0" />
    <path
       style="fill:#0000ff;stroke-width:0.26458332"
       id="path466"
       d="m 184.78716,45.696444 c 0.47804,-0.969447 1.41669,-1.501122 2.40263,-1.893168 0.62857,-0.191339 1.29915,-0.226015 1.94454,-0.113895 0.69103,0.191516 0.75693,0.56084 0.6114,1.207008 -0.19513,0.537318 -0.64297,0.911182 -1.09933,1.22814 -0.63076,0.404802 -1.29259,0.748903 -1.97134,1.061762 0,0 0.87558,-0.696629 0.87558,-0.696629 v 0 c 0.35661,-0.169233 1.63734,-0.83325 0.0541,0.04286 0.45359,-0.294365 0.90445,-0.6487 1.1319,-1.152734 0.1643,-0.593547 0.13629,-0.888277 -0.51631,-1.048107 -0.63726,-0.09173 -1.29663,-0.05083 -1.90735,0.163618 -0.0949,0.04218 -0.36943,0.186553 -0.28468,0.126529 0.20913,-0.148119 0.42969,-0.282209 0.66081,-0.392927 0.10282,-0.04926 -0.18615,0.132268 -0.27237,0.206843 -0.19993,0.172913 -0.31869,0.306353 -0.46082,0.528384 -0.055,0.08596 -0.097,0.179594 -0.14554,0.269391 0,0 -1.02319,0.462923 -1.02319,0.462923 z"
       inkscape:connector-curvature="0" />
    <path
       style="fill:#0000ff;stroke-width:0.26458332"
       id="path468"
       d="m 191.92379,43.943801 c -0.0664,0.907 -0.14258,1.812108 -0.23478,2.716951 -0.11218,0.638141 -0.31484,1.254498 -0.42355,1.893244 -0.0703,0.477063 -0.0757,0.960009 -0.0798,1.441196 -0.001,0.322744 -0.001,0.161362 -0.001,0.484146 0,0 -0.99867,0.508934 -0.99867,0.508934 v 0 c -2.7e-4,-0.323192 -2.7e-4,-0.161608 -1.1e-4,-0.484749 0.004,-0.486397 0.007,-0.974553 0.0736,-1.457346 0.1007,-0.640924 0.30812,-1.25581 0.43475,-1.891496 0.0959,-0.902499 0.17961,-1.804709 0.22662,-2.711267 0,0 1.00293,-0.499613 1.00293,-0.499613 z"
       inkscape:connector-curvature="0" />
    <path
       style="fill:#0000ff;stroke-width:0.26458332"
       id="path470"
       d="m 191.90257,47.690566 c 0.10068,-0.03031 0.20135,-0.06061 0.30203,-0.09092 0,0 -0.88348,0.683188 -0.88348,0.683188 v 0 c -0.10163,0.03211 -0.20325,0.06421 -0.30488,0.09631 0,0 0.88633,-0.688586 0.88633,-0.688586 z"
       inkscape:connector-curvature="0" />
    <path
       style="fill:#0000ff;stroke-width:0.26458332"
       id="path472"
       d="m 194.52966,44.120143 c -0.25503,0.973709 -0.55101,1.935983 -0.80142,2.910967 -0.16586,0.626669 -0.22143,1.27299 -0.32001,1.911702 -0.0658,0.526791 -0.10456,1.055135 -0.17688,1.581235 0,0 -1.00234,0.493265 -1.00234,0.493265 v 0 c 0.0751,-0.526063 0.11755,-1.053692 0.17513,-1.581753 0.0956,-0.644033 0.16162,-1.294114 0.32382,-1.926217 0.25241,-0.972717 0.55526,-1.931945 0.78828,-2.909506 0,0 1.01342,-0.479693 1.01342,-0.479693 z"
       inkscape:connector-curvature="0" />
    <path
       style="fill:#0000ff;stroke-width:0.26458332"
       id="path476"
       d="m 191.49732,47.472512 c 0.28605,-0.169974 0.58906,-0.306287 0.88988,-0.446881 0.0853,-0.03985 0.3352,-0.170712 0.25455,-0.122187 -1.36054,0.81862 -1.04522,0.611626 -0.77358,0.432178 -1.5e-4,0.02458 0.0145,0.05423 -5.3e-4,0.07374 -0.0628,0.08195 -0.51103,0.237019 -0.61015,0.281779 0,0 0.87881,-0.696868 0.87881,-0.696868 v 0 c 0.13745,-0.0611 0.50419,-0.298418 0.66846,-0.218188 0.0446,0.02178 0.0672,0.07307 0.10079,0.109603 -0.16588,0.401043 -1.76999,0.962608 -2.28528,1.288331 0,0 0.87698,-0.701506 0.87698,-0.701506 z"
       inkscape:connector-curvature="0" />
    <path
       style="fill:#0000ff;stroke-width:0.26458332"
       id="path478"
       d="m 196.81701,44.515283 c -0.16594,0.871508 -0.23727,1.756627 -0.3499,2.635834 -0.0766,0.723109 -0.15357,1.440646 -0.30315,2.152717 -0.10129,0.550415 -0.24302,1.092168 -0.34397,1.642554 -0.0411,0.167759 -0.0883,0.333277 -0.0835,0.506778 0,0 -1.00228,0.518017 -1.00228,0.518017 v 0 c -0.0151,-0.184126 0.0226,-0.357389 0.0781,-0.533855 0.0985,-0.553133 0.24463,-1.095918 0.34768,-1.648241 0.15369,-0.710176 0.23409,-1.424805 0.31162,-2.146855 0.11599,-0.878592 0.1889,-1.762432 0.3382,-2.636372 0,0 1.00719,-0.490577 1.00719,-0.490577 z"
       inkscape:connector-curvature="0" />
    <path
       style="fill:#0000ff;stroke-width:0.26458332"
       id="path480"
       d="m 197.75769,44.451039 c 0.68045,-0.273314 1.38642,-0.462433 2.11126,-0.56656 0.60001,-0.110998 1.18417,-0.03812 1.77112,0.09293 0.6192,0.142031 0.97176,0.600369 1.23032,1.14641 0.27414,0.65396 0.15402,1.083604 -0.28156,1.61857 -0.53253,0.472139 -1.16722,0.776968 -1.7848,1.130507 -0.26231,0.150164 -0.52049,0.27001 -0.80469,0.371205 -0.51368,0.168325 -1.05219,0.179432 -1.58681,0.190537 -0.53612,0.0071 -1.0723,0.0027 -1.60843,2.06e-4 0,0 0.90598,-0.657674 0.90598,-0.657674 v 0 c 0.53504,0.0019 1.07014,0.0071 1.60514,-0.0019 0.52911,-0.01511 1.06145,-0.03924 1.56491,-0.220969 0.28237,-0.112099 0.24686,-0.08932 0.51793,-0.232188 0.0923,-0.04862 0.36284,-0.205597 0.27391,-0.151151 -1.42179,0.870379 -0.38511,0.225737 -0.11246,0.0065 0.44809,-0.488111 0.59774,-0.864788 0.33711,-1.502494 -0.24388,-0.524854 -0.58064,-0.938649 -1.17616,-1.059347 -0.57863,-0.124322 -1.1558,-0.172368 -1.74381,-0.06223 -0.72086,0.114734 -1.4254,0.307997 -2.09826,0.594395 0,0 0.8793,-0.696831 0.8793,-0.696831 z"
       inkscape:connector-curvature="0" />
    <path
       style="fill:#0000ff;stroke-width:0.26458332"
       id="path482"
       d="m 170.02152,41.482406 c -0.0433,1.0682 0.007,2.128547 0.12929,3.189309 0.10491,0.978773 0.24774,1.952681 0.33609,2.9332 0.11523,0.93078 0.19232,1.864987 0.30238,2.796254 0.0903,0.798007 0.31358,1.570186 0.43418,2.364206 0.13502,0.779023 0.25608,1.560988 0.3551,2.34543 0.14989,0.986833 0.22293,1.980089 0.39193,2.963945 0.13262,0.812763 0.25145,1.627359 0.3767,2.441358 0.10692,0.74853 0.11317,1.506379 0.12408,2.260981 0.009,0.677084 0.009,1.35423 0.007,2.031354 0.0256,0.709028 -0.0258,1.413367 -0.0859,2.119027 -0.0404,0.694793 -0.14619,1.382569 -0.21096,2.075135 -0.0274,0.722931 -0.1699,1.431695 -0.29929,2.141011 -0.0827,0.58629 -0.14965,1.168336 -0.28865,1.744765 -0.13946,0.583603 -0.19715,1.181921 -0.28442,1.774656 -0.0938,0.612095 -0.28265,1.20256 -0.4082,1.807633 -0.0532,0.437126 -0.12022,0.861971 -0.27177,1.276456 0,0 -1.01576,0.47144 -1.01576,0.47144 v 0 c 0.16437,-0.406754 0.23513,-0.824354 0.28062,-1.259829 0.11859,-0.605639 0.31626,-1.192385 0.41313,-1.803022 0.0833,-0.59595 0.14753,-1.196036 0.27843,-1.783903 0.14311,-0.574643 0.21601,-1.153022 0.29279,-1.739474 0.13056,-0.706572 0.2817,-1.412364 0.30598,-2.133208 0.0635,-0.692581 0.16527,-1.380392 0.21138,-2.074503 0.0608,-0.70263 0.11474,-1.403704 0.0885,-2.109819 -2.7e-4,-0.677206 0.003,-1.354429 -0.002,-2.031622 -0.0103,-0.749519 -0.0184,-1.501865 -0.12063,-2.245751 -0.12044,-0.815054 -0.23941,-1.629992 -0.36734,-2.443827 -0.16797,-0.985139 -0.24768,-1.978334 -0.39824,-2.966143 -0.0986,-0.783429 -0.22237,-1.563867 -0.3563,-2.341959 -0.11639,-0.796391 -0.34216,-1.569546 -0.43245,-2.368929 -0.11019,-0.932516 -0.18515,-1.868135 -0.30206,-2.799984 -0.0868,-0.98025 -0.23073,-1.953432 -0.3318,-2.932203 -0.12282,-1.062228 -0.17377,-2.123509 -0.14951,-3.193272 0,0 0.9984,-0.508712 0.9984,-0.508712 z"
       inkscape:connector-curvature="0" />
    <path
       style="fill:#0000ff;stroke-width:0.26458332"
       id="path484"
       d="m 170.5543,78.361124 c 0.92225,-0.09619 1.8375,-0.271886 2.74287,-0.471282 0.79328,-0.19236 1.55582,-0.487224 2.34595,-0.689551 0.68007,-0.21816 1.38246,-0.260954 2.09025,-0.289801 0.87511,-0.0299 1.75083,-0.03328 2.62637,-0.03418 0.68713,2.65e-4 1.37427,7.94e-4 2.0614,0.0021 0.64161,5.29e-4 1.28323,-2.64e-4 1.92484,2.65e-4 0.63718,1.58e-4 1.27436,-0.0011 1.91154,2.64e-4 0.85592,-0.03568 1.69955,0.134239 2.54659,0.235056 0.66747,0.117192 1.33413,0.233828 2.00933,0.295685 0.49514,0.03624 0.99189,0.03673 1.48806,0.03749 0,0 -0.90708,0.65862 -0.90708,0.65862 v 0 c -0.49804,-0.0021 -0.99677,-0.0039 -1.49338,-0.04668 -0.67212,-0.06963 -1.3355,-0.192352 -2.0015,-0.304358 -0.84543,-0.103463 -1.68943,-0.259514 -2.54428,-0.220276 -0.6375,0.0013 -1.27499,2.32e-4 -1.91248,2.64e-4 -0.64138,5.29e-4 -1.28277,-2.64e-4 -1.92415,-0.0011 -0.68658,-1.64e-4 -1.37316,-0.0021 -2.05973,-0.003 -0.87289,2.65e-4 -1.74606,7.94e-4 -2.61844,0.03461 -0.70665,0.03612 -1.40607,0.09974 -2.08479,0.314817 -0.78428,0.208487 -1.54589,0.494575 -2.33755,0.677453 -0.91368,0.196908 -1.83538,0.372176 -2.76491,0.473379 0,0 0.90109,-0.670036 0.90109,-0.670036 z"
       inkscape:connector-curvature="0" />
    <path
       style="fill:#0000ff;stroke-width:0.26458332"
       id="path486"
       d="m 171.69193,41.158062 c 1.11023,-0.0058 2.21721,4.2e-5 3.32437,0.08779 1.20505,0.123248 2.41238,0.213688 3.62263,0.263387 0.79388,0.03036 1.58842,0.0306 2.38274,0.03257 0.90928,2.04e-4 1.81854,7.94e-4 2.72782,-0.0016 0.7976,-5.29e-4 1.5952,-0.0024 2.3928,-7.93e-4 0.91975,0.0021 1.83949,-2.65e-4 2.75923,2.38e-4 0.83938,2.64e-4 1.67876,-4.8e-5 2.51814,-0.0011 0.63134,-0.0011 1.26267,-5.29e-4 1.89401,-0.0013 0.70928,0.0013 1.41855,0.0013 2.12783,0.0013 0.71243,-8.4e-5 1.42485,-2.64e-4 2.13728,-2.64e-4 0.59441,-2.65e-4 1.18882,-0.0019 1.78322,-7.94e-4 0.60241,5.29e-4 1.20481,-4e-5 1.80721,-2e-6 0.56257,1.13e-4 1.12514,-4.3e-5 1.68771,-5.3e-4 0.51866,-5.29e-4 1.03731,-7.9e-5 1.55596,7.94e-4 0.58767,7.94e-4 1.17533,-0.0011 1.76299,-2.2e-4 0.38375,1.6e-5 0.19379,7.7e-5 0.56987,-1.74e-4 0,0 -0.90521,0.657675 -0.90521,0.657675 v 0 c -0.37558,-2.52e-4 -0.18578,-1.91e-4 -0.56939,-1.75e-4 -0.58746,7.94e-4 -1.17492,-0.0011 -1.76238,-2.2e-4 -0.51933,7.94e-4 -1.03865,0.0013 -1.55797,7.94e-4 -0.56208,-5.29e-4 -1.12415,-5.29e-4 -1.68622,-5.29e-4 -0.6024,3.7e-5 -1.20479,-5.29e-4 -1.80719,-3e-6 -0.59357,7.94e-4 -1.18714,-5.29e-4 -1.78071,-7.93e-4 -0.71214,5.5e-5 -1.42428,-2.23e-4 -2.13643,-2.65e-4 -0.71042,2.4e-5 -1.42084,-3.4e-5 -2.13127,0.0013 -0.6302,-5.29e-4 -1.26041,-1.54e-4 -1.89061,-0.0013 -0.83831,-0.0011 -1.67661,-0.0016 -2.51492,-0.0011 -0.91997,5.29e-4 -1.83994,-0.0019 -2.75991,2.64e-4 -0.79756,0.0019 -1.59512,2.46e-4 -2.39267,7.94e-4 -0.90975,-0.0011 -1.81947,0.0016 -2.72921,0.0024 -0.79382,-2.25e-4 -1.58792,-0.004 -2.38109,-0.03959 -1.20781,-0.05663 -2.41257,-0.151432 -3.61563,-0.272756 -1.11281,-0.08137 -2.22614,-0.08118 -3.3415,-0.06504 0,0 0.9085,-0.660064 0.9085,-0.660064 z"
       inkscape:connector-curvature="0" />
    <path
       style="fill:#0000ff;stroke-width:0.26458332"
       id="path488"
       d="m 191.72467,77.0658 c 0.71115,0.0046 1.42232,0.0024 2.13347,0.0021 0.55328,-0.0011 1.10656,-0.0011 1.65984,-0.0016 0.40831,5.29e-4 0.81664,-2.65e-4 1.22495,-3.5e-5 0,0 -0.90674,0.658789 -0.90674,0.658789 v 0 c -0.40829,2.64e-4 -0.81658,-5.29e-4 -1.22487,-3.5e-5 -0.55185,-5.29e-4 -1.10371,-5.29e-4 -1.65556,-0.0016 -0.7132,-2.46e-4 -1.42641,-0.0024 -2.13959,0.0021 0,0 0.9085,-0.660064 0.9085,-0.660064 z"
       inkscape:connector-curvature="0" />
    <path
       style="fill:#00ff00;stroke-width:0.26458332"
       id="path490"
       d="m 9.926998,61.272988 c 0.30971,-0.130551 0.555023,-0.229129 0.860333,-0.379735 0.163351,-0.08058 0.310425,-0.197816 0.483488,-0.254614 0.150792,-0.04949 -0.529818,0.342506 -0.415586,0.232331 0.144894,-0.139751 0.343298,-0.210598 0.510022,-0.323414 0.180688,-0.122264 0.354526,-0.254357 0.531789,-0.381537 0.927516,-0.695756 1.68357,-1.578298 2.233529,-2.595697 0.394037,-0.745927 0.57689,-1.569993 0.854634,-2.359258 0.128516,-0.343548 0.246169,-0.690851 0.355697,-1.040805 0.02073,-0.06623 0.0026,-0.164907 0.06348,-0.198292 0.352482,-0.193418 0.74593,-0.300339 1.118895,-0.450508 0.467853,0.655775 0.647458,1.568989 0.847812,2.342459 0.175222,0.715272 0.462636,1.395889 0.602372,2.119797 0.09293,0.561239 0.102103,1.131162 0.10472,1.698593 -0.01341,0.652949 0.03708,1.309198 -0.04519,1.957993 -0.171976,0.893032 -0.640775,1.413759 -1.364114,1.91842 -1.019142,0.635267 -2.05834,1.221735 -3.228786,1.500727 -0.391077,0.0986 -0.792757,0.09746 -1.192546,0.10006 0,0 0.901596,-0.656569 0.901596,-0.656569 v 0 c 0.39433,-0.0062 0.789348,-0.01579 1.173591,-0.118356 0.408544,-0.106614 0.790441,-0.230351 1.175331,-0.406101 0.125475,-0.05729 0.477966,-0.269237 0.37238,-0.180477 -0.180512,0.151746 -0.408397,0.237114 -0.601231,0.372858 -0.114257,0.08043 0.243213,-0.137625 0.364819,-0.206441 0.722812,-0.473673 1.21225,-0.95395 1.39793,-1.831221 0.0959,-0.642331 0.0349,-1.295037 0.05118,-1.942938 -0.006,-0.561121 -0.0083,-1.124765 -0.09586,-1.680565 -0.134519,-0.723344 -0.414492,-1.40486 -0.590206,-2.118206 -0.186474,-0.730803 -0.368628,-1.653863 -0.821284,-2.263405 0.281614,-0.211111 0.538058,-0.460827 0.844843,-0.63333 0.06052,-0.03403 -0.04752,0.130519 -0.06839,0.196736 -0.110846,0.3517 -0.219197,0.704488 -0.355665,1.047668 -0.292852,0.789898 -0.465649,1.623163 -0.856377,2.376972 -0.532785,1.036973 -1.298724,1.931656 -2.221584,2.645494 -1.199292,0.88001 -2.492976,1.642592 -3.8726501,2.204175 0,0 0.8810381,-0.692814 0.8810381,-0.692814 z"
       inkscape:connector-curvature="0" />
    <path
       style="fill:#00ff00;stroke-width:0.26458332"
       id="path492"
       d="m 26.741972,54.641643 c -0.960428,-0.09677 -1.926169,-0.123552 -2.89064,-0.146277 -0.645309,-0.0064 -1.304004,-0.02384 -1.937922,0.119105 -0.294931,0.06651 -0.542407,0.161202 -0.827371,0.2599 0.236424,-0.189241 -0.973381,0.479232 -0.727647,0.36436 0.219177,-0.102457 0.411414,-0.264332 0.641138,-0.340243 0.105081,-0.03472 -0.177531,0.133583 -0.254976,0.212637 -0.220937,0.225534 -0.217892,0.291622 -0.349481,0.584179 -0.03422,0.120013 -0.08893,0.236003 -0.102664,0.360043 -0.102406,0.924623 0.705688,1.594212 1.314787,2.14803 0.821162,0.684345 1.806145,1.111456 2.712446,1.664618 0.912291,0.529574 1.51509,1.387232 1.963752,2.319184 0.270485,0.803455 0.40904,1.37709 -0.234422,2.012762 -1.094127,0.743852 -1.435786,0.844137 -2.603119,0.876419 -0.545449,-0.0504 -1.090636,-0.108243 -1.620248,-0.251013 -0.525689,-0.145298 -0.97453,-0.458652 -1.47041,-0.669694 0,0 0.932778,-0.620546 0.932778,-0.620546 v 0 c 0.486385,0.218974 0.936369,0.518255 1.458425,0.65614 0.524362,0.129167 1.0638,0.191402 1.60242,0.224629 0.37869,-0.01386 0.769512,-0.02056 1.13526,-0.132366 0.0837,-0.02559 0.316051,-0.145574 0.245018,-0.09443 -0.226603,0.163155 -0.477691,0.289285 -0.716537,0.433927 0.69099,-0.567314 0.564779,-1.096954 0.307894,-1.889614 -0.438455,-0.916752 -1.030676,-1.749486 -1.930148,-2.264648 -0.914683,-0.549709 -1.89899,-0.991799 -2.719764,-1.685523 -0.638517,-0.585528 -1.45522,-1.28392 -1.383294,-2.248842 0.0095,-0.127987 0.06418,-0.248534 0.09628,-0.372798 0.04538,-0.118806 0.07765,-0.243493 0.136149,-0.356415 0.09569,-0.184695 0.268661,-0.385024 0.443322,-0.499403 0.634797,-0.415701 1.287082,-0.839174 1.99961,-1.11297 0.31459,-0.103664 0.511832,-0.179263 0.83722,-0.244401 0.639515,-0.128021 1.299219,-0.109535 1.947509,-0.100642 0.970982,0.025 1.94267,0.05545 2.91033,0.143962 0,0 -0.915693,0.64993 -0.915693,0.64993 z"
       inkscape:connector-curvature="0" />
    <path
       style="fill:#00ff00;stroke-width:0.26458332"
       id="path494"
       d="m 12.964046,47.01705 c 0.853153,0.0051 1.706334,0.0042 2.559499,0.003 0.726548,-5.3e-4 1.453097,-5.3e-4 2.179645,-0.0016 0.68135,-0.0011 1.362696,0.0011 2.044045,0.0013 0.768338,-7.7e-5 1.536676,-1.1e-5 2.305014,-5.29e-4 0.640328,-5.29e-4 1.280656,-5.29e-4 1.920983,-0.0011 0.553253,9.2e-5 1.106505,-5.1e-5 1.659758,-7.94e-4 0.50544,2.19e-4 1.010877,2.64e-4 1.516316,-1.4e-4 0.07667,0.009 0.153331,0.01797 0.229997,0.02696 0,0 -0.913961,0.650238 -0.913961,0.650238 v 0 c -0.07434,-0.0061 -0.14867,-0.01217 -0.223006,-0.01826 -0.50531,-5.29e-4 -1.010619,-2.64e-4 -1.515929,-1.4e-4 -0.552622,-5.29e-4 -1.105244,-7.94e-4 -1.657866,-7.94e-4 -0.639298,-5.29e-4 -1.278596,-5.29e-4 -1.917894,-0.0011 -0.76779,-5.29e-4 -1.535581,-5.29e-4 -2.303371,-5.29e-4 -0.682566,2.09e-4 -1.36513,0.0024 -2.047698,0.0013 -0.725078,-0.0011 -1.450158,-0.0011 -2.175237,-0.0016 -0.855935,-0.0011 -1.711887,-0.0021 -2.56781,0.003 0,0 0.907515,-0.65935 0.907515,-0.65935 z"
       inkscape:connector-curvature="0" />
    <path
       style="fill:#00ff00;stroke-width:0.26458332"
       id="path498"
       d="m 14.286962,72.152467 c 0.797332,0.0049 1.594688,0.003 2.39203,0.0026 0.62613,-2.65e-4 1.252258,-0.0013 1.878388,-0.0019 0.493984,-2.65e-4 0.987971,-0.0011 1.481954,6.6e-5 0.554139,5.29e-4 1.108279,-5.3e-4 1.662418,2.64e-4 0.590292,3.5e-5 1.180583,5.29e-4 1.770876,-2.48e-4 0.511369,-1.49e-4 1.022737,-2.65e-4 1.534107,-5.3e-4 0.505574,-5.29e-4 1.011149,1.41e-4 1.516725,5.3e-4 0.532995,-7.94e-4 1.065993,-6.9e-5 1.598991,-1.06e-4 0.593603,0.0011 1.187212,5.29e-4 1.780818,-4.8e-5 0.493096,-8.5e-5 0.986197,-7.94e-4 1.479293,-5.29e-4 0.473586,-2.65e-4 0.947169,6.9e-5 1.420752,-1.17e-4 0.460703,-5.29e-4 0.921403,-5.29e-4 1.382104,5.3e-4 0.358031,5.29e-4 0.714375,0.01198 1.070469,-0.02707 0,0 -0.900485,0.666811 -0.900485,0.666811 v 0 c -0.358209,0.02609 -0.71642,0.01802 -1.075494,0.01815 -0.461238,0.0011 -0.922475,0.0011 -1.383713,5.29e-4 -0.473477,-1.88e-4 -0.946952,1.98e-4 -1.420429,-1.19e-4 -0.49268,2.64e-4 -0.985361,-2.65e-4 -1.478042,-5.29e-4 -0.593561,-5.3e-4 -1.187121,-0.0011 -1.780682,-4.8e-5 -0.532903,-3.7e-5 -1.065805,5.29e-4 -1.598707,-1.03e-4 -0.506086,5.29e-4 -1.012171,0.0011 -1.518257,5.29e-4 -0.510933,-8.2e-5 -1.021866,-2.65e-4 -1.532799,-5.29e-4 -0.590064,-7.94e-4 -1.180126,-2.65e-4 -1.77019,-2.49e-4 -0.55443,7.94e-4 -1.108862,-2.38e-4 -1.663294,2.65e-4 -0.494043,0.0011 -0.98809,5.29e-4 -1.482134,6.6e-5 -0.624419,-5.29e-4 -1.248837,-0.0016 -1.873256,-0.0019 -0.799651,-5.29e-4 -1.599317,-0.0024 -2.398958,0.0026 0,0 0.907515,-0.65935 0.907515,-0.65935 z"
       inkscape:connector-curvature="0" />
    <path
       style="fill:#808000;stroke-width:0.26458332"
       id="path530"
       d="m 12.344006,24.297976 c -0.274809,0.888171 -0.535259,1.780236 -0.763501,2.681565 -0.235419,0.777375 -0.47158,1.555049 -0.688628,2.337813 -0.161383,0.520618 -0.33135,1.038564 -0.450078,1.570924 -0.07195,0.399931 -0.08016,0.803251 -0.181488,1.19752 0,0 -1.0128082,0.481928 -1.0128082,0.481928 v 0 c 0.1171382,-0.390303 0.1214368,-0.791448 0.1852525,-1.192374 0.1147186,-0.535553 0.2812568,-1.057378 0.4502533,-1.577895 0.2177174,-0.783889 0.4596544,-1.5615 0.6978564,-2.339287 0.225816,-0.89992 0.486625,-1.789535 0.751992,-2.678453 0,0 1.011149,-0.481741 1.011149,-0.481741 z"
       inkscape:connector-curvature="0" />
    <path
       style="fill:#808000;stroke-width:0.26458332"
       id="path532"
       d="m 11.241039,28.873836 c 0.722371,0.005 1.44476,0.0026 2.16714,0.0021 0.105456,-1.3e-4 0.210912,-2.6e-4 0.316369,-2.65e-4 0,0 -0.903603,0.656505 -0.903603,0.656505 v 0 c -0.105098,-1.29e-4 -0.210197,-2.62e-4 -0.315295,-2.64e-4 -0.72437,-5.29e-4 -1.44875,-0.0028 -2.173111,0.0021 0,0 0.9085,-0.660064 0.9085,-0.660064 z"
       inkscape:connector-curvature="0" />
    <path
       style="fill:#808000;stroke-width:0.26458332"
       id="path534"
       d="m 15.745791,24.86494 c -0.206409,0.846924 -0.400122,1.693715 -0.660113,2.526232 -0.197279,0.614066 -0.402131,1.224155 -0.574361,1.846008 -0.138727,0.532845 -0.346957,1.033087 -0.578565,1.530567 -0.261746,0.542729 -0.444222,1.118428 -0.70664,1.660718 -0.03736,0.07611 -0.07471,0.152226 -0.112068,0.228336 0,0 -1.020279,0.462462 -1.020279,0.462462 v 0 c 0.03758,-0.0764 0.07516,-0.152802 0.112735,-0.229203 0.274104,-0.536874 0.451777,-1.113808 0.708847,-1.658435 0.228747,-0.494374 0.44842,-0.984157 0.586399,-1.513726 0.170858,-0.62539 0.374154,-1.238305 0.57937,-1.852922 0.263375,-0.828437 0.46639,-1.66951 0.653526,-2.518296 0,0 1.011149,-0.481741 1.011149,-0.481741 z"
       inkscape:connector-curvature="0" />
    <path
       style="fill:#808000;stroke-width:0.26458332"
       id="path536"
       d="m 20.115169,26.895618 c -0.142783,0.841147 -0.371717,1.655625 -0.654596,2.459066 -0.25316,0.580893 -0.503527,1.165202 -0.775701,1.737882 0,0 -1.019217,0.462565 -1.019217,0.462565 v 0 c 0.281398,-0.567534 0.517377,-1.157962 0.788525,-1.730266 0.286167,-0.796158 0.527478,-1.60169 0.64975,-2.441546 0,0 1.011239,-0.487701 1.011239,-0.487701 z"
       inkscape:connector-curvature="0" />
    <path
       style="fill:#808000;stroke-width:0.26458332"
       id="path538"
       d="m 17.31401,26.6335 c 1.077272,0.151937 2.155563,0.02466 3.226238,-0.111744 0.777079,-0.06435 1.52497,-0.273269 2.250305,-0.548559 0,0 -0.879135,0.687735 -0.879135,0.687735 v 0 c -0.72769,0.263766 -1.479201,0.451948 -2.252905,0.518319 -1.082262,0.132242 -2.170107,0.248227 -3.258494,0.104484 0,0 0.913991,-0.650235 0.913991,-0.650235 z"
       inkscape:connector-curvature="0" />
    <path
       style="fill:#808000;stroke-width:0.26458332"
       id="path552"
       d="m 24.312243,26.718453 c -0.01882,0.868693 0.01739,1.738251 -0.02598,2.606148 -0.02628,0.686308 -0.118303,1.35785 -0.277691,2.024637 0,0 -1.006391,0.483251 -1.006391,0.483251 v 0 c 0.159729,-0.661977 0.264958,-1.326134 0.291339,-2.008735 0.04947,-0.864217 0.01795,-1.730762 0.01924,-2.596036 0,0 0.999487,-0.509265 0.999487,-0.509265 z"
       inkscape:connector-curvature="0" />
    <path
       style="fill:#808000;stroke-width:0.26458332"
       id="path554"
       d="m 24.636095,26.58569 c 0.618401,0.555895 1.09417,1.266883 1.51261,1.981459 0.259912,0.309595 0.353623,0.928291 0.695486,1.16435 0.04528,0.03126 0.104878,0.03332 0.157318,0.04998 0.05729,-0.01651 0.117965,-0.02402 0.171866,-0.04949 0.05924,-0.028 0.222498,-0.13761 0.163547,-0.109019 -0.258564,0.1254 -0.490922,0.309536 -0.763657,0.400063 -0.09413,0.03124 0.141169,-0.139668 0.205801,-0.214899 0.176033,-0.204894 0.260543,-0.344713 0.413155,-0.570471 0.408773,-0.607208 0.758222,-1.259425 1.217245,-1.831263 0.3596,-0.207791 0.682085,-0.500473 1.078804,-0.623377 0.08982,-0.02783 0.103806,0.15871 0.136496,0.246877 0.201176,0.54261 0.08025,1.139926 -0.0021,1.689521 -0.160197,0.855263 -0.432469,1.682575 -0.620649,2.531001 0,0 -1.004533,0.484614 -1.004533,0.484614 v 0 c 0.186928,-0.84899 0.4636,-1.674585 0.631968,-2.528335 0.07105,-0.458322 0.150627,-0.879618 0.07897,-1.342157 -0.0145,-0.09353 -0.03444,-0.186341 -0.0591,-0.277714 -0.0098,-0.03624 -0.07344,-0.08063 -0.04385,-0.103725 0.25794,-0.201351 0.55731,-0.343077 0.835967,-0.514615 -0.484267,0.550418 -0.82,1.216949 -1.228611,1.822337 -0.588791,0.905994 -0.616601,0.857292 -1.75123,1.535869 -0.173327,0.103658 -0.200249,0.07777 -0.394976,0.07857 -0.06124,-0.03136 -0.130045,-0.05103 -0.183714,-0.09408 -0.359646,-0.288483 -0.424433,-0.836403 -0.698163,-1.187103 -0.40754,-0.707425 -0.876015,-1.411909 -1.501293,-1.944447 0,0 0.952728,-0.593942 0.952728,-0.593942 z"
       inkscape:connector-curvature="0" />
    <path
       style="fill:#808000;stroke-width:0.26458332"
       id="path556"
       d="m 31.999901,27.111216 c -0.374335,1.051891 -0.693528,2.123091 -0.974894,3.203334 -0.212082,0.828532 -0.261419,1.226437 0.571923,1.610001 0.523716,0.189603 1.064736,0.182517 1.608828,0.12165 0.07329,-0.02077 0.146587,-0.04155 0.21988,-0.06233 0,0 -0.891096,0.681008 -0.891096,0.681008 v 0 c -0.07569,0.01603 -0.151371,0.03209 -0.227055,0.04814 -0.558747,0.05257 -1.115123,0.03979 -1.644229,-0.172971 -0.87911,-0.453993 -0.863211,-0.840248 -0.636625,-1.748613 0.283811,-1.07705 0.603039,-2.145374 0.959851,-3.200522 0,0 1.013417,-0.479692 1.013417,-0.479692 z"
       inkscape:connector-curvature="0" />
  </g>
</svg>
