<?xml version="1.0" encoding="UTF-8" standalone="no"?>
<!-- Created with Inkscape (http://www.inkscape.org/) -->

<svg
   xmlns:dc="http://purl.org/dc/elements/1.1/"
   xmlns:cc="http://creativecommons.org/ns#"
   xmlns:rdf="http://www.w3.org/1999/02/22-rdf-syntax-ns#"
   xmlns:svg="http://www.w3.org/2000/svg"
   xmlns="http://www.w3.org/2000/svg"
   xmlns:sodipodi="http://sodipodi.sourceforge.net/DTD/sodipodi-0.dtd"
   xmlns:inkscape="http://www.inkscape.org/namespaces/inkscape"
   width="210mm"
   height="297mm"
   viewBox="0 0 210 297"
   version="1.1"
   id="svg8"
   inkscape:version="0.92.5 (2060ec1f9f, 2020-04-08)"
   sodipodi:docname="mysqlserver.svg">
  <defs
     id="defs2" />
  <sodipodi:namedview
     id="base"
     pagecolor="#ffffff"
     bordercolor="#666666"
     borderopacity="1.0"
     inkscape:pageopacity="0.0"
     inkscape:pageshadow="2"
     inkscape:zoom="2.3623795"
     inkscape:cx="380.70012"
     inkscape:cy="954.2982"
     inkscape:document-units="mm"
     inkscape:current-layer="layer1"
     showgrid="false"
     inkscape:window-width="1920"
     inkscape:window-height="1020"
     inkscape:window-x="0"
     inkscape:window-y="0"
     inkscape:window-maximized="1" />
  <metadata
     id="metadata5">
    <rdf:RDF>
      <cc:Work
         rdf:about="">
        <dc:format>image/svg+xml</dc:format>
        <dc:type
           rdf:resource="http://purl.org/dc/dcmitype/StillImage" />
        <dc:title></dc:title>
      </cc:Work>
    </rdf:RDF>
  </metadata>
  <g
     inkscape:label="Ebene 1"
     inkscape:groupmode="layer"
     id="layer1">
    <text
       xml:space="preserve"
       style="font-style:normal;font-weight:normal;font-size:4.23333311px;line-height:1.25;font-family:sans-serif;letter-spacing:0px;word-spacing:0px;fill:#000000;fill-opacity:1;stroke:none;stroke-width:0.26458332"
       x="34.210499"
       y="18.772421"
       id="text12"><tspan
         sodipodi:role="line"
         id="tspan10"
         x="34.210499"
         y="18.772421"
         style="stroke-width:0.26458332">MYSQL</tspan></text>
    <path
       style="fill:#000080;stroke-width:0.26458332"
       id="path18"
       d="m 56.709055,15.034669 c -0.0081,-0.145058 -0.0028,-0.291504 -0.02442,-0.435176 C 56.475796,13.21068 55.811544,11.82003 55.086255,10.636032 54.818229,10.198491 54.514987,9.7835205 54.229354,9.3572649 53.498569,8.4376979 52.955142,7.6686666 52.05872,6.8908426 51.030539,5.9986904 49.836665,5.2766547 48.609173,4.699047 46.787016,3.8416132 45.864449,3.6374877 43.935284,3.0491789 40.841633,2.2819372 37.640633,1.7620892 34.442172,1.9726453 32.62943,2.0919788 32.369871,2.2376977 30.66298,2.6718826 30.12949,2.8978627 29.584822,3.0990841 29.062513,3.3498229 28.775511,3.4875993 28.502795,3.655532 28.23991,3.8350949 26.879846,4.7640798 25.641337,5.8631282 24.668829,7.2022977 24.34021,7.6548156 24.076515,8.1510951 23.780357,8.6254938 c -0.556054,1.246215 -0.899561,1.8537152 -1.206637,3.1965472 -0.385258,1.684715 -0.338243,3.467657 0.100528,5.139082 0.149742,0.570418 0.391909,1.112476 0.587863,1.668714 0.295707,0.526619 0.548796,1.079552 0.887122,1.579858 1.520025,2.247767 3.79115,3.948958 6.153954,5.224993 0.55727,0.300954 1.142343,0.547306 1.713515,0.82096 0.581271,0.203212 1.152348,0.438349 1.743816,0.609635 1.261256,0.365258 2.540466,0.571207 3.842271,0.723757 1.185863,0.138965 2.96863,0.256948 4.164042,0.296548 0.693909,0.02299 1.388456,0.01839 2.082683,0.02758 2.773159,-0.01458 5.577036,-0.332208 8.219033,-1.211845 0.35375,-0.117779 0.696928,-0.265215 1.045392,-0.397823 0.289743,-0.147464 0.588775,-0.277952 0.869233,-0.442393 0.04063,-0.02382 0.04754,-0.0829 0.0818,-0.115224 0.188113,-0.177489 0.39742,-0.331833 0.58297,-0.511999 0.433877,-0.421286 0.762889,-0.893777 1.077023,-1.405219 0.24379,-0.414683 0.449707,-0.847368 0.578736,-1.310683 0,0 0.710708,-0.338727 0.710708,-0.338727 v 0 c -0.125013,0.473345 -0.334915,0.913003 -0.581091,1.336115 -0.237794,0.3917 -0.320299,0.555976 -0.6223,0.92411 -0.874371,1.065847 -2.035897,1.756193 -3.281132,2.321338 -0.346681,0.128828 -0.68833,0.272102 -1.04004,0.386482 -2.639251,0.858319 -5.434277,1.165344 -8.198739,1.170408 -0.694902,-0.0098 -1.390139,-0.0057 -2.084702,-0.02953 -1.165149,-0.03993 -3.015602,-0.164489 -4.170352,-0.299863 -1.308775,-0.153432 -2.590102,-0.35928 -3.857231,-0.72975 -0.592489,-0.173228 -1.163899,-0.411765 -1.745848,-0.617648 -0.570238,-0.276823 -1.154197,-0.527003 -1.710716,-0.830466 -2.352154,-1.282602 -4.662653,-3.010023 -6.182993,-5.24951 -0.341505,-0.503045 -0.596745,-1.059535 -0.895117,-1.589303 -0.198499,-0.559324 -0.443752,-1.104196 -0.595495,-1.677973 -0.44392,-1.678569 -0.496943,-3.474863 -0.116042,-5.16891 0.301893,-1.34266 0.647448,-1.964216 1.197028,-3.2120195 0.294457,-0.4773173 0.556077,-0.9765231 0.88337,-1.4319519 1.435594,-1.9976267 3.428924,-3.4679742 5.60549,-4.5696809 0.516247,-0.2613078 1.068583,-0.4441861 1.602875,-0.6662792 0.592722,-0.1467119 1.177078,-0.3327266 1.778166,-0.4401357 2.968416,-0.5304291 6.076458,-0.2502486 9.017704,0.3083965 0.82886,0.157429 1.645412,0.373873 2.468118,0.5608096 1.918473,0.5855089 2.880114,0.8041767 4.696219,1.6515136 1.234109,0.5757958 2.448944,1.3012065 3.484274,2.1946198 0.889027,0.7671649 1.458347,1.5649834 2.183416,2.4735919 0.288851,0.4267343 0.594744,0.8424143 0.866547,1.2802028 0.740096,1.192051 1.408856,2.573063 1.659705,3.96723 0.02572,0.142938 0.02635,0.28927 0.03952,0.433904 0,0 -0.705977,0.359713 -0.705977,0.359713 z"
       inkscape:connector-curvature="0" />
    <path
       style="fill:#000080;stroke-width:0.26458332"
       id="path20"
       d="m 54.854416,17.069071 c 2.228726,0.0492 4.456459,-0.0081 6.683894,-0.0795 1.168987,-0.03935 2.338043,-0.07668 3.507091,-0.114216 0,0 -0.60417,0.441654 -0.60417,0.441654 v 0 c -1.163072,0.03049 -2.326101,0.06255 -3.488936,0.101166 -2.246374,0.07032 -4.492673,0.11839 -6.740285,0.117633 0,0 0.642406,-0.466736 0.642406,-0.466736 z"
       inkscape:connector-curvature="0" />
    <path
       style="fill:#000080;stroke-width:0.26458332"
       id="path22"
       d="m 53.39635,18.746024 c 1.929551,0.324246 3.891516,0.36657 5.842873,0.421476 1.880968,0.04231 3.762449,0.05196 5.643825,0.05182 0,0 -0.615799,0.447009 -0.615799,0.447009 v 0 c -1.872602,-0.01594 -3.745209,-0.03551 -5.617528,-0.07291 -1.970114,-0.04923 -3.948668,-0.08973 -5.89915,-0.399443 0,0 0.645779,-0.447945 0.645779,-0.447945 z"
       inkscape:connector-curvature="0" />
    <path
       style="fill:#000080;stroke-width:0.26458332"
       id="path24"
       d="m 54.672602,15.888804 c -0.762568,0.271149 -1.515819,0.574301 -2.256853,0.90025 -0.78114,0.423321 0.07531,-0.06071 0.118875,-0.08053 0.07729,-0.03517 -0.142423,0.09264 -0.211612,0.14188 -0.170344,0.121234 -0.313184,0.256095 -0.456318,0.407238 -0.364956,0.432409 -0.209373,0.546916 0.08573,0.980948 0.609889,0.830602 1.24374,1.642079 1.911104,2.427179 0.101137,0.115432 0.202274,0.230865 0.303414,0.346297 0,0 -0.6653,0.401363 -0.6653,0.401363 v 0 C 53.401227,21.297152 53.300815,21.180875 53.2004,21.064597 52.534566,20.274394 51.89846,19.461294 51.276525,18.636111 50.961149,18.185768 50.767961,18.039419 51.13637,17.563498 c 0.515062,-0.57009 1.205034,-0.925775 1.891318,-1.258712 0.74621,-0.322898 1.502019,-0.626447 2.266416,-0.903364 0,0 -0.621499,0.487384 -0.621499,0.487384 z"
       inkscape:connector-curvature="0" />
    <path
       style="fill:#000080;stroke-width:0.26458332"
       id="path26"
       d="m 64.889525,15.313796 c 0.664226,0.413117 1.361821,0.767806 2.051018,1.136244 0.447006,0.256965 0.897975,0.526783 1.264796,0.893 0.369551,0.494658 0.0067,0.873813 -0.354532,1.232316 -0.781438,0.686475 -1.722802,1.138496 -2.622081,1.645485 -0.558345,0.295491 -1.101217,0.618344 -1.656138,0.920018 0,0 0.610864,-0.492184 0.610864,-0.492184 v 0 c 0.552924,-0.302098 1.096042,-0.62158 1.652106,-0.918022 0.11742,-0.06562 0.234331,-0.132151 0.352259,-0.196847 0.116482,-0.0639 0.250912,-0.276366 0.350948,-0.188936 0.09856,0.08614 -0.208161,0.220321 -0.337568,0.200628 -0.121465,-0.01848 0.205329,-0.135044 0.306035,-0.205427 0.275146,-0.192297 0.354428,-0.259677 0.620501,-0.466971 0.314486,-0.291204 0.739603,-0.683944 0.402855,-1.116389 -0.361572,-0.359286 -0.805876,-0.623994 -1.243902,-0.879218 -0.691031,-0.373435 -1.390658,-0.732024 -2.06457,-1.136364 0,0 0.667409,-0.427333 0.667409,-0.427333 z"
       inkscape:connector-curvature="0" />
    <text
       xml:space="preserve"
       style="font-style:normal;font-weight:normal;font-size:4.23333311px;line-height:1.25;font-family:sans-serif;letter-spacing:0px;word-spacing:0px;fill:#000000;fill-opacity:1;stroke:none;stroke-width:0.26458332"
       x="69.140778"
       y="19.481197"
       id="text30"><tspan
         sodipodi:role="line"
         id="tspan28"
         x="69.140778"
         y="19.481197"
         style="stroke-width:0.26458332">3306</tspan></text>
    <text
       xml:space="preserve"
       style="font-style:normal;font-weight:normal;font-size:4.23333311px;line-height:1.25;font-family:sans-serif;letter-spacing:0px;word-spacing:0px;fill:#000000;fill-opacity:1;stroke:none;stroke-width:0.26458332"
       x="31.404167"
       y="50.042957"
       id="text34"><tspan
         sodipodi:role="line"
         id="tspan32"
         x="31.404167"
         y="50.042957"
         style="stroke-width:0.26458332">APACHE</tspan></text>
    <path
       style="fill:#000080;stroke-width:0.26458332"
       id="path36"
       d="M 52.404557,46.395243 C 52.248453,44.893018 51.85974,43.43197 51.370166,42.007726 51.037738,41.161491 50.69891,40.28546 50.115284,39.572882 c -0.295595,-0.360905 -0.483632,-0.486246 -0.841393,-0.780849 -0.959422,-0.74958 -2.129978,-1.030973 -3.28481,-1.323692 -1.146969,-0.305824 -2.330437,-0.371679 -3.510423,-0.412271 -1.695082,-0.0366 -3.39076,-0.02875 -5.08613,-0.02775 -1.909649,-0.0323 -3.814057,0.153906 -5.703475,0.413385 -1.946532,0.324192 -3.863861,0.806683 -5.742801,1.406157 -1.075613,0.375129 -2.124952,0.819468 -3.130498,1.355299 -0.247644,0.131964 -0.462071,0.318556 -0.695282,0.474615 -0.729814,0.530657 -1.444257,1.095658 -2.07379,1.745001 -0.337272,0.347888 -0.455542,0.520335 -0.757542,0.905555 -0.584886,0.886048 -1.151566,1.855968 -1.355776,2.914317 -0.04759,0.246655 -0.05829,0.499017 -0.08744,0.748527 0.01418,1.599235 0.505732,3.157779 1.22312,4.577353 0.149147,0.295132 0.321011,0.578223 0.481517,0.867333 1.16379,1.913983 2.996769,3.223392 4.82916,4.440955 1.402409,0.82958 2.891431,1.532786 4.452956,2.008137 0.303554,0.09241 0.612291,0.166838 0.918435,0.250256 1.887363,0.406903 3.804312,0.67663 5.722856,0.887158 1.012753,0.09652 2.029407,0.142944 3.045965,0.17457 0.6423,0.01998 1.307293,0.04301 1.950236,0.0065 0.298571,-0.01693 0.595352,-0.05727 0.893029,-0.08591 0.798619,-0.126574 1.601478,-0.265716 2.371921,-0.518687 0.829008,-0.272198 1.610876,-0.655079 2.392902,-1.036677 1.106234,-0.573378 2.143763,-1.275029 3.146023,-2.013609 0.826437,-0.589248 1.561626,-1.289637 2.238081,-2.043387 0.190799,-0.211384 0.384469,-0.419651 0.57067,-0.63509 0,0 0.726498,-0.30742 0.726498,-0.30742 v 0 c -0.186563,0.218819 -0.383032,0.427832 -0.577519,0.63966 -0.677032,0.761616 -1.41573,1.468853 -2.245736,2.063625 -1.403437,1.042432 -2.898616,1.958835 -4.448511,2.767436 -0.786069,0.379804 -1.571567,0.760071 -2.404869,1.02847 -0.771777,0.248581 -1.575462,0.383432 -2.374895,0.504166 -0.298146,0.02663 -0.595493,0.06467 -0.894437,0.07989 -0.636903,0.03243 -1.312037,0.0072 -1.94776,-0.01333 -1.019317,-0.03288 -2.038873,-0.07725 -3.054355,-0.17527 -1.920459,-0.21444 -3.840109,-0.485606 -5.728779,-0.897412 -0.307129,-0.08457 -0.616966,-0.159856 -0.921383,-0.253709 -1.563518,-0.482044 -3.057282,-1.188317 -4.458377,-2.027975 -1.834688,-1.232189 -3.679537,-2.548533 -4.850743,-4.469403 -0.160913,-0.291041 -0.332925,-0.576215 -0.482739,-0.873122 -0.721417,-1.429724 -1.223489,-2.996872 -1.255048,-4.606446 0.02577,-0.252476 0.03212,-0.507693 0.0773,-0.757425 0.192972,-1.066525 0.76473,-2.043224 1.341009,-2.940384 0.289298,-0.375774 0.426554,-0.575902 0.752511,-0.915659 0.629114,-0.655746 1.34875,-1.222896 2.078107,-1.760887 1.593687,-1.077653 3.294235,-1.966121 5.126021,-2.566244 1.882167,-0.594198 3.801809,-1.077021 5.750761,-1.39601 1.892224,-0.255598 3.798549,-0.439531 5.710468,-0.406006 1.699765,-0.0024 3.399846,-0.01236 5.099365,0.02148 1.184762,0.04089 2.372151,0.109178 3.52203,0.42423 1.164368,0.297064 2.342142,0.58891 3.305326,1.350928 0.363037,0.301935 0.552466,0.429361 0.852014,0.798886 0.58457,0.721138 0.918109,1.607661 1.252426,2.460546 0.489738,1.425567 0.875001,2.886876 1.07148,4.384098 0,0 -0.698407,0.368432 -0.698407,0.368432 z"
       inkscape:connector-curvature="0" />
    <path
       style="fill:#000080;stroke-width:0.26458332"
       id="path38"
       d="m 53.257894,48.20825 c 2.295972,0.01905 4.592055,0.01945 6.888088,0.01683 1.584217,-0.0032 3.168431,-0.0083 4.752642,-0.01405 0.124465,-5.3e-4 0.24893,-0.0011 0.373396,-0.0016 0,0 -0.632492,0.459531 -0.632492,0.459531 v 0 c -0.123113,-5.29e-4 -0.246229,-0.0011 -0.369345,-0.0016 -1.571324,-0.0057 -3.14265,-0.01082 -4.713981,-0.01405 -2.311485,-0.0026 -4.623019,-0.0021 -6.934443,0.01683 0,0 0.636135,-0.46218 0.636135,-0.46218 z"
       inkscape:connector-curvature="0" />
    <path
       style="fill:#000080;stroke-width:0.26458332"
       id="path40"
       d="m 51.531474,50.096316 c 1.578428,0.09963 3.161607,0.100986 4.742572,0.11606 2.378421,0.02045 4.756967,0.01741 7.135439,0.0093 0.645877,-0.0016 1.291741,-0.0057 1.937618,-0.0071 0,0 -0.632849,0.459835 -0.632849,0.459835 v 0 c -0.639675,-7.94e-4 -1.279342,-0.0046 -1.919015,-0.0065 -2.372653,-0.01021 -4.745315,-0.01807 -7.117987,-0.0226 -1.59739,-0.0093 -3.196389,-0.0066 -4.792067,-0.08917 0,0 0.646289,-0.459787 0.646289,-0.459787 z"
       inkscape:connector-curvature="0" />
    <path
       style="fill:#000080;stroke-width:0.26458332"
       id="path42"
       d="m 52.882328,47.414949 c -0.706736,0.311579 -1.424686,0.583862 -2.160645,0.817682 -0.291717,0.122785 -0.610786,0.173254 -0.906246,0.283175 -0.06792,0.02527 -0.258918,0.130183 -0.195448,0.09521 0.586873,-0.323392 0.629275,-0.482632 0.51748,-0.205055 0.01535,0.03169 0.02424,0.06742 0.04604,0.09507 0.208733,0.264716 0.791557,0.616024 1.074473,0.815036 0.626256,0.407704 1.112742,0.950627 1.567807,1.534245 0.07207,0.09471 0.144127,0.189428 0.216189,0.284141 0,0 -0.672796,0.399772 -0.672796,0.399772 v 0 c -0.07155,-0.09459 -0.143108,-0.189185 -0.214659,-0.283776 -0.451242,-0.576921 -0.935993,-1.112531 -1.557195,-1.513642 -0.287388,-0.201615 -0.900922,-0.568415 -1.104466,-0.842745 -0.03181,-0.04288 -0.04818,-0.09529 -0.07228,-0.142939 0.0053,-0.04534 -0.02008,-0.108135 0.01606,-0.136025 0.619723,-0.478157 1.184214,-0.648504 1.902828,-0.861094 0.738052,-0.235511 1.458275,-0.512138 2.162974,-0.835094 0,0 -0.620123,0.496038 -0.620123,0.496038 z"
       inkscape:connector-curvature="0" />
    <path
       style="fill:#000080;stroke-width:0.26458332"
       id="path44"
       d="m 63.549849,46.947399 c 0.648756,0.28779 1.317652,0.524449 1.966828,0.811382 0.751337,0.411821 1.528638,0.767384 2.3114,1.113731 0.08342,0.05348 0.181465,0.08912 0.250267,0.160433 0.432472,0.448252 -0.614286,1.102784 -0.88237,1.312222 -0.717542,0.521701 -1.442892,1.0325 -2.164701,1.548273 -0.286875,0.19013 -0.573699,0.380312 -0.861105,0.56964 0,0 -0.735357,0.287089 -0.735357,0.287089 v 0 c 0.289743,-0.189222 0.576305,-0.383212 0.868191,-0.569188 0.725294,-0.514688 1.450475,-1.029586 2.17302,-1.548143 0.194447,-0.149751 1.022932,-0.723339 1.019281,-1.002556 -0.0024,-0.185494 -0.198311,-0.248494 -0.318606,-0.324959 -0.780884,-0.349213 -1.553716,-0.712687 -2.309265,-1.1147 -0.652896,-0.284686 -1.323364,-0.524402 -1.978335,-0.804161 0,0 0.660752,-0.439063 0.660752,-0.439063 z"
       inkscape:connector-curvature="0" />
    <text
       xml:space="preserve"
       style="font-style:normal;font-weight:normal;font-size:4.23333311px;line-height:1.25;font-family:sans-serif;letter-spacing:0px;word-spacing:0px;fill:#000000;fill-opacity:1;stroke:none;stroke-width:0.26458332"
       x="70.559151"
       y="50.844761"
       id="text48"><tspan
         sodipodi:role="line"
         id="tspan46"
         x="70.559151"
         y="50.844761"
         style="stroke-width:0.26458332">80/443</tspan></text>
    <path
       style="fill:#000080;stroke-width:0.26458332"
       id="path50"
       d="m 112.4267,47.051785 c -0.0887,-0.08151 -0.18593,-0.154676 -0.2662,-0.244536 -0.2514,-0.281432 -0.66235,-0.856485 -0.86653,-1.143161 -0.46586,-0.654085 -0.89888,-1.319329 -1.31059,-2.008405 -0.30128,-0.531029 -0.61545,-1.053142 -0.79291,-1.641734 -0.0578,-0.19163 -0.12683,-0.384051 -0.14079,-0.583716 -0.0382,-0.546677 0.10051,-0.995717 0.21541,-1.522066 0.12241,-0.257728 0.18959,-0.549912 0.36723,-0.773186 0.5763,-0.724342 1.54704,-1.278657 2.32152,-1.70832 0.72025,-0.399576 1.44949,-0.784592 2.19497,-1.134845 0.97818,-0.459579 2.16176,-0.854102 3.18265,-1.216822 1.80035,-0.57649 3.64419,-1.061886 5.53907,-1.149834 0.18002,0.0058 0.36036,0.0053 0.54006,0.01754 0.38485,0.02609 0.65155,0.06553 1.02597,0.15375 0.0667,0.01572 0.75133,0.214122 0.84518,0.229063 0.11122,0.0177 0.22509,0.0084 0.33764,0.01265 0.0872,-0.04549 0.33676,-0.07293 0.26167,-0.136472 -0.11624,-0.09836 -0.40669,0.116152 -0.45595,-0.02792 -0.0918,-0.268329 0.11818,-0.555064 0.1607,-0.835443 0.12032,-0.79326 0.18348,-1.594405 0.30013,-2.388213 0.0585,-0.398331 0.13158,-0.794393 0.19738,-1.191591 0.22336,-0.958194 0.36089,-2.001676 0.98041,-2.810878 0.97547,-1.274136 2.78599,-1.979928 4.13572,-2.669683 2.03656,-0.855863 4.10655,-1.691802 6.2805,-2.132415 0.4929,-0.0999 0.98897,-0.191994 1.48964,-0.239567 0.57659,-0.05479 1.15752,-0.04464 1.73628,-0.06695 3.80081,0.08778 7.59251,0.399093 11.38411,0.663954 1.36165,0.07849 2.42656,-0.244425 3.61251,-0.878534 0.78095,-0.417559 0.60336,-0.244442 0.90571,-0.582614 1.23873,-0.844836 2.42731,-1.758335 3.79285,-2.401137 0.85124,-0.400706 1.74731,-0.554071 2.65632,-0.771142 1.95914,-0.320571 3.93452,-0.605971 5.91766,-0.731269 1.0839,-0.06848 2.19128,-0.14661 3.24436,0.217338 0.46332,0.160125 0.86182,0.467429 1.29273,0.701144 0.35836,0.401332 0.77776,0.75557 1.0751,1.203995 1.10712,1.66967 1.50202,3.827898 1.92237,5.746447 0.14119,0.644422 0.23742,1.29914 0.40437,1.937375 0.16976,0.648988 0.40301,1.279689 0.60452,1.919533 0.44191,0.688597 0.7921,1.445559 1.32574,2.06579 1.5131,1.758638 3.7823,3.351843 5.66421,4.609873 3.19125,2.133298 6.57664,3.95311 9.95251,5.769676 1.26964,0.661257 2.83309,1.444048 4.08255,2.198682 0.79325,0.479094 1.54411,0.982049 2.20738,1.631699 0.58368,0.571703 0.63748,0.753578 1.02756,1.415965 0.60989,1.513358 0.44425,3.153137 0.27004,4.734774 -0.0768,0.318048 -0.10995,0.649954 -0.23046,0.954143 -0.83323,2.103118 -2.55113,3.717166 -4.19224,5.191702 -1.68736,1.516078 -3.13257,2.580053 -4.91657,3.955807 -2.03883,1.45774 -4.03364,2.999351 -6.20131,4.266795 -1.50651,0.880864 -1.46217,0.839684 -2.78956,1.522952 -2.13691,1.03981 -4.36887,1.861653 -6.54206,2.818982 0.0166,0.01976 0.0602,0.03571 0.0498,0.05934 -0.0837,0.190085 -0.26108,0.337632 -0.31296,0.538724 -0.22559,0.874485 0.67025,2.032116 1.10517,2.719424 0.31939,0.548151 0.59893,0.860341 0.58026,1.545847 -0.027,0.992645 -0.47432,1.729795 -1.07755,2.505345 -1.13252,1.456018 -1.83707,1.864894 -3.3036,3.035421 -2.52667,1.735683 -5.27272,3.127227 -8.15181,4.175686 -1.58701,0.57793 -3.75454,1.235843 -5.43725,1.477523 -0.95184,0.136708 -1.91855,0.133792 -2.87782,0.200687 -1.00903,-0.0827 -2.02442,-0.107969 -3.02708,-0.248113 -1.78164,-0.249029 -4.07178,-0.823463 -5.8044,-1.349367 -1.43298,-0.434957 -2.84827,-0.948092 -4.19626,-1.604754 -0.50183,-0.244459 -0.97613,-0.541797 -1.4642,-0.812696 -1.60541,-0.996501 -2.84695,-2.426343 -4.17543,-3.742902 -0.65499,-0.649116 -1.01775,-0.98738 -1.67111,-1.607592 -0.54939,-0.494097 -1.08785,-1.001925 -1.65199,-1.479521 -0.1324,-0.112096 -0.25951,-0.232101 -0.40404,-0.32806 -0.51093,-0.339225 -0.71173,-0.348123 -1.34,-0.552363 -0.40197,-0.0755 -0.80113,-0.167976 -1.20592,-0.226499 -1.09676,-0.15857 -2.33509,-0.237757 -3.43264,-0.329512 -1.8025,-0.150688 -3.5964,-0.326951 -5.39165,-0.547047 -1.23791,-0.169786 -2.46919,-0.399727 -3.59187,-0.973516 -0.38428,-0.196397 -0.7482,-0.430551 -1.11572,-0.656751 -0.79646,-0.490204 -1.57641,-1.006753 -2.36676,-1.506755 -1.26226,-0.816546 -2.58215,-1.566558 -3.66137,-2.628881 -0.49411,-0.486376 -1.00152,-1.110814 -1.44862,-1.639758 -1.34531,-1.639091 -2.56296,-3.375533 -3.87514,-5.040355 -0.84919,-1.148408 -2.02287,-2.140619 -2.54234,-3.507631 -0.0835,-0.219755 -0.12691,-0.452715 -0.19037,-0.679072 -0.005,-0.22787 -0.033,-0.456517 -0.0136,-0.683606 0.0885,-1.03749 0.71886,-1.645756 1.48586,-2.251478 0.68013,-0.424063 1.28763,-0.922387 1.82508,-1.514895 0.4802,-0.551461 1.04683,-1.015738 1.5077,-1.584108 0.29868,-0.378802 0.3603,-0.849231 0.48167,-1.299136 0.13666,-0.43543 0.34143,-0.83122 0.64463,-1.17167 0.057,-0.0552 0.11399,-0.110395 0.17098,-0.16559 0,0 0.72976,-0.300051 0.72976,-0.300051 v 0 c -0.0576,0.05362 -0.1153,0.107233 -0.17295,0.160851 -0.31261,0.325284 -0.51624,0.708451 -0.65837,1.136685 -0.13026,0.455303 -0.17928,0.939159 -0.47385,1.330539 -0.45558,0.576053 -1.02361,1.040191 -1.50933,1.58959 -0.53355,0.600665 -1.13315,1.113428 -1.82394,1.529485 -0.76347,0.583478 -1.42005,1.169932 -1.52567,2.191425 -0.0229,0.221064 0.002,0.444484 0.003,0.666726 0.0611,0.222438 0.10243,0.451294 0.18337,0.667311 0.51056,1.362638 1.67248,2.360176 2.51497,3.504617 1.31137,1.664394 2.53811,3.393038 3.87552,5.03718 0.4647,0.550397 0.92803,1.125186 1.44361,1.630405 1.07654,1.054912 2.39002,1.805374 3.64052,2.627937 0.067,0.04252 2.31791,1.470424 2.36955,1.501672 0.36821,0.222776 0.73499,0.449752 1.11932,0.643392 1.11454,0.561568 2.3295,0.802 3.55611,0.973482 1.79194,0.225795 3.58119,0.404442 5.38154,0.550447 1.0526,0.08537 2.40475,0.170143 3.46328,0.316899 0.412,0.05712 0.81845,0.148865 1.22767,0.223298 0.65084,0.209669 0.84568,0.212508 1.37139,0.565957 0.14444,0.09711 0.27077,0.218866 0.40239,0.332756 0.55778,0.482679 1.08802,0.997212 1.63163,1.495401 0.57397,0.554596 1.09117,1.050346 1.65921,1.617213 1.31798,1.315246 2.56213,2.730322 4.15029,3.734937 0.48153,0.272476 0.94922,0.57099 1.44457,0.817425 1.33992,0.666594 2.72315,1.181219 4.15355,1.621714 1.76291,0.54289 3.97039,1.097145 5.78939,1.345228 1.0031,0.136809 2.01868,0.156949 3.02803,0.235421 0.95878,-0.07051 1.92509,-0.07242 2.87634,-0.211539 1.67987,-0.245684 3.83976,-0.901507 5.42417,-1.481148 1.20526,-0.440936 3.54467,-1.419805 4.75631,-2.10021 0.77824,-0.43702 1.51048,-0.951336 2.26572,-1.427004 1.46867,-1.167362 2.13944,-1.54764 3.2732,-2.996533 0.58717,-0.750382 1.03415,-1.473607 1.06611,-2.438021 0.0223,-0.671643 -0.25594,-0.981954 -0.56879,-1.520926 -0.45327,-0.715351 -1.35335,-1.879229 -1.15141,-2.787568 0.17171,-0.772385 0.96823,-1.000236 1.55642,-1.380373 2.17118,-0.944412 4.39656,-1.764663 6.52328,-2.810095 0.51183,-0.264776 1.03582,-0.507738 1.53314,-0.798859 2.19294,-1.283719 4.23013,-2.814161 6.29114,-4.294132 1.79776,-1.38072 3.22203,-2.421504 4.91827,-3.948528 1.61109,-1.450366 3.29251,-3.044597 4.10793,-5.111432 0.11871,-0.300895 0.15291,-0.6286 0.22936,-0.942899 0.17275,-1.565581 0.34001,-3.188324 -0.251,-4.690316 -0.37685,-0.657159 -0.42694,-0.835263 -0.99573,-1.405903 -0.64737,-0.649475 -1.38699,-1.159624 -2.16344,-1.643473 -1.26229,-0.786609 -2.72696,-1.540047 -4.02289,-2.235901 -3.35489,-1.844079 -6.72617,-3.684574 -9.92293,-5.797481 -1.88888,-1.248463 -4.21494,-2.840278 -5.74937,-4.585504 -0.5446,-0.619421 -0.90387,-1.379895 -1.35581,-2.069843 -0.2032,-0.641607 -0.43982,-1.273572 -0.60961,-1.924818 -0.16647,-0.63854 -0.25787,-1.294395 -0.39781,-1.939271 -0.41438,-1.909514 -0.81458,-4.047521 -1.9281,-5.702119 -0.29611,-0.439998 -0.7123,-0.785972 -1.06845,-1.178959 -0.42566,-0.227977 -0.82004,-0.527819 -1.27698,-0.683932 -1.04053,-0.3555 -2.14464,-0.281609 -3.21478,-0.215251 -1.98726,0.123226 -3.9673,0.408609 -5.92681,0.751064 -1.9025,0.474791 -1.07687,0.206558 -2.67204,0.806868 -0.0654,0.0246 -0.13543,0.03989 -0.19535,0.07579 -0.80222,0.480739 -1.52508,1.07564 -2.31097,1.580783 -1.20931,0.753431 -2.46497,1.662224 -3.87571,2.010137 -0.82417,0.203255 -1.07683,0.149311 -1.9406,0.15175 -3.78082,-0.297313 -7.56453,-0.625736 -11.35869,-0.671977 -0.58044,0.02708 -1.16318,0.02293 -1.74131,0.08123 -0.49953,0.05037 -0.99446,0.143259 -1.48626,0.244251 -2.16696,0.444989 -4.23342,1.273758 -6.26117,2.13648 -0.31706,0.136328 -0.64873,0.242738 -0.95118,0.408985 -0.69821,0.383792 -1.44112,0.872999 -1.9455,1.512887 -0.6295,0.798629 -0.77691,1.839158 -1.00418,2.793465 -0.22304,1.324409 -0.19745,1.07251 -0.35591,2.421949 -0.045,0.382936 -0.0748,0.767627 -0.1242,1.150014 -0.0366,0.282985 0.0121,0.60021 -0.13366,0.845513 -0.42544,0.715986 -0.61823,0.744908 -1.14859,0.94248 -0.11454,-0.0092 -0.23056,-0.0071 -0.34362,-0.02764 -0.28472,-0.05169 -0.55565,-0.163127 -0.83774,-0.227674 -0.50937,-0.116555 -1.02927,-0.163066 -1.55135,-0.159118 -1.87435,0.09344 -3.70103,0.560861 -5.48227,1.13415 -1.70207,0.604991 -1.43939,0.484224 -3.17091,1.218279 -0.9279,0.393372 -1.48957,0.648081 -2.35969,1.273757 -0.33206,0.23877 -0.65728,0.499409 -0.91653,0.815731 -0.17794,0.217107 -0.24763,0.503849 -0.37144,0.755775 -0.11378,0.504126 -0.25719,0.961443 -0.22226,1.486556 0.0131,0.196763 0.0813,0.386382 0.13782,0.575315 0.17455,0.583772 0.48151,1.106025 0.7771,1.634249 0.40822,0.68851 0.83605,1.353815 1.30517,2.00301 0.23863,0.330232 0.58887,0.810125 0.87819,1.117484 0.0822,0.08729 0.18067,0.157596 0.27101,0.236392 0,0 -0.66964,0.420618 -0.66964,0.420618 z"
       inkscape:connector-curvature="0" />
    <text
       xml:space="preserve"
       style="font-style:normal;font-weight:normal;font-size:4.23333311px;line-height:1.25;font-family:sans-serif;letter-spacing:0px;word-spacing:0px;fill:#000000;fill-opacity:1;stroke:none;stroke-width:0.26458332"
       x="130.56116"
       y="46.301182"
       id="text54"><tspan
         sodipodi:role="line"
         id="tspan52"
         x="130.56116"
         y="46.301182"
         style="stroke-width:0.26458332">Clients, Hosts,</tspan><tspan
         sodipodi:role="line"
         x="130.56116"
         y="51.59285"
         style="stroke-width:0.26458332"
         id="tspan56">jedes Device mit einer</tspan><tspan
         sodipodi:role="line"
         x="130.56116"
         y="56.884514"
         style="stroke-width:0.26458332"
         id="tspan58">öffentlichen IP Adresse</tspan></text>
    <path
       style="fill:#000080;stroke-width:0.26458332"
       id="path60"
       d="m 108.32395,62.64766 c -0.58191,0.248153 -1.18739,0.432115 -1.80668,0.557779 -1.11613,0.221361 -2.23812,0.399055 -3.36895,0.524758 -1.36314,0.137248 -2.73381,0.15494 -4.102543,0.165598 -1.639273,0.007 -3.278568,0.0044 -4.917852,0.0034 -1.230874,-0.003 -2.458239,-0.08564 -3.678071,-0.246351 C 89.452287,63.473152 88.46749,63.228505 87.481838,62.993293 86.639772,62.762211 85.807983,62.495689 84.963475,62.27355 84.250685,62.028813 83.531632,61.804348 82.801795,61.615777 82.080215,61.459461 81.391161,61.18797 80.680429,60.991032 79.839435,60.796635 79.025712,60.503191 78.223707,60.187718 77.692892,59.990423 77.151121,59.82464 76.616697,59.637591 76.133025,59.48922 75.66811,59.274241 75.221086,59.03801 74.810436,58.820989 74.433839,58.547621 74.03312,58.314076 73.652337,58.051371 73.274819,57.78342 72.905876,57.504266 72.56768,57.248575 72.220205,57.00592 71.87911,56.754275 c -0.250359,-0.214937 -0.500229,-0.429699 -0.739741,-0.656788 0,0 0.673685,-0.415766 0.673685,-0.415766 v 0 c 0.239445,0.222564 0.486439,0.436239 0.734764,0.648805 0.341439,0.251241 0.686387,0.497481 1.025496,0.751944 0.366953,0.277095 0.741584,0.544462 1.122426,0.802097 0.39756,0.236424 0.775536,0.505447 1.185582,0.720929 0.445463,0.232648 0.906661,0.444841 1.388356,0.590254 0.534408,0.184258 1.073263,0.356266 1.601565,0.557762 0.799446,0.317371 1.613728,0.599933 2.452232,0.796534 0.709843,0.199276 1.401117,0.462798 2.121617,0.622961 0.729094,0.191739 1.448102,0.415862 2.161818,0.65817 0.842259,0.22692 1.672744,0.494525 2.515677,0.719217 0.981808,0.236037 1.961803,0.487328 2.957835,0.656643 1.21457,0.15576 2.436138,0.242239 3.661246,0.246316 1.639681,0.0019 3.279399,0.0061 4.919051,-0.0053 1.368601,-0.01569 2.739311,-0.03441 4.102061,-0.174958 1.134,-0.129424 2.25901,-0.312444 3.3775,-0.540364 0.6189,-0.134424 1.22558,-0.320736 1.80543,-0.577861 0,0 -0.62176,0.492734 -0.62176,0.492734 z"
       inkscape:connector-curvature="0" />
    <path
       style="fill:#000080;stroke-width:0.26458332"
       id="path62"
       d="m 71.7258,59.204642 c -0.527439,-0.722172 -1.023163,-1.465733 -1.503559,-2.219706 -0.415266,-0.582607 -0.721788,-1.226256 -1.063172,-1.850945 -0.03019,-0.05858 -0.142518,-0.259549 -0.156644,-0.341964 -0.01318,-0.07693 0.0114,-0.18361 0.08878,-0.224766 0.829845,-0.44133 0.56972,-0.427947 1.080384,-0.382439 0.506569,0.07035 1.003001,0.188436 1.512038,0.245139 0.729089,0.0986 1.46286,0.145661 2.197603,0.172368 0.656648,0.01913 1.313614,0.02162 1.970489,0.02246 0,0 -0.634029,0.460312 -0.634029,0.460312 v 0 c -0.656428,-0.0037 -1.312944,-0.0074 -1.969145,-0.02662 -0.738,-0.02716 -1.474176,-0.07961 -2.207051,-0.173104 -0.508077,-0.0601 -1.004157,-0.182793 -1.51216,-0.240136 -0.0705,-0.0026 -0.255482,0.04723 -0.2115,-0.0079 0.130855,-0.164116 0.345091,-0.239377 0.511104,-0.367816 0.01196,-0.0093 -0.141391,0.02384 -0.132771,0.137615 0.0055,0.073 0.124275,0.291692 0.14583,0.33497 0.33732,0.624801 0.637215,1.269947 1.050193,1.852224 0.47844,0.753208 0.970158,1.498655 1.515737,2.205543 0,0 -0.682125,0.404807 -0.682125,0.404807 z"
       inkscape:connector-curvature="0" />
    <path
       style="fill:#000080;stroke-width:0.26458332"
       id="path64"
       d="m 125.12929,25.757811 c -0.053,-1.107703 -0.56324,-2.109527 -1.06591,-3.073471 -0.78175,-1.37213 -1.62135,-2.711915 -2.4837,-4.034696 -1.03275,-1.510494 -2.13538,-2.972873 -3.23926,-4.431892 -1.00089,-1.273217 -2.05788,-2.539921 -3.35547,-3.525215 -0.23028,-0.174867 -0.47507,-0.329772 -0.71261,-0.494658 -1.4387,-0.8974339 -2.97048,-1.6294391 -4.51608,-2.32077 -1.57381,-0.6178526 -3.1501,-1.2380722 -4.75315,-1.7772798 C 103.16483,5.535763 101.27058,5.1703914 99.380954,4.8249263 97.468292,4.4940659 95.546113,4.2231241 93.624436,3.9511401 92.230735,3.7729792 90.83654,3.5978277 89.43624,3.4798177 88.171156,3.3807238 86.901702,3.3702926 85.633509,3.3608735 c -1.586778,-0.00662 -3.173577,-0.00422 -4.760362,-0.00298 -1.729389,0.00291 -3.453668,0.1178873 -5.169895,0.3243075 -1.588267,0.1856613 -3.146735,0.5333862 -4.699217,0.9059217 -1.096,0.3186382 -2.208287,0.5861886 -3.293433,0.9410062 -0.754925,0.2395641 -1.513356,0.467214 -2.250519,0.7581728 -0.651566,0.2564072 -1.289331,0.545003 -1.92817,0.8311015 -0.42613,0.1741032 -0.844116,0.3643926 -1.251685,0.5783635 -0.110247,0.057878 -0.412435,0.2688611 -0.329491,0.1759929 0.08835,-0.098925 0.231137,-0.1301776 0.346705,-0.1952664 -0.501661,0.2982224 -1.009777,0.5854618 -1.516071,0.8756694 -0.141174,0.080921 0.279247,-0.1675233 0.423572,-0.24268 0.07797,-0.040602 -0.149469,0.092574 -0.224203,0.1388605 0,0 -0.734256,0.2848014 -0.734256,0.2848014 v 0 c 0.500981,-0.3158426 0.242472,-0.1568376 1.145543,-0.6744448 0.134569,-0.07713 -0.268841,0.1548257 -0.401532,0.2351434 -0.190606,0.1153731 0.794906,-0.4634233 0.577469,-0.3366032 0.837893,-0.4859499 1.67159,-0.9774674 2.578275,-1.3269021 0.639005,-0.2852441 1.277149,-0.5727536 1.929304,-0.8271444 0.73795,-0.2842439 1.494608,-0.5123283 2.248289,-0.7505781 1.084638,-0.3463534 2.192406,-0.6177328 3.287395,-0.9288114 1.550953,-0.370002 3.109159,-0.7083044 4.695351,-0.8920202 1.719588,-0.2047459 3.446876,-0.3184533 5.179412,-0.3202164 1.588715,-0.00111 3.177437,-0.00455 4.766152,-5.292e-4 1.269891,0.00723 2.541137,0.017812 3.807539,0.1229579 1.398653,0.122821 2.792709,0.2925027 4.18411,0.4794899 1.918454,0.2780011 3.837514,0.5540816 5.74802,0.8833133 1.894569,0.3471674 3.795769,0.7092129 5.638339,1.2769027 1.60338,0.5415489 3.18015,1.163103 4.7532,1.7858567 1.55089,0.6905721 3.08732,1.4246133 4.52563,2.3315951 0.23812,0.1670082 0.48358,0.3240083 0.71435,0.5010243 1.29684,0.994752 2.35413,2.266189 3.35924,3.54291 1.11265,1.454922 2.21266,2.922057 3.25069,4.431332 0.86832,1.321825 1.70444,2.666798 2.48995,4.039497 0.51387,0.972173 1.02645,1.974623 1.11359,3.090407 0,0 -0.70751,0.360495 -0.70751,0.360495 z"
       inkscape:connector-curvature="0" />
    <path
       style="fill:#000080;stroke-width:0.26458332"
       id="path66"
       d="m 59.688928,7.4060097 c -0.751473,0.8457472 -1.395564,1.7913527 -1.870464,2.8185333 -0.01945,0.11862 -0.06956,0.236187 -0.05831,0.355861 0.05924,0.629992 1.393066,0.343011 1.725366,0.290409 1.22509,-0.241459 2.422303,-0.59156 3.623009,-0.9283975 0.185909,-0.053383 0.371816,-0.1067652 0.557725,-0.1601478 0,0 -0.610576,0.4701403 -0.610576,0.4701403 v 0 c -0.185333,0.05279 -0.370668,0.105589 -0.556003,0.158384 -1.202127,0.338676 -2.402517,0.685146 -3.63034,0.922143 -0.426892,0.06295 -1.725488,0.327261 -1.811134,-0.40834 -0.01474,-0.126598 0.03688,-0.252225 0.05532,-0.378337 0.471014,-1.0298642 1.115975,-1.9723582 1.844757,-2.8376042 0,0 0.730647,-0.3026441 0.730647,-0.3026441 z"
       inkscape:connector-curvature="0" />
    <text
       xml:space="preserve"
       style="font-style:normal;font-weight:normal;font-size:4.23333311px;line-height:1.25;font-family:sans-serif;letter-spacing:0px;word-spacing:0px;fill:#000000;fill-opacity:1;stroke:none;stroke-width:0.26458332"
       x="33.275051"
       y="41.089428"
       id="text78"><tspan
         sodipodi:role="line"
         id="tspan76"
         x="33.275051"
         y="41.089428"
         style="stroke-width:0.26458332">PHP</tspan></text>
    <path
       style="fill:#000080;stroke-width:0.26458332"
       id="path90"
       d="m 42.457658,38.317506 c 0.844267,-0.01656 1.692735,0.04601 2.536224,-0.0078 0.284665,-0.01818 0.567574,-0.05758 0.851363,-0.08637 1.223039,-0.156626 2.443663,-0.338521 3.647782,-0.607497 0.633351,-0.141478 1.229449,-0.306387 1.856216,-0.472858 1.020164,-0.284186 2.048869,-0.541996 3.045494,-0.903827 0.556945,-0.202203 0.700752,-0.275712 1.236525,-0.511262 0.553405,-0.261687 0.50932,-0.22782 1.029898,-0.523698 0.07735,-0.04396 -0.301241,0.184899 -0.236294,0.124095 0.120629,-0.112938 0.273635,-0.185497 0.406633,-0.28357 0.344273,-0.253876 0.389549,-0.304988 0.699506,-0.577953 0.539726,-0.51121 0.919469,-1.129753 1.224205,-1.800522 0.29318,-0.630975 0.518777,-1.288243 0.651278,-1.970973 0.06987,-0.513898 0.120912,-1.03041 0.173945,-1.546442 0.05174,-0.514205 0.06152,-1.031164 0.06795,-1.547514 -0.01439,-0.447746 0.04124,-0.902065 -0.0269,-1.346096 -0.077,-0.379282 -0.211365,-0.742762 -0.321903,-1.112674 -0.112215,-0.358281 -0.234931,-0.714043 -0.389233,-1.056531 0,0 0.688165,-0.388149 0.688165,-0.388149 v 0 c 0.155631,0.34569 0.279315,0.704602 0.394629,1.065524 0.111574,0.373011 0.248721,0.738896 0.327297,1.12124 0.07806,0.447449 0.01381,0.90754 0.03035,1.359964 -0.0073,0.518232 -0.01291,1.037344 -0.06461,1.553507 -0.05107,0.518885 -0.106992,1.037531 -0.174649,1.554387 -0.127053,0.688933 -0.351422,1.351542 -0.644493,1.988076 -0.301114,0.680776 -0.676283,1.30886 -1.214829,1.832475 -0.953209,0.85293 -2.053476,1.51216 -3.222109,2.030603 -1.391275,0.602457 -2.806301,1.028214 -4.276617,1.396186 -0.625647,0.164872 -1.228272,0.33016 -1.860367,0.470304 -1.206484,0.267494 -2.429735,0.445654 -3.654579,0.603356 -0.286797,0.02855 -0.572775,0.06708 -0.86039,0.08564 -0.85199,0.05499 -1.708692,-0.0021 -2.5615,0.02413 0,0 0.641014,-0.465722 0.641014,-0.465722 z"
       inkscape:connector-curvature="0" />
    <path
       style="fill:#000080;stroke-width:0.26458332"
       id="path94"
       d="m 59.48228,24.138388 c 0.135081,0.217876 0.299741,0.41527 0.462706,0.612464 0.237546,0.299523 0.522708,0.55449 0.818846,0.794062 0.210778,0.174336 0.447109,0.310565 0.686183,0.441187 0.113295,0.06123 0.232024,0.11113 0.350179,0.161936 0,0 -0.136858,0.09116 -0.136858,0.09116 v 0 c -0.118147,-0.05111 -0.236408,-0.10225 -0.349359,-0.164358 -0.238514,-0.132362 -0.473744,-0.270853 -0.684479,-0.445668 -0.29631,-0.240901 -0.580322,-0.498262 -0.820328,-0.796788 -0.164907,-0.196915 -0.330001,-0.394715 -0.469984,-0.610552 0,0 0.143094,-0.08344 0.143094,-0.08344 z"
       inkscape:connector-curvature="0" />
    <path
       style="fill:#000080;stroke-width:0.26458332"
       id="path96"
       d="m 59.380085,24.180071 c 0.01061,0.316878 0.01503,0.633938 0.01865,0.950961 0.01124,0.342678 -0.03417,0.683637 -0.104997,1.018093 -0.03763,0.161404 -0.08288,0.321747 -0.144412,0.475874 -0.02188,0.05483 -0.08607,0.192723 -0.11039,0.245671 -0.115149,0.246973 -0.267229,0.473877 -0.421783,0.697429 -0.111236,0.146208 -0.223851,0.291549 -0.342167,0.43213 -0.05224,0.05867 -0.10455,0.11715 -0.15503,0.177351 0,0 -0.152164,0.0646 -0.152164,0.0646 v 0 c 0.05067,-0.06052 0.102854,-0.119539 0.156032,-0.177872 0.119603,-0.140356 0.232582,-0.286199 0.345559,-0.431895 0.155268,-0.222536 0.307459,-0.44895 0.423389,-0.695036 0.01992,-0.0433 0.09203,-0.198644 0.110257,-0.244052 0.06176,-0.153802 0.107665,-0.313816 0.146733,-0.474654 0.07312,-0.333296 0.118975,-0.673449 0.107754,-1.015491 -0.0033,-0.31571 -0.0058,-0.631685 -0.02434,-0.946943 0,0 0.146891,-0.07617 0.146891,-0.07617 z"
       inkscape:connector-curvature="0" />
    <path
       style="fill:#000080;stroke-width:0.26458332"
       id="path98"
       d="m 89.542225,9.3584912 c 0.789879,-0.267994 0.69379,-0.2269622 1.69096,-0.6249622 1.966888,-0.7850425 2.21108,-0.9417156 4.41181,-1.7371597 2.768436,-1.0006388 3.909484,-1.3226306 6.762745,-2.2163333 1.1062,-0.3255695 2.21241,-0.6511388 3.31861,-0.9767083 0,0 -0.38485,0.2967651 -0.38485,0.2967651 v 0 c -1.10241,0.3230174 -2.20482,0.6460347 -3.30723,0.9690521 -2.908641,0.9165801 -3.979169,1.2157606 -6.799464,2.2490101 -2.174128,0.7965194 -2.522156,0.9966685 -4.478424,1.7895202 -1.065112,0.4316765 -0.902767,0.3666093 -1.73845,0.6495399 0,0 0.524293,-0.3987239 0.524293,-0.3987239 z"
       inkscape:connector-curvature="0" />
    <path
       style="fill:#000080;stroke-width:0.26458332"
       id="path100"
       d="m 97.098344,2.2660896 c 1.849104,2.69622 3.730666,5.3699255 5.651806,8.0153144 0.94876,1.342007 1.93265,2.658887 2.86858,4.009865 0,0 -0.53969,0.31704 -0.53969,0.31704 v 0 c -0.91625,-1.361955 -1.87884,-2.691877 -2.82004,-4.036618 -1.90878,-2.6566431 -3.793091,-5.3310731 -5.726135,-7.9700185 0,0 0.565479,-0.3355829 0.565479,-0.3355829 z"
       inkscape:connector-curvature="0" />
    <path
       style="fill:#000080;stroke-width:0.26458332"
       id="path102"
       d="m 72.723969,20.342511 c -0.22107,0.540502 -0.446079,1.078891 -0.626417,1.634634 -0.219358,0.5904 -0.39248,1.196205 -0.602239,1.789805 -0.247496,0.654613 -0.46859,1.31815 -0.735242,1.965488 -0.238435,0.571908 -0.509517,1.128506 -0.798931,1.676088 -0.401032,0.75211 -0.820838,1.493806 -1.256332,2.226432 -0.487177,0.813136 -1.071046,1.557662 -1.662668,2.295564 -0.458845,0.562486 -0.888732,1.147289 -1.332841,1.721205 -0.444796,0.547155 -0.927743,1.06068 -1.377341,1.604068 -0.570974,0.681691 -1.123699,1.37832 -1.701414,2.054368 -0.722659,0.819385 -1.617305,1.460812 -2.515616,2.072354 -0.759063,0.431964 -1.485336,0.9174 -2.230432,1.371833 -0.681532,0.404286 -1.389555,0.779142 -2.13768,1.046157 -0.457912,0.120621 -0.890132,0.307438 -1.324711,0.490543 -0.290668,0.145039 -0.604975,0.217916 -0.916958,0.298849 0,0 0.525666,-0.402643 0.525666,-0.402643 v 0 c 0.310735,-0.0802 0.619855,-0.164012 0.909778,-0.305686 0.433118,-0.18529 0.870185,-0.356592 1.32416,-0.485743 0.340498,-0.126566 0.664813,-0.27871 0.99336,-0.433197 0.09174,-0.04314 0.215498,-0.211868 0.275039,-0.129818 0.0587,0.08088 -0.170635,0.104076 -0.255955,0.156117 0.74925,-0.450479 1.471234,-0.94638 2.236671,-1.370732 0.89916,-0.605647 1.795283,-1.241377 2.519934,-2.055434 0.578607,-0.674473 1.13094,-1.370594 1.700504,-2.052645 0.446209,-0.543867 0.924176,-1.058908 1.37306,-1.600227 0.447889,-0.573622 0.876925,-1.161716 1.338448,-1.724755 0.592606,-0.735547 1.179438,-1.47587 1.666999,-2.287543 0.435099,-0.730104 0.854678,-1.469183 1.251672,-2.220785 0.289579,-0.54623 0.560676,-1.101693 0.802371,-1.670935 0.269623,-0.645255 0.488412,-1.308199 0.735716,-1.961922 0.210809,-0.592494 0.380947,-1.198382 0.601914,-1.787453 0.175897,-0.554956 0.401047,-1.091158 0.617429,-1.631239 0,0 0.602056,-0.282748 0.602056,-0.282748 z"
       inkscape:connector-curvature="0" />
    <path
       style="fill:#000080;stroke-width:0.26458332"
       id="path104"
       d="m 52.576817,42.790789 c 0.569105,-0.405487 1.092885,-0.869666 1.622234,-1.324641 0.472792,-0.380238 0.914546,-0.795253 1.351571,-1.215353 0,0 0.597517,-0.24619 0.597517,-0.24619 v 0 c -0.435348,0.420219 -0.872906,0.838653 -1.345944,1.216991 -0.526468,0.453358 -1.04725,0.915416 -1.608338,1.326145 0,0 -0.61704,0.243048 -0.61704,0.243048 z"
       inkscape:connector-curvature="0" />
    <path
       style="fill:#000080;stroke-width:0.26458332"
       id="path108"
       d="m 54.050234,43.015667 c 0.574161,0.03009 1.142521,-0.04923 1.710668,-0.118801 0.535234,-0.09421 1.07442,-0.157668 1.616657,-0.191603 0.463254,-0.02143 0.925844,-0.01294 1.387393,-0.06093 0.06209,-0.0063 0.124185,-0.0127 0.186278,-0.01905 0,0 -0.531543,0.394444 -0.531543,0.394444 v 0 c -0.06203,0.0062 -0.12406,0.01243 -0.186092,0.01865 -0.461288,0.04251 -0.92393,0.03117 -1.386247,0.0574 -0.540772,0.03675 -1.077955,0.103007 -1.612514,0.193058 -0.572238,0.06849 -1.14455,0.139894 -1.722414,0.117565 0,0 0.537814,-0.390744 0.537814,-0.390744 z"
       inkscape:connector-curvature="0" />
    <path
       style="fill:#000080;stroke-width:0.26458332"
       id="path110"
       d="m 70.963998,21.534971 c 0.129024,-0.07383 0.253111,-0.157042 0.387072,-0.221479 0.08641,-0.04156 -0.163576,0.100161 -0.243861,0.152592 -0.383172,0.250237 -0.732975,0.544316 -1.085231,0.835461 -0.410276,0.310332 -0.840065,0.594716 -1.268584,0.879255 -0.05133,0.03546 -0.102666,0.07092 -0.153998,0.106375 0,0 -0.615897,0.24238 -0.615897,0.24238 v 0 c 0.05145,-0.03602 0.102893,-0.07203 0.154342,-0.108052 0.430101,-0.285345 0.86138,-0.57 1.277519,-0.875346 0.648084,-0.537088 1.303547,-1.055808 2.065787,-1.428555 0,0 -0.517149,0.417369 -0.517149,0.417369 z"
       inkscape:connector-curvature="0" />
    <path
       style="fill:#000080;stroke-width:0.26458332"
       id="path112"
       d="m 73.018816,20.561888 c 0.137152,0.703879 0.339262,1.389158 0.593497,2.059187 0.209079,0.477387 0.105963,0.247473 0.308573,0.690088 0,0 -0.568682,0.320924 -0.568682,0.320924 v 0 c -0.200094,-0.446246 -0.09772,-0.214378 -0.306507,-0.695875 -0.255164,-0.669726 -0.462139,-1.353959 -0.609875,-2.055542 0,0 0.582994,-0.318782 0.582994,-0.318782 z"
       inkscape:connector-curvature="0" />
    <path
       style="fill:#000080;stroke-width:0.26458332"
       id="path114"
       d="m 96.673886,1.6460685 c 0.311428,0.2996089 0.544869,0.512933 0.83608,0.8510387 0.368218,0.4275173 1.091309,1.3788499 1.391669,1.7784475 1.027967,1.3676034 1.032304,1.3954953 2.065715,2.8500469 0.92338,1.3012563 1.84331,2.6049383 2.7668,3.9061144 0,0 -0.51644,0.304274 -0.51644,0.304274 v 0 C 102.30899,10.025595 101.40189,8.7140221 100.47556,7.4159572 99.40677,5.9321472 99.453349,5.9697789 98.384131,4.5838133 98.064083,4.1689549 97.355164,3.2629916 96.968063,2.8275859 96.639527,2.4580547 96.460409,2.3088546 96.114924,1.9945314 c 0,0 0.558962,-0.3484629 0.558962,-0.3484629 z"
       inkscape:connector-curvature="0" />
    <path
       style="fill:#000080;stroke-width:0.26458332"
       id="path116"
       d="m 91.974595,9.0744203 c 2.277279,-1.0151205 4.550463,-2.0414427 6.809097,-3.0979874 2.279148,-1.0289321 4.537828,-2.1035545 6.839288,-3.0826501 1.05703,-0.4496861 1.51627,-0.6228694 2.54852,-1.0287523 0.7715,-0.2823522 1.54667,-0.5542417 2.31843,-0.8358545 0,0 -0.50265,0.3925588 -0.50265,0.3925588 v 0 c -0.76337,0.2739355 -1.52974,0.539266 -2.29175,0.8170361 -1.03013,0.4021828 -1.47028,0.5663482 -2.52634,1.0141237 -2.29966,0.9750756 -4.55498,2.0494284 -6.830771,3.0778505 -2.28391,1.0711736 -4.583078,2.1094084 -6.878505,3.1553706 0,0 0.514681,-0.4116954 0.514681,-0.4116954 z"
       inkscape:connector-curvature="0" />
    <path
       style="fill:#000080;stroke-width:0.26458332"
       id="path118"
       d="m 94.101792,1.9436027 c 0.109924,0.027298 0.227843,0.032508 0.329774,0.081894 0.785101,0.3803861 1.616996,1.2752257 2.181897,1.9048711 0.762413,0.8497929 1.193892,1.4493205 1.898017,2.3650275 1.5473,2.0701701 3.04209,4.1786877 4.58392,6.2528437 0.13275,0.175954 0.26551,0.351909 0.39826,0.527864 0,0 -0.54742,0.324538 -0.54742,0.324538 v 0 c -0.13006,-0.177694 -0.26013,-0.355388 -0.3902,-0.533081 C 101.04102,10.776053 99.563257,8.6573848 98.008071,6.5951567 97.305261,5.6919015 96.861007,5.0814181 96.097361,4.2457859 95.511095,3.6042523 94.713485,2.7596674 93.894062,2.397507 93.790401,2.351692 93.672603,2.3492 93.561872,2.325047 c 0,0 0.53992,-0.3814443 0.53992,-0.3814443 z"
       inkscape:connector-curvature="0" />
    <path
       style="fill:#000080;stroke-width:0.26458332"
       id="path120"
       d="m 92.147802,8.6673009 c 0.213481,-0.07671 0.42977,-0.1460273 0.64045,-0.2301311 0.804595,-0.321195 1.756788,-0.7674491 2.530401,-1.0989953 2.372754,-1.0168877 4.761397,-1.9987763 7.140087,-3.0017474 0.81105,-0.3442372 1.62209,-0.6884746 2.43314,-1.0327121 0,0 -0.41588,0.3283968 -0.41588,0.3283968 v 0 c -0.80795,0.3417626 -1.6159,0.6835249 -2.42385,1.0252874 -2.397212,1.0125157 -4.802687,2.0086619 -7.190599,3.0429787 -1.087824,0.4711867 -1.546588,0.7086844 -2.57324,1.127718 -0.217985,0.088972 -0.44052,0.1663543 -0.660783,0.2495314 0,0 0.520274,-0.4103264 0.520274,-0.4103264 z"
       inkscape:connector-curvature="0" />
    <path
       style="fill:#000080;stroke-width:0.26458332"
       id="path122"
       d="m 92.848855,2.7891983 c 1.344919,0.7064801 2.630022,1.5144618 3.846274,2.4251354 0.827379,0.619502 1.466096,1.1619243 2.257539,1.8157023 0,0 -0.506981,0.3171602 -0.506981,0.3171602 v 0 C 97.617625,6.6559979 97.072949,6.1825417 96.196059,5.5319268 94.97126,4.6231775 93.672693,3.8152199 92.297251,3.1546085 c 0,0 0.551604,-0.3654102 0.551604,-0.3654102 z"
       inkscape:connector-curvature="0" />
    <path
       style="fill:#000080;stroke-width:0.26458332"
       id="path124"
       d="m 94.382869,8.6809246 c 1.951488,-1.236471 4.089456,-2.1544878 6.185761,-3.1114931 3.0789,-1.4055844 1.99958,-0.9181529 5.06883,-2.2687076 2.85463,-1.2098002 1.48415,-0.6495674 4.10774,-1.6897314 0,0 -0.44363,0.3485433 -0.44363,0.3485433 v 0 c -2.60049,1.0231613 -1.24088,0.4708341 -4.07495,1.6665168 -2.95657,1.3006533 -2.10863,0.9134644 -5.07938,2.2782247 -3.012164,1.3837811 -1.400148,0.6326415 -4.030162,1.9123892 -0.186743,0.090868 -0.380394,0.1679594 -0.562827,0.2671961 -0.192998,0.104983 -0.374573,0.2297261 -0.561858,0.3445889 0,0 -0.609524,0.2524731 -0.609524,0.2524731 z"
       inkscape:connector-curvature="0" />
    <path
       style="fill:#000080;stroke-width:0.26458332"
       id="path126"
       d="m 12.724795,1.21822 c -0.0037,0.2833734 -0.01863,1.3397702 -0.0153,1.5107102 0.02636,1.3530503 0.07579,1.0486916 0.115858,2.5025191 0.04502,1.6332507 0.02667,3.1790759 0.0222,4.8180817 -0.04661,1.060413 -0.07264,2.121932 -0.139843,3.18124 -0.182618,2.878658 -0.435736,5.033709 -0.718619,7.937836 -0.339508,3.485454 -0.529875,5.458506 -0.806628,8.944622 -0.109492,1.379209 -0.202764,2.75966 -0.304146,4.139488 -0.277205,3.931515 -0.463894,7.869923 -0.772595,11.79926 -0.1518704,1.933099 -0.2240664,2.553576 -0.4164066,4.479677 -0.069466,0.726649 -0.1429248,1.452927 -0.2083975,2.179947 -0.3176799,3.527562 -0.026979,0.634963 -0.3695353,4.174159 -0.1871282,1.933358 -0.3931804,3.864478 -0.5737815,5.798497 -0.1125659,1.420858 -0.242298,2.841588 -0.2923929,4.26657 -0.010216,0.290566 -0.029561,1.130954 0.00742,1.478394 0.015063,0.141542 0.059007,0.278498 0.08851,0.417745 0.041441,0.08931 0.070764,0.185322 0.1243226,0.267939 0.2474402,0.38169 0.8847318,0.366691 1.2705226,0.399931 3.8106546,0.10837 7.6245916,0.08705 11.4365716,0.09487 6.324794,0.0071 12.649587,-5.29e-4 18.974383,-0.0024 5.082244,5.29e-4 10.164477,-0.0074 15.246702,-0.02114 3.14879,-0.01646 6.297819,0.02125 9.446413,-0.02278 0.951455,-0.04477 1.912842,5.29e-4 2.85963,-0.127431 0.222578,-0.03007 0.700823,-0.128633 0.914501,-0.171011 1.118854,-0.257866 2.259017,-0.37918 3.398898,-0.49643 0.782251,-0.09729 1.56378,-0.199191 2.348592,-0.273642 0,0 -0.525071,0.389006 -0.525071,0.389006 v 0 c -0.780131,0.07165 -1.557072,0.170974 -2.334847,0.264258 -1.141428,0.118983 -2.282269,0.249034 -3.402655,0.506605 -0.273564,0.05379 -0.63876,0.130982 -0.91821,0.165598 -0.937623,0.116144 -1.887871,0.06156 -2.829182,0.09864 -3.140445,0.02273 -6.281195,-5.29e-4 -9.421709,0.004 -5.063892,-0.01357 -10.127792,-0.02106 -15.191705,-0.01881 -6.326585,5.29e-4 -12.653172,-0.0027 -18.979755,0.0062 -3.849927,0.0067 -7.701,0.04318 -11.5504366,-0.01902 C 8.7828209,69.85477 8.154263,69.859662 7.8944043,69.436974 7.8402078,69.348817 7.8109648,69.247572 7.769245,69.15287 7.7409925,69.008741 7.6977713,68.866749 7.6844876,68.720477 7.65348,68.379043 7.6867101,67.50442 7.7000768,67.224703 7.7685304,65.793516 7.9102891,64.367116 8.024892,62.939302 8.2108478,61.003396 8.4223568,59.070284 8.6111883,57.134701 8.8988806,54.185764 8.7153498,55.901748 8.9849358,52.958235 9.0515613,52.230776 9.1254272,51.503997 9.1956727,50.776877 9.3902148,48.839204 9.4587535,48.239338 9.6205383,46.294539 9.9486166,42.35074 10.177082,38.398928 10.477501,34.453044 c 0.335935,-4.366435 0.708981,-8.726942 1.115288,-13.087416 0.252886,-2.71396 0.514715,-5.197604 0.667719,-7.90937 0.05949,-1.054294 0.07613,-2.110569 0.114201,-3.165853 -0.01185,-2.285529 0.0091,-2.6184018 -0.08124,-4.784418 -0.03312,-0.79396 -0.112849,-1.6936952 -0.139262,-2.4942447 -0.01644,-0.498129 0.0015,-0.9969548 -0.0153,-1.4951218 0,0 0.585888,-0.2985249 0.585888,-0.2985249 z"
       inkscape:connector-curvature="0" />
    <path
       style="fill:#000080;stroke-width:0.26458332"
       id="path130"
       d="m 133.33812,61.49714 c 2.02172,-0.0049 4.04179,0.05588 6.0596,0.17851 1.22177,0.07912 2.44177,0.183792 3.66452,0.247369 0.22974,0.0083 0.4582,0.01386 0.68691,0.03675 0,0 -0.53914,0.383926 -0.53914,0.383926 v 0 c -0.22616,-0.02053 -0.45242,-0.02799 -0.67925,-0.03916 -1.21153,-0.0756 -2.42021,-0.188518 -3.63122,-0.271618 -2.02908,-0.127397 -4.06127,-0.191736 -6.09456,-0.148429 0,0 0.53314,-0.387353 0.53314,-0.387353 z"
       inkscape:connector-curvature="0" />
    <path
       style="fill:#000080;stroke-width:0.26458332"
       id="path132"
       d="m 126.86304,27.89963 c -0.40106,-0.807601 -0.83169,-1.599316 -1.27174,-2.38616 -0.66809,-1.214342 -1.38493,-2.399812 -2.12714,-3.570053 -0.9182,-1.472611 -1.97136,-2.852389 -2.98969,-4.255433 -1.08789,-1.572164 -2.25658,-3.083891 -3.51908,-4.519154 -0.81939,-0.882722 -1.67378,-1.766773 -2.71832,-2.386711 -0.18696,-0.110961 -0.38387,-0.204229 -0.5758,-0.306343 -1.6008,-0.6847029 -3.28469,-1.1489265 -4.9546,-1.6304074 -2.4928,-0.6997684 -4.97685,-1.4301943 -7.47323,-2.1171058 C 98.087994,5.8884907 94.86408,5.4044071 91.647681,4.9313068 89.561904,4.6227243 87.473995,4.3246807 85.373111,4.1383439 84.219898,4.0360607 83.869098,4.0245236 82.728217,3.9589397 c -2.367478,-0.110518 -4.7381,-0.1135414 -7.107605,-0.1128273 -1.140989,0.00169 -2.283336,-0.01456 -3.421131,0.088465 -0.579962,0.052515 -0.89562,0.106961 -1.467189,0.1911755 -1.404109,0.2580865 -2.772913,0.6799908 -4.140401,1.0844508 -1.120365,0.3542433 -2.256917,0.6514185 -3.392099,0.9532017 -0.935323,0.2597568 -1.841825,0.6035233 -2.731195,0.9897999 -0.430186,0.194265 -0.849972,0.4094758 -1.267294,0.6295768 0,0 0.505966,-0.4063227 0.505966,-0.4063227 v 0 c 0.417639,-0.2176399 0.837358,-0.4312148 1.267475,-0.6235303 0.891294,-0.3835675 1.799278,-0.7261895 2.736512,-0.9818219 1.131551,-0.3007651 2.264825,-0.5954117 3.381904,-0.9475825 1.368713,-0.4043121 2.739107,-0.8267279 4.145915,-1.0772679 0.579421,-0.083106 0.879051,-0.1341231 1.467294,-0.1850983 1.135058,-0.098361 2.274192,-0.079531 3.412085,-0.076663 2.366804,0.00621 4.734732,0.00841 7.099369,0.1231006 1.143704,0.068799 1.483154,0.080468 2.639232,0.1865027 2.096905,0.1923272 4.180605,0.4949714 6.262767,0.80459 3.222157,0.4727926 6.452523,0.9528077 9.603778,1.7931508 2.50151,0.6857124 4.99162,1.4121341 7.49096,2.105797 1.67848,0.4799999 3.37258,0.9384159 4.97954,1.6296024 0.19333,0.103629 0.39182,0.198175 0.58001,0.310887 1.04536,0.626101 1.89577,1.520604 2.71412,2.408979 1.25845,1.441256 2.42966,2.95314 3.52528,4.52212 1.01934,1.403886 2.06881,2.787451 2.991,4.258972 0.75065,1.166347 1.47418,2.349681 2.14086,3.566326 0.44088,0.78535 0.87641,1.573131 1.29178,2.372352 0,0 -0.57411,0.332754 -0.57411,0.332755 z"
       inkscape:connector-curvature="0" />
    <path
       style="fill:#000080;stroke-width:0.26458332"
       id="path134"
       d="m 59.004596,5.2212901 c -0.440436,1.1850674 -0.920221,2.3548337 -1.373947,3.5347647 -0.263882,0.6743491 -0.502047,1.3583282 -0.742434,2.0412582 -0.01762,0.0779 -0.09141,0.300551 -0.03663,0.396745 0.07715,0.135496 0.342604,0.139026 0.444942,0.144338 0.328263,0.01704 0.70018,-0.02193 1.02254,-0.04502 0.2584,-0.05023 0.518822,-0.091 0.775198,-0.150704 0.47094,-0.109672 1.258263,-0.34755 1.719659,-0.480627 0.767596,-0.221392 1.536144,-0.43687 2.308556,-0.640743 0.706625,-0.169521 0.37057,-0.093498 1.007575,-0.2306385 0,0 -0.51558,0.3914525 -0.51558,0.3914525 v 0 c -0.629322,0.133756 -0.297116,0.05945 -0.996024,0.225548 -0.769249,0.201111 -1.534115,0.414768 -2.298189,0.63481 -0.478872,0.137908 -1.239737,0.367294 -1.72779,0.479609 -0.26093,0.06005 -0.525897,0.100967 -0.788845,0.15145 -0.30594,0.02197 -1.334786,0.191361 -1.539099,-0.173294 -0.0631,-0.112621 0.0071,-0.323661 0.02863,-0.424604 0.240705,-0.687827 0.489617,-1.3731994 0.758,-2.0507841 0.457462,-1.1736615 0.939975,-2.3380171 1.355286,-3.5276506 0,0 0.598159,-0.2759062 0.598159,-0.2759062 z"
       inkscape:connector-curvature="0" />
    <path
       style="fill:#000080;stroke-width:0.26458332"
       id="path136"
       d="m 55.754925,10.831806 c 0.87348,-0.679363 1.733955,-1.3753941 2.600317,-2.0638428 0.824633,-0.6859952 1.654485,-1.3248568 2.570697,-1.8831496 0.89706,-0.5460161 1.818744,-1.0499646 2.802837,-1.4182828 0.737079,-0.290571 1.510422,-0.4371023 2.283527,-0.5894851 0.310276,-0.054368 0.619863,-0.1017452 0.923361,-0.1869008 0,0 -0.524499,0.4024746 -0.524499,0.4024746 v 0 c -0.303882,0.077714 -0.612754,0.1244978 -0.921391,0.1795955 -0.77094,0.147434 -1.53848,0.3047875 -2.271948,0.5946142 -0.380515,0.1461495 -0.403664,0.1470464 -0.767566,0.3176979 -0.122278,0.057342 -0.242962,0.118046 -0.363472,0.1790147 -0.123761,0.062614 -0.239487,0.1428652 -0.3693,0.1917121 -0.0686,0.025815 0.248372,-0.1551475 0.183166,-0.1216718 -0.127405,0.065406 -0.246907,0.1451803 -0.370359,0.2177706 -0.261546,0.1576051 -0.531206,0.3150277 -0.783042,0.4879808 -0.624959,0.4292063 -1.20532,0.9207063 -1.798944,1.3908833 -0.861764,0.6835341 -1.717374,1.3748496 -2.580254,2.0568902 0,0 -0.61313,0.244699 -0.61313,0.244699 z"
       inkscape:connector-curvature="0" />
    <path
       style="fill:#ff0000;stroke-width:0.26458332"
       id="path159"
       d="m 96.850866,1.4156721 c 0.06787,0.1998279 0.125952,0.4032526 0.203612,0.5994836 0.349036,0.8819437 0.859817,1.9852448 1.256705,2.8137684 0.8324,1.7376838 1.733037,3.4331362 2.664897,5.1188098 0.9386,1.7144581 2.06763,3.3069881 3.20349,4.8925201 0.0817,0.112157 0.16335,0.224315 0.24502,0.336472 0,0 -0.55927,0.330396 -0.55927,0.330396 v 0 c -0.0804,-0.113125 -0.16081,-0.22625 -0.24122,-0.339376 -1.11459,-1.601905 -2.21637,-3.214238 -3.14715,-4.93326 C 99.554285,8.5435026 98.659901,6.8418561 97.809983,5.1128175 97.454983,4.3906212 96.841809,3.1176364 96.496898,2.3243326 96.411117,2.1270393 96.340042,1.9236744 96.261615,1.7233453 c 0,0 0.589251,-0.3076732 0.589251,-0.3076732 z"
       inkscape:connector-curvature="0" />
    <path
       style="fill:#ff0000;stroke-width:0.26458332"
       id="path161"
       d="m 93.248362,10.09919 c 3.264906,-1.4268626 6.545173,-2.8182534 9.821628,-4.218308 2.48005,-1.0569963 4.96462,-2.1019611 7.49014,-3.0458269 0,0 -0.49884,0.3902699 -0.49884,0.3902699 v 0 c -2.50487,0.9245542 -4.96792,1.9535484 -7.42487,2.9981345 -3.308068,1.4126623 -6.619381,2.8183755 -9.905921,4.2806565 0,0 0.517863,-0.404926 0.517863,-0.404926 z"
       inkscape:connector-curvature="0" />
    <path
       style="fill:#ff0000;stroke-width:0.26458332"
       id="path163"
       d="m 97.153776,2.2457263 c 1.697459,2.1317631 2.848134,4.6306651 4.028264,7.0696749 0,0 -0.51682,0.2931522 -0.51682,0.2931522 v 0 C 99.50335,7.165115 98.34587,4.6691907 96.601758,2.5759503 c 0,0 0.552018,-0.330224 0.552018,-0.330224 z"
       inkscape:connector-curvature="0" />
    <path
       style="fill:#ff0000;stroke-width:0.26458332"
       id="path165"
       d="M 93.437495,9.2616051 C 95.381248,8.4057709 97.3106,7.5172402 99.265368,6.6863057 100.64322,6.1006063 101.68509,5.6864847 103.0635,5.129585 c 1.56196,-0.5900336 3.12577,-1.1749 4.6855,-1.7708131 0,0 -0.46744,0.3662971 -0.46744,0.3662971 v 0 c -1.55312,0.588323 -3.11002,1.1663931 -4.66314,1.7547158 -1.47443,0.5938314 -2.31073,0.9224867 -3.79249,1.554267 -1.981182,0.8447177 -3.936235,1.7482317 -5.899801,2.6324917 0,0 0.511366,-0.4049384 0.511366,-0.4049384 z"
       inkscape:connector-curvature="0" />
    <path
       style="fill:#ff0000;stroke-width:0.26458332"
       id="path167"
       d="m 95.912994,0.47506151 c 1.057191,1.52560759 2.140689,3.03563619 3.099708,4.62642449 0.288528,0.4785994 0.558916,0.9679024 0.838374,1.4518539 1.134064,2.1268401 2.167754,4.3051141 3.216744,6.4745971 0,0 -0.5106,0.289545 -0.5106,0.289545 v 0 C 101.52727,11.140483 100.50146,8.9592525 99.347349,6.8443297 99.066007,6.3623533 98.793521,5.875098 98.503326,5.3984008 97.538354,3.8132694 96.458999,2.3006474 95.344272,0.81838944 c 0,0 0.568722,-0.34332793 0.568722,-0.34332793 z"
       inkscape:connector-curvature="0" />
    <path
       style="fill:#ff0000;stroke-width:0.26458332"
       id="path169"
       d="m 94.468187,9.0705275 c 2.447734,-0.6657314 4.795866,-1.6485087 7.139403,-2.6085755 1.65114,-0.6747923 3.3007,-1.3550259 4.88334,-2.1801714 -0.0459,0.023828 -0.17765,0.1042469 -0.13766,0.071485 0.0918,-0.075172 0.20018,-0.1278904 0.29445,-0.1999105 0.0112,-0.00859 0.0301,-0.045431 0.0177,-0.038586 -0.086,0.047524 -0.1583,0.1176769 -0.24491,0.164107 -0.21627,0.1159317 -0.44183,0.213619 -0.66196,0.3220381 -0.33543,0.1652154 -0.66981,0.3325728 -1.00472,0.4988592 -2.39914,1.208078 -4.812688,2.3888464 -7.240573,3.5382496 -0.532781,0.197154 -1.016606,0.5045482 -1.541224,0.7195804 -0.25263,0.1035481 0.480541,-0.2608794 0.731213,-0.3690752 0.927602,-0.4003728 1.865299,-0.7769492 2.797095,-1.167461 2.213239,-0.9642163 4.396619,-1.994231 6.558839,-3.0674347 1.14102,-0.5663393 0.74451,-0.3569499 1.56977,-0.8118826 -0.22715,0.1441875 -0.44184,0.3101964 -0.68146,0.432563 -0.20596,0.1051809 -0.43238,0.1642414 -0.64848,0.2466144 -0.3415,0.1301787 -0.68282,0.2608736 -1.02433,0.3910407 -1.33011,0.5069692 -2.66322,1.0028274 -4.00217,1.4859706 -1.289153,0.4276077 -2.562445,0.9006438 -3.844377,1.3487196 -0.969341,0.3388159 -0.268478,0.07143 -1.013453,0.3635661 -0.03664,0.02023 -0.145161,0.083296 -0.109934,0.060688 0.273238,-0.1753584 0.536877,-0.3678266 0.824167,-0.5190683 0.211891,-0.1115494 0.445685,-0.1753444 0.667284,-0.2660957 0.421624,-0.1726681 0.842026,-0.3483123 1.262343,-0.5241446 1.82522,-0.7635546 1.61936,-0.6807874 3.50419,-1.4914599 1.51831,-0.6393796 3.01163,-1.3371885 4.53752,-1.9588136 0.26071,-0.1062133 0.51276,-0.2447525 0.78801,-0.3038641 0.0494,-0.010597 -0.002,0.1181504 -0.0455,0.1444101 -0.4151,0.2528908 -0.86283,0.4478729 -1.29424,0.6718096 C 103.20109,5.6016831 99.727519,6.8822275 96.241948,8.1154306 95.855585,8.2512677 94.34828,8.7752713 93.869554,8.9629963 93.697233,9.0305682 93.304433,9.3653572 93.362639,9.189654 93.425382,9.0002578 93.707351,8.9872361 93.888921,8.9045321 94.589644,8.5853557 95.66104,8.2548943 96.309459,8.0354333 99.91936,6.7281292 103.46494,5.24385 106.98382,3.7095914 c 0.23607,-0.1045456 0.46558,-0.2253946 0.70821,-0.3136368 0.11257,-0.040941 -0.21254,0.1107365 -0.31606,0.1710192 -0.9199,0.535722 0.25555,-0.039669 -1.5446,0.6865567 C 104.5949,4.752354 103.30908,5.3076649 102.08613,5.828363 100.366,6.5624926 98.643629,7.2914506 96.926759,8.0331944 96.566245,8.188948 96.207267,8.3482433 95.846565,8.5035635 95.011051,8.8633415 95.414932,8.6683971 94.971721,8.8876205 95.22372,8.7227367 95.466182,8.542257 95.727725,8.3929693 95.918873,8.283862 96.128376,8.21052 96.326369,8.1143918 c 0.293454,-0.1424754 0.585187,-0.2885275 0.875567,-0.4371686 1.151318,-0.5893398 2.284185,-1.2142039 3.422624,-1.8278173 1.12559,-0.5955017 2.23799,-1.21515 3.35302,-1.8299975 0,0 -0.49471,0.3989096 -0.49471,0.3989096 v 0 c -1.10622,0.606629 -2.21022,1.2172948 -3.32553,1.8071812 -1.14399,0.6166979 -2.282466,1.2444923 -3.438626,1.8382824 -0.295214,0.1516192 -0.591526,0.3011783 -0.889963,0.4463499 -0.204896,0.099668 -0.39316,0.3108018 -0.619874,0.2880887 -0.14156,-0.014182 0.186653,-0.2147607 0.27998,-0.3221408 0.506261,-0.2230586 -0.299786,0.130488 0.835432,-0.3503322 2.067026,-0.8754848 4.126291,-1.7694706 6.195451,-2.6399757 1.20958,-0.517829 2.56139,-1.1027714 3.78657,-1.6052048 0.3964,-0.1625608 0.78736,-0.3412167 1.19458,-0.4743651 0.15649,-0.051165 0.59059,-0.2046115 0.48806,-0.075798 -0.17696,0.2223267 -1.19571,0.6321221 -1.48128,0.7557804 -3.51926,1.5123975 -7.057445,2.9899086 -10.655543,4.3051502 -0.547322,0.189597 -1.087684,0.4006379 -1.64197,0.568791 -0.305535,0.092689 -0.647578,0.3538516 -0.933947,0.2126596 -0.210267,-0.1036693 0.384725,-0.2697073 0.590526,-0.3819803 0.154625,-0.084354 0.32203,-0.1432692 0.486727,-0.2057072 0.4723,-0.1790496 1.969604,-0.6953649 2.345841,-0.8262411 3.502606,-1.2297394 6.989766,-2.5187925 10.340106,-4.1265572 0.0613,-0.012729 0.12175,-0.031533 0.18406,-0.038187 0.0567,-0.00606 0.22251,-0.024723 0.1712,2.493e-4 -0.24555,0.1195022 -0.51304,0.187597 -0.76643,0.2894311 -1.51768,0.60994 -3.00044,1.3024104 -4.508,1.9362094 -2.10017,0.905959 -1.50499,0.6533706 -3.5307,1.5116575 -0.430016,0.1821968 -0.859456,0.3657711 -1.290608,0.5452657 -0.227706,0.094797 -0.439523,0.2889652 -0.685911,0.277589 -0.454938,-0.021005 0.307843,-0.3427548 0.312566,-0.3448744 0.778599,-0.2924333 -0.02871,0.0054 0.99909,-0.3504636 1.272918,-0.4407347 2.538003,-0.9042426 3.817013,-1.3275659 1.34418,-0.4847183 2.68179,-0.9830853 4.01488,-1.4975387 0.34737,-0.134052 0.69375,-0.2706754 1.04141,-0.403969 0.22559,-0.086494 0.44967,-0.3333941 0.67834,-0.2553851 0.15954,0.054425 -0.23071,0.2458262 -0.34607,0.3687392 -0.8022,0.4286575 -0.41195,0.2268225 -1.53174,0.7782054 -2.16196,1.0645452 -4.34206,2.0920302 -6.55069,3.0566087 -0.547666,0.2319105 -1.094809,0.4650626 -1.642999,0.6957314 -0.406334,0.170978 -0.800185,0.3764569 -1.220563,0.5092049 -0.130302,0.041147 -0.486206,0.119016 -0.409895,0.00566 0.151167,-0.2245464 0.454139,-0.2957685 0.692081,-0.4248259 0.493223,-0.2675191 1.034553,-0.4399044 1.527006,-0.7083671 2.42848,-1.1458072 4.84276,-2.3230617 7.2376,-3.5375196 0.34042,-0.1704168 0.67999,-0.3425568 1.02127,-0.5112509 0.18589,-0.091886 0.69744,-0.4213654 1.01565,-0.3815935 0.0299,0.00374 0.009,0.068764 -0.0128,0.089504 -0.0878,0.083321 -0.19551,0.1433719 -0.29899,0.2062305 -0.31799,0.1931741 -0.64316,0.3742992 -0.96474,0.5614487 -1.57568,0.811334 -3.21508,1.4833468 -4.85566,2.1510382 -2.359159,0.962928 -4.722402,1.9443826 -7.180439,2.6296789 0,0 0.512831,-0.3926869 0.512831,-0.3926869 z"
       inkscape:connector-curvature="0" />
    <path
       style="fill:#ff0000;stroke-width:0.26458332"
       id="path171"
       d="m 18.935075,0.90501905 c 1.110314,0.008452 2.220673,0.006593 3.33101,0.007927 1.451956,0.001085 2.903912,-4.3127e-4 4.355866,0.001468 2.217095,0.006348 4.4342,0.005174 6.651297,0.007914 2.830446,0.00145 5.66089,0.004078 8.491334,0.002254 2.519719,-0.003706 5.039442,-0.002463 7.559164,-0.003212 2.664791,7.7787e-4 5.329576,0.004144 7.994367,0.001548 2.583503,-0.006399 5.167003,6.4294e-4 7.7505,0.003334 0.514366,7.774e-5 1.028729,1.6738e-4 1.543095,2.3323e-4 1.248143,1.5976e-4 1.876769,-0.008832 3.127314,0.0276859 1.471676,0.0429753 2.942191,0.13068392 4.411554,0.22055272 0.404876,0.025767 0.809982,0.048169 1.214631,0.0773 4.255463,0.3063564 -2.07822,-0.1256318 2.393688,0.1848637 1.043384,0.072445 2.08783,0.1273903 3.131587,0.1939885 1.291905,0.1167967 2.592319,0.170233 3.874749,0.3731368 0.552839,0.1081493 1.109289,0.1927246 1.671521,0.2288803 0.313637,0.03661 0.926875,-0.013362 1.18754,0.1690174 0.06278,0.043921 0.105426,0.1111939 0.158139,0.1667909 0.333435,0.5363722 0.286893,1.1667328 0.224046,1.7679259 -0.143438,0.8816128 -0.381727,1.7426207 -0.639516,2.5963668 -0.04829,0.1704358 -0.09394,0.3416422 -0.14487,0.5113078 -0.203258,0.677137 -0.181483,0.5260755 -0.37728,1.2446413 -0.210886,0.7739469 -0.372446,1.5601357 -0.545084,2.3431427 -0.356156,1.537805 -0.583761,3.100269 -0.830773,4.658078 -0.202121,1.426913 -0.387075,2.855155 -0.620874,4.277191 -0.208624,1.149392 -0.334042,2.311286 -0.408504,3.476426 -0.07492,1.063985 -0.135374,2.129104 -0.189534,3.194365 -0.03552,1.119428 -0.07069,2.237086 -0.155705,3.353996 -0.09469,1.230733 -0.120001,2.465231 -0.13663,3.699028 -0.03358,1.050147 -0.06781,2.100231 -0.130781,3.149061 -0.06726,0.833374 -0.129982,1.665583 -0.261909,2.491544 -0.06551,0.376235 -0.127309,0.753089 -0.155347,1.134157 -0.0382,0.300636 -0.07691,0.600829 -0.133755,0.898531 -0.0545,0.268414 -0.08257,0.574264 -0.245245,0.805984 -0.03112,0.04433 -0.07329,0.07978 -0.109934,0.119666 -0.606179,0.460819 -1.170292,0.555254 -1.870036,0.691462 -0.931574,0.120901 -1.863463,0.23999 -2.794836,0.364273 -1.362535,0.178877 -2.736715,0.225875 -4.108997,0.259231 -1.301726,0.02421 -2.603762,0.02103 -3.905655,0.02042 -1.108295,2.2e-5 -2.216587,1.17e-4 -3.324881,-0.0011 -0.934085,0.0011 -1.86817,0.0011 -2.802258,5.29e-4 -0.773999,1.7e-4 -1.547997,0.0016 -2.321996,0.0024 -0.392978,0.02912 -0.805053,-0.05853 -1.187818,0.05482 0.159263,-0.08639 0.311417,-0.187423 0.47779,-0.259183 0.03848,-0.01659 -0.06478,0.0552 -0.08711,0.09067 -0.07507,0.119247 -0.105947,0.279765 -0.127138,0.413255 -0.04016,0.252987 -0.04954,0.491887 -0.06659,0.747858 -0.03722,1.106509 -0.18956,2.201016 -0.332774,3.297232 -0.181128,1.219385 -0.450622,2.426706 -0.781058,3.614034 -0.382574,1.356664 -0.830204,2.693969 -1.267264,4.03379 -0.375539,1.217192 -0.704152,2.448573 -1.076124,3.666651 -0.262353,0.754123 -0.454565,1.530924 -0.709406,2.287061 -0.145076,0.287502 -0.232706,0.776076 -0.478266,1.000765 -0.05319,0.04867 -0.12005,0.07988 -0.180076,0.119822 -0.353459,0.130969 -0.695168,0.299601 -1.060381,0.392909 -0.157763,0.04031 -1.46599,0.08502 -1.536922,0.08712 -1.107964,0.03288 -2.216923,0.03509 -3.325244,0.04189 -2.850816,0.007 -5.701635,-0.0021 -8.552447,-0.0061 -2.014389,-0.01744 -4.029268,0.01955 -6.043615,7.94e-4 -0.815014,-0.0076 -1.656461,-0.03697 -2.471915,-0.06163 -1.8529,-0.07206 -3.70646,-0.117908 -5.560581,-0.140313 -1.484218,-0.0098 -2.967591,-0.0661 -4.451522,-0.09485 -1.213008,-0.02143 -2.426234,-0.02468 -3.639399,-0.02667 -1.000809,0.0011 -2.001619,-7.93e-4 -3.002427,9e-5 -0.774239,-0.01693 -1.550453,0.03 -2.324025,-0.01035 -0.536825,-0.02748 -0.717885,-0.118623 -0.893884,-0.627875 -0.110291,-0.808347 -0.08366,-1.62938 -0.08328,-2.44339 0.02056,-1.387088 0.01279,-2.772153 -0.04753,-4.158064 -0.133274,-1.669196 -0.320158,-3.33194 -0.407365,-5.004697 -0.07672,-1.822939 -0.08169,-3.647982 -0.08781,-5.472242 -0.0039,-1.617938 -0.0028,-3.235881 -0.0032,-4.853821 -0.0012,-1.327618 6.5e-5,-2.655237 -0.0015,-3.982855 -0.0016,-1.092105 -0.0021,-2.184209 -0.0021,-3.276317 0.0049,-1.089205 -0.01175,-2.178671 0.01345,-3.267649 0.02775,-1.106617 0.133445,-2.209226 0.232163,-3.311205 0.178415,-1.4264 0.391653,-2.846788 0.52167,-4.278815 0.10233,-1.346765 0.165204,-2.695469 0.292154,-4.04022 0.162536,-1.542193 0.371624,-3.082016 0.706172,-4.596766 0.332603,-1.469924 0.773583,-2.911854 1.128977,-4.3758116 0.283858,-1.2239913 0.528062,-2.4566744 0.720295,-3.6983248 0.105865,-0.7692126 0.211064,-1.5381909 0.265838,-2.3129473 0.02195,-0.5767096 0.100129,-1.1540628 0.256567,-1.7100909 0.238367,-0.56290453 0.932898,-0.72807837 1.476321,-0.8733611 0.412432,-0.0745153 0.830491,-0.10499958 1.245815,-0.15954103 0,0 -0.528546,0.39446544 -0.528546,0.39446544 v 0 c -0.414215,0.0524301 -0.832312,0.0800679 -1.241201,0.16749265 -0.159,0.0443045 -0.249134,0.0666291 -0.405322,0.12142284 -0.06024,0.021132 -0.228606,0.1086557 -0.178703,0.068849 0.775629,-0.61869974 0.327926,-0.19877692 0.228513,-0.00222 -0.169161,0.5494037 -0.246045,1.1262177 -0.267547,1.6996429 -0.05497,0.7785963 -0.16601,1.5505546 -0.274367,2.3232377 -0.194414,1.2450956 -0.443282,2.4805836 -0.728308,3.7080933 -0.352819,1.4645489 -0.795877,2.9058679 -1.130533,4.3752639 -0.33825,1.511516 -0.54651,3.048954 -0.707975,4.588844 -0.125263,1.344583 -0.183368,2.693275 -0.290826,4.039373 -0.130919,1.430909 -0.342431,2.850616 -0.517508,4.276437 -0.09254,1.100689 -0.201547,2.201089 -0.230391,3.305864 -0.02824,1.088356 -0.0073,2.177175 -0.01331,3.265808 7.2e-5,1.092838 -4.23e-4,2.185678 -0.0022,3.278516 -0.0019,1.328615 -0.0011,2.657236 -0.0043,3.985852 -0.0027,1.619208 -0.0061,3.238416 -0.0048,4.857626 0.0049,1.822968 0.0083,3.646715 0.08869,5.468273 0.09079,1.672312 0.269039,3.335814 0.409502,5.004226 0.06233,1.386909 0.07991,2.764883 0.06367,4.152956 4.23e-4,0.805042 -0.01983,1.617157 0.08839,2.416444 0.168202,0.503455 0.332133,0.528204 0.848064,0.563743 0.76954,0.03599 1.541179,0.0026 2.311249,0.01558 1.000501,2.22e-4 2.001003,-0.0029 3.001505,7.94e-4 1.211363,0.003 2.422717,0.01066 3.633917,0.03207 1.48148,0.03105 2.962426,0.08736 4.444231,0.09955 1.849671,0.02453 3.698764,0.07195 5.546958,0.151614 2.830865,0.09404 5.662507,0.0714 8.494652,0.07362 2.857359,2.12e-4 5.714746,0.0027 8.572087,-0.0088 1.112467,-0.0087 2.225463,-0.01249 3.337364,-0.05365 0.287216,-0.01064 0.574434,-0.02302 0.861195,-0.04239 0.229349,-0.01548 0.465204,-0.123288 0.686805,-0.06218 0.07796,0.02151 -0.0478,0.154528 -0.0717,0.231791 0.06247,-0.03208 0.131725,-0.05346 0.187412,-0.09624 0.252492,-0.194011 0.352867,-0.713066 0.493586,-0.98334 0.264509,-0.755071 0.453945,-1.535573 0.721071,-2.290281 0.380392,-1.218827 0.710213,-2.453587 1.088134,-3.673377 0.434057,-1.337662 0.87989,-2.672361 1.259025,-4.026948 0.332838,-1.184786 0.605544,-2.389822 0.787905,-3.607213 0.142531,-1.092742 0.290089,-2.184471 0.323157,-3.287535 0.01945,-0.343657 0.0088,-0.874818 0.162737,-1.19281 0.122449,-0.252947 0.672716,-0.451033 0.749575,-0.495451 0.389874,-0.08215 0.794441,-0.01516 1.18957,-0.03577 0.771794,7.94e-4 1.543587,0.0021 2.315382,0.0024 0.933111,-5.29e-4 1.866222,-2.12e-4 2.799331,0.0016 1.10662,4.5e-5 2.213231,0.0026 3.319849,0.0046 1.301234,5.3e-4 2.602592,0.003 3.903662,-0.0209 1.371706,-0.0331 2.745179,-0.0831 4.106614,-0.266181 0.9355,-0.127886 1.872226,-0.246623 2.806906,-0.378333 0.25812,-0.05216 0.51385,-0.106836 0.768985,-0.172027 0.07367,-0.01881 0.269267,-0.115617 0.220872,-0.05697 -0.100047,0.121235 -0.264081,0.170845 -0.391171,0.26334 -0.04188,0.03048 0.09002,-0.05128 0.135033,-0.07692 0.03923,-0.03385 0.08462,-0.06166 0.117697,-0.101547 0.176861,-0.213291 0.200914,-0.528355 0.253706,-0.787069 0.05744,-0.295302 0.09716,-0.592691 0.136197,-0.891003 0.02759,-0.384911 0.09205,-0.765083 0.162372,-1.144289 0.139404,-0.824547 0.204544,-1.65567 0.271238,-2.488864 0.06802,-1.048999 0.10038,-2.099527 0.139422,-3.149946 0.0182,-1.234239 0.04222,-2.469126 0.131038,-3.700704 0.08662,-1.11684 0.124338,-2.234123 0.158811,-3.353673 0.05349,-1.064327 0.109643,-2.128744 0.182324,-3.191904 0.08117,-1.168447 0.209952,-2.333959 0.416637,-3.487388 0.07364,-0.445348 0.156403,-0.889274 0.221374,-1.335969 0.142552,-0.980054 0.250468,-1.965595 0.405995,-2.943969 0.247232,-1.559016 0.471313,-3.123305 0.830117,-4.661914 0.172101,-0.782561 0.331076,-1.5691499 0.53698,-2.3438046 0.202835,-0.7629256 0.158248,-0.5263082 0.36974,-1.2404094 0.05025,-0.169658 0.09489,-0.3409265 0.142332,-0.5113896 0.254029,-0.8502078 0.495557,-1.7058401 0.639652,-2.5828971 0.06046,-0.5801243 0.116969,-1.1939275 -0.204105,-1.713321 -0.04784,-0.047668 -0.08673,-0.106449 -0.14351,-0.1430046 C 86.812421,2.6004727 86.210473,2.6568632 85.900553,2.6167535 85.339962,2.5767301 84.785774,2.4860216 84.234697,2.3765514 82.960508,2.1699288 81.668119,2.1134717 80.384112,1.9935085 78.143636,1.8406731 75.902541,1.6983302 73.663616,1.523884 72.198062,1.4297482 70.731617,1.3402232 69.263391,1.2985022 c -1.221284,-0.034704 -1.908815,-0.026058 -3.128068,-0.025902 -0.51458,6.58e-5 -1.029157,1.555e-4 -1.543738,2.332e-4 -2.586556,0.00269 -5.173117,0.00973 -7.759676,0.00333 -2.666211,-0.0026 -5.332417,7.806e-4 -7.998629,0.00155 -2.516775,-7.487e-4 -5.03355,4.975e-4 -7.550322,-0.00321 -2.832515,-0.00183 -5.665025,8.123e-4 -8.497541,0.00225 -2.224362,0.00274 -4.448725,0.00158 -6.673084,0.00791 -1.453301,0.00189 -2.906603,3.863e-4 -4.359905,0.00147 -1.117611,0.00134 -2.235243,-4.788e-4 -3.352831,0.00793 0,0 0.535478,-0.38904794 0.535478,-0.38904794 z"
       inkscape:connector-curvature="0" />
  </g>
</svg>
