Markus,Huber,Straße,1000,Wien,AT
Testvor,Mustermann,Gasse,2000,Graz,AT
Jane,Musterfrau,Gasse,12345,Zürich,CH
Testvor,Musterman,Gasse,2000,Graz,AT
Nachname,Markus,Gasse,2000,Graz,AT
Markus,Nachname,Gasse,2000,Graz,AT
Markus,Huber,Straße,1000,Vienna,AT
Markus,Huber,Straße,1000,Vienna,AT
Markus,Huber,Straße,1000,Vienna,AT
Markus,Huber,Straße,1000,Vienna,AT
Markus,Huber,Straße,1000,Vienna,AT
Markus,Huber,Straße,1000,Vienna,AT
Markus,Huber,Straße,1000,Vienna,AT
Markus,Huber,Straße,1000,Vienna,AT
asdfasdf,sasdf,asdfasfd,12345,asfsafd,AT
Nach,Neu,asdf,12345,Vienna,AT
Nach,Neu,asdf,12345,Vienna,AT
Nach,Neu,asdf,12345,Vienna,AT
"Echt neu","Neu Neu",asdf,12345,Vienna,AT,63bf086912012.jpg
"Echt neu","Neu Neu",asdf,12345,Vienna,AT,63bf08a31b383.php
"Echt neu","Neu Neu",asdf,12345,Vienna,AT,63bf08e4d832d.jpg
"Echt neu","Neu Neu",asdf,12345,Vienna,AT,63bf0c00040ef.php
asdfsadf,sfdasdf,asdfsadf,1000,asdfsadf,AT,63bf1084f3e51.jpg
asdfsadf,sfdasdf,asdfsadf,1000,asdfsadf,AT,63bf1090821f4.jpg
